"Date";"Time";"Message text";"Status";"Acknowledgment Status"
31/08/15;13:10:46;TT-POMP-073-001: TEMPERATUURMETING POMP 073 TANK 75-20 MEETFOUT;OFF;
31/08/15;13:10:47;TT-POMP-073-001: TEMPERATUURMETING POMP 073 TANK 75-20 MEETFOUT;ACK;
31/08/15;13:11:30;T4300-04-ET2: TEMPERATUUR ENTIS 2 TANK 4300-04 MEETFOUT;ON;
31/08/15;13:11:47;T4300-04-ET2: TEMPERATUUR ENTIS 2 TANK 4300-04 MEETFOUT;ACK;
31/08/15;13:12:29;ORDER DATA LP1B ANT_T0250_01 HANDBEDIENING;OFF;
31/08/15;13:12:42;T4300-04-EM1: MASSA ENTIS TANK 4300-04 MEETFOUT;ON;
31/08/15;13:12:42;T4300-04-ET1: TEMPERATUUR ENTIS TANK 4300-04 MEETFOUT;ON;
31/08/15;13:12:57;ORDER DATA LP1B ANT_T0200_18 HANDBEDIENING;OFF;
31/08/15;13:12:57;ORDER DATA LP1B ANT_T0200_19 HANDBEDIENING;OFF;
31/08/15;13:12:57;ORDER DATA LP1B ANT_T0250_03 HANDBEDIENING;OFF;
31/08/15;13:12:57;ORDER DATA LP1B ANT_T0250_04 HANDBEDIENING;OFF;
31/08/15;13:12:57;ORDER DATA LP1B ANT_T0300_04 HANDBEDIENING;OFF;
31/08/15;13:12:57;ORDER DATA LP1B ANT_T0300_06 HANDBEDIENING;OFF;
31/08/15;13:12:57;ORDER DATA LP1B ANT_T0300_08 HANDBEDIENING;OFF;
31/08/15;13:12:57;T4300-04-ET1: TEMPERATUUR ENTIS TANK 4300-04 MEETFOUT;ACK;
31/08/15;13:12:58;T4300-04-EM1: MASSA ENTIS TANK 4300-04 MEETFOUT;ACK;
31/08/15;13:12:59;ORDER DATA LP1B ANT_T0150_30 HANDBEDIENING;OFF;
31/08/15;13:12:59;ORDER DATA LP1B ANT_T0200_15 HANDBEDIENING;OFF;
31/08/15;13:12:59;ORDER DATA LP1B ANT_T0200_17 HANDBEDIENING;OFF;
31/08/15;13:13:02;UA-TR-ST629-001: TRACING WATERLEIDING NOODDOUCHE IN ALARM;OFF;
31/08/15;13:13:10;ORDER DATA LP1B ANT_T0250_01 MASTER RESET;ON;
31/08/15;13:13:23;ORDER DATA LP3B ANT_T0075_07 CONTROLE OK;ON;
31/08/15;13:13:39;ORDER DATA LP3B ANT_T0075_07 CONTROLE OK;OFF;
31/08/15;13:14:31;TT-POST2-001: TEMPERATUURBEWAKING POST2 LAAGSPANNING HOOG HOOG ALARM;ON;
31/08/15;13:14:48;TT-POST2-001: TEMPERATUURBEWAKING POST2 LAAGSPANNING HOOG HOOG ALARM;ACK;
31/08/15;13:15:29;T300-9-ET2: TEMPERATUUR GAS ENTIS TANK 300-9 MEETFOUT;ON;
31/08/15;13:16:02;T300-9-ET2: TEMPERATUUR GAS ENTIS TANK 300-9 MEETFOUT;ACK;
31/08/15;13:17:27;T1200-4-ET2: TEMPERATUUR GASFASE ENTIS TANK 1200-4 MEETFOUT;ON;
31/08/15;13:17:27;T1200-4-EL1: LEVEL ENTIS TANK 1200-4 MEETFOUT;ON;
31/08/15;13:17:27;T1200-4-ET1: TEMPERATUUR ENTIS TANK 1200-4 MEETFOUT;ON;
31/08/15;13:17:27;T1200-4-EQ1: FLOW ENTIS TANK 1200-4 MEETFOUT;ON;
31/08/15;13:17:27;T1200-4-EM1: MASSA ENTIS TANK 1200-4 MEETFOUT;ON;
31/08/15;13:17:27;T1200-4-ED1: DENSITY ENTIS TANK 1200-4 MEETFOUT;ON;
31/08/15;13:17:52;T1200-4-ED1: DENSITY ENTIS TANK 1200-4 MEETFOUT;ACK;
31/08/15;13:17:53;T1200-4-EM1: MASSA ENTIS TANK 1200-4 MEETFOUT;ACK;
31/08/15;13:17:54;T1200-4-EQ1: FLOW ENTIS TANK 1200-4 MEETFOUT;ACK;
31/08/15;13:17:55;T1200-4-ET1: TEMPERATUUR ENTIS TANK 1200-4 MEETFOUT;ACK;
31/08/15;13:17:56;T1200-4-EL1: LEVEL ENTIS TANK 1200-4 MEETFOUT;ACK;
31/08/15;13:17:57;T1200-4-ET2: TEMPERATUUR GASFASE ENTIS TANK 1200-4 MEETFOUT;ACK;
31/08/15;13:18:00;T1200-4-ET2: TEMPERATUUR GASFASE ENTIS TANK 1200-4 MEETFOUT;OFF;
31/08/15;13:18:00;T1200-4-EL1: LEVEL ENTIS TANK 1200-4 MEETFOUT;OFF;
31/08/15;13:18:00;T1200-4-ET1: TEMPERATUUR ENTIS TANK 1200-4 MEETFOUT;OFF;
31/08/15;13:18:00;T1200-4-EQ1: FLOW ENTIS TANK 1200-4 MEETFOUT;OFF;
31/08/15;13:18:00;T1200-4-EM1: MASSA ENTIS TANK 1200-4 MEETFOUT;OFF;
31/08/15;13:18:00;T1200-4-ED1: DENSITY ENTIS TANK 1200-4 MEETFOUT;OFF;
31/08/15;13:34:41;ORDER DATA LP9A ANT_T0075_13 CONTROLE OK;ON;
31/08/15;13:34:43;ORDER DATA LP9A ANT_T0075_13 CONTROLE OK;OFF;
31/08/15;13:35:09;T4300-11-EL1: LEVEL ENTIS TANK 4300-11 MEETFOUT;ON;
31/08/15;13:35:09;T4300-11-EM1: MASSA ENTIS TANK 4300-11 MEETFOUT;ON;
31/08/15;13:35:09;T4300-11-EQ1: FLOW ENTIS TANK 4300-11 MEETFOUT;ON;
31/08/15;13:35:09;T4300-11-ETOV1: TOTAL OBSERVED VOLUME TANK 4300-11 MEETFOUT;ON;
31/08/15;13:35:09;T4300-11-ERA1: ROOM AVAILABLE TANK 4300-11 MEETFOUT;ON;
31/08/15;13:35:29;T4300-11-ERA1: ROOM AVAILABLE TANK 4300-11 MEETFOUT;ACK;
31/08/15;13:35:30;T4300-11-ETOV1: TOTAL OBSERVED VOLUME TANK 4300-11 MEETFOUT;ACK;
31/08/15;13:35:31;T4300-11-EQ1: FLOW ENTIS TANK 4300-11 MEETFOUT;ACK;
31/08/15;13:35:33;T4300-11-EM1: MASSA ENTIS TANK 4300-11 MEETFOUT;ACK;
31/08/15;13:35:34;T4300-11-EL1: LEVEL ENTIS TANK 4300-11 MEETFOUT;ACK;
31/08/15;13:36:34;T4300-11-ET1: TEMPERATUUR VLOEISTOF ENTIS TANK 4300-11 MEETFOUT;ON;
31/08/15;13:36:34;T4300-11-ET2: TEMPERATUUR GAS ENTIS TANK 4300-11 MEETFOUT;ON;
31/08/15;13:36:46;T4300-11-ET2: TEMPERATUUR GAS ENTIS TANK 4300-11 MEETFOUT;ACK;
31/08/15;13:36:47;T4300-11-ET1: TEMPERATUUR VLOEISTOF ENTIS TANK 4300-11 MEETFOUT;ACK;
31/08/15;13:38:17;T300-9-EM1: MASSA ENTIS TANK 300-9 MEETFOUT;ON;
31/08/15;13:38:17;T300-9-ET1: TEMPERATUUR VLOEISTOF ENTIS TANK 300-9 MEETFOUT;ON;
31/08/15;13:38:36;T300-9-ET1: TEMPERATUUR VLOEISTOF ENTIS TANK 300-9 MEETFOUT;ACK;
31/08/15;13:38:38;T300-9-EM1: MASSA ENTIS TANK 300-9 MEETFOUT;ACK;
31/08/15;13:40:16;TT-POMP-073-001: TEMPERATUURMETING POMP 073 TANK 75-20 MEETFOUT;ON;
31/08/15;13:40:33;TT-POMP-073-001: TEMPERATUURMETING POMP 073 TANK 75-20 MEETFOUT;ACK;
31/08/15;13:41:43;ORDER DATA LP1B ANT_T0300_06 CONTROLE OK;ON;
31/08/15;13:41:49;ORDER DATA LP1B ANT_T0300_06 CONTROLE OK;OFF;
31/08/15;13:48:37;ORDER DATA LP4A ANT_T0100_06 CONTROLE OK;ON;
31/08/15;13:48:41;ORDER DATA LP4A ANT_T0100_06 CONTROLE OK;OFF;
31/08/15;13:52:14;ORDER DATA LP1A ANT_T0300_09 CONTROLE OK;ON;
31/08/15;13:52:23;ORDER DATA LP1A ANT_T0300_09 CONTROLE OK;OFF;
31/08/15;13:54:57;ORDER DATA LP3B ANT_T0150_01 CONTROLE OK;ON;
31/08/15;13:54:59;ORDER DATA LP3B ANT_T0150_01 CONTROLE OK;OFF;
31/08/15;13:55:51;ORDER DATA LP3B ANT_T0150_01 CONTROLE OK;ON;
31/08/15;13:55:57;ORDER DATA LP3B ANT_T0150_01 CONTROLE OK;OFF;
31/08/15;13:56:47;ORDER DATA LP2B ANT_T0150_20 CONTROLE OK;ON;
31/08/15;13:57:01;ORDER DATA LP2B ANT_T0150_20 CONTROLE OK;OFF;
31/08/15;13:59:17;ORDER DATA LP7B ANT_T0125_04 CONTROLE OK;ON;
31/08/15;13:59:21;ORDER DATA LP7B ANT_T0125_04 CONTROLE OK;OFF;
31/08/15;14:02:45;PT-P300-002: DRUKMETING STEEK POMP 300 HOOG ALARM;ON;
31/08/15;14:03:18;PT-P300-002: DRUKMETING STEEK POMP 300 HOOG ALARM;ACK;
31/08/15;14:03:42;PT-P300-002: DRUKMETING STEEK POMP 300 HOOG ALARM;OFF;
31/08/15;14:04:40;XV-4300-08-P408Z: AFSLUITER TANK 4300-08 ZUIG POMP 408 IN ALARM;ON;
31/08/15;14:04:53;XV-4300-08-P408Z: AFSLUITER TANK 4300-08 ZUIG POMP 408 IN ALARM;ACK;
31/08/15;14:04:54;XV-4300-08-P408Z: AFSLUITER TANK 4300-08 ZUIG POMP 408 IN ALARM;OFF;
31/08/15;14:05:56;XV-4300-08-P408Z: AFSLUITER TANK 4300-08 ZUIG POMP 408 IN ALARM;ON;
31/08/15;14:06:17;XV-4300-08-P408Z: AFSLUITER TANK 4300-08 ZUIG POMP 408 IN ALARM;ACK;
31/08/15;14:06:18;XV-4300-08-P408Z: AFSLUITER TANK 4300-08 ZUIG POMP 408 IN ALARM;OFF;
31/08/15;14:12:10;TT-P346-001: TEMPERATUURMETING POMP 346 HOOG ALARM;ON;
31/08/15;14:12:34;TT-P346-001: TEMPERATUURMETING POMP 346 HOOG ALARM;ACK;
31/08/15;14:14:50;FT-250-4-AL-VAR: VARIATIE ALARM IN ALARM;ON;
31/08/15;14:15:12;FT-250-4-AL-VAR: VARIATIE ALARM IN ALARM;ACK;
31/08/15;14:15:12;FT-250-4-AL-VAR: VARIATIE ALARM IN ALARM;OFF;
31/08/15;14:20:16;T4300-11-EL1: LEVEL ENTIS TANK 4300-11 MEETFOUT;OFF;
31/08/15;14:20:16;T4300-11-ET1: TEMPERATUUR VLOEISTOF ENTIS TANK 4300-11 MEETFOUT;OFF;
31/08/15;14:20:16;T4300-11-ET2: TEMPERATUUR GAS ENTIS TANK 4300-11 MEETFOUT;OFF;
31/08/15;14:20:16;T4300-11-EM1: MASSA ENTIS TANK 4300-11 MEETFOUT;OFF;
31/08/15;14:20:16;T4300-11-EQ1: FLOW ENTIS TANK 4300-11 MEETFOUT;OFF;
31/08/15;14:20:16;T4300-11-ETOV1: TOTAL OBSERVED VOLUME TANK 4300-11 MEETFOUT;OFF;
31/08/15;14:20:16;T4300-11-ERA1: ROOM AVAILABLE TANK 4300-11 MEETFOUT;OFF;
31/08/15;14:20:22;T200-19-EP1: DRUK ENTIS TANK 200-19 HOOG ALARM;OFF;
31/08/15;14:20:49;T300-5-EP1: DRUK ENTIS TANK 300-5 HOOG ALARM;OFF;
31/08/15;14:26:18;XV-4300-08-P408Z: AFSLUITER TANK 4300-08 ZUIG POMP 408 IN ALARM;ON;
31/08/15;14:26:44;XV-4300-08-P408Z: AFSLUITER TANK 4300-08 ZUIG POMP 408 IN ALARM;ACK;
31/08/15;14:26:46;XV-4300-08-P408Z: AFSLUITER TANK 4300-08 ZUIG POMP 408 IN ALARM;OFF;
31/08/15;14:31:00;T300-9-ET2: TEMPERATUUR GAS ENTIS TANK 300-9 IN SIMULATIE;ON;
31/08/15;14:31:02;T300-9-ET2: TEMPERATUUR GAS ENTIS TANK 300-9 COMMENTAAR AAN;ON;
31/08/15;14:31:44;T300-4-EP1: DRUK ENTIS TANK 300-4 HOOG ALARM;OFF;
31/08/15;14:33:07;T300-8-EP1: DRUK ENTIS TANK 300-8 HOOG ALARM;OFF;
31/08/15;14:33:22;T300-10-EP1: DRUK ENTIS TANK 300-10 HOOG ALARM;OFF;
31/08/15;14:34:11;T250-2-EP1: DRUK ENTIS TANK 250-2 HOOG ALARM;OFF;
31/08/15;14:36:40;ORDER DATA LP5A ANT_T0300_03 CONTROLE OK;ON;
31/08/15;14:36:55;ORDER DATA LP5A ANT_T0300_03 CONTROLE OK;OFF;
31/08/15;14:40:08;XV-3100-2-090: REGENWATER AFSLUITER 6" TANK 3100-2 IN ALARM;ON;
31/08/15;14:40:33;XV-3100-2-090: REGENWATER AFSLUITER 6" TANK 3100-2 IN ALARM;ACK;
31/08/15;14:40:35;XV-3100-2-090: REGENWATER AFSLUITER 6" TANK 3100-2 IN ALARM;OFF;
31/08/15;14:41:44;XV-350-05-001: HOOFDAFSLUITER 1 BULLET 350-05 IN ALARM;ON;
31/08/15;14:42:02;XV-350-05-001: HOOFDAFSLUITER 1 BULLET 350-05 IN ALARM;OFF;
31/08/15;14:42:02;XV-350-05-001: HOOFDAFSLUITER 1 BULLET 350-05 IN ALARM;ACK;
31/08/15;14:44:03;LSL-350-05-004: LAAG NIVEAU SCHAKELAAR AANZUIG POMP 344 IN ALARM;ON;
31/08/15;14:44:20;LSL-350-05-004: LAAG NIVEAU SCHAKELAAR AANZUIG POMP 344 IN ALARM;OFF;
31/08/15;14:44:21;LSL-350-05-004: LAAG NIVEAU SCHAKELAAR AANZUIG POMP 344 IN ALARM;ACK;
31/08/15;14:46:18;LSL-350-05-004: LAAG NIVEAU SCHAKELAAR AANZUIG POMP 344 IN ALARM;ON;
31/08/15;14:46:54;LSL-350-05-004: LAAG NIVEAU SCHAKELAAR AANZUIG POMP 344 IN ALARM;OFF;
31/08/15;14:46:56;LSL-350-05-004: LAAG NIVEAU SCHAKELAAR AANZUIG POMP 344 IN ALARM;ACK;
31/08/15;14:49:06;XS-LA21-005: ERC WAPENING LAADARM LA21  1 = GEWAPEND IN ALARM;ON;
31/08/15;14:49:11;XS-LA21-005: ERC WAPENING LAADARM LA21  1 = GEWAPEND IN ALARM;ACK;
31/08/15;14:49:16;LSL-350-05-004: LAAG NIVEAU SCHAKELAAR AANZUIG POMP 344 IN ALARM;ON;
31/08/15;14:49:46;LSL-350-05-004: LAAG NIVEAU SCHAKELAAR AANZUIG POMP 344 IN ALARM;OFF;
31/08/15;14:49:49;LSL-350-05-004: LAAG NIVEAU SCHAKELAAR AANZUIG POMP 344 IN ALARM;ACK;
31/08/15;14:50:31;XS-LA21-005: ERC WAPENING LAADARM LA21  1 = GEWAPEND IN ALARM;OFF;
31/08/15;14:51:14;KG03: Koeler KG03 nieuw alarm aanwezig;ON;
31/08/15;14:51:15;KG03: Koeler KG03 nieuw alarm aanwezig;OFF;
31/08/15;14:51:26;KG03: Koeler KG03 nieuw alarm aanwezig;OFF;
31/08/15;14:51:34;KG03: Koeler KG03 nieuw alarm aanwezig;Acknowledgment - System;
31/08/15;14:51:34;KG03: Koeler KG03 nieuw alarm aanwezig;ON;
31/08/15;14:52:04;KG03: Koeler KG03 nieuw alarm aanwezig;ACK;
31/08/15;14:53:48;KG03: Koeler KG03 nieuw alarm aanwezig;OFF;
31/08/15;14:54:36;KG03: Koeler KG03 nieuw alarm aanwezig;ON;
31/08/15;14:54:48;KG03: Koeler KG03 nieuw alarm aanwezig;ACK;
31/08/15;14:59:01;PT-150-11-002: DRUKMETING TANK 150-11 HOOG ALARM;OFF;
31/08/15;15:02:14;LSH-L115-001: OVERVULBEVEILIGING VRACHTWAGENBELADING L115;ON;
31/08/15;15:02:28;LSH-L115-001: OVERVULBEVEILIGING VRACHTWAGENBELADING L115;ACK;
31/08/15;15:05:06;LSH-L115-001: OVERVULBEVEILIGING VRACHTWAGENBELADING L115;OFF;
31/08/15;15:05:46;TT-P346-001: TEMPERATUURMETING POMP 346 HOOG ALARM;OFF;
31/08/15;15:12:03;ORDER DATA LP3A ANT_T0150_06 CONTROLE OK;ON;
31/08/15;15:12:10;ORDER DATA LP3A ANT_T0150_06 CONTROLE OK;OFF;
31/08/15;15:14:48;ORDER DATA LP4A ANT_T0100_06 CONTROLE OK;ON;
31/08/15;15:14:49;ORDER DATA LP4A ANT_T0100_06 CONTROLE OK;OFF;
31/08/15;15:15:51;XA-LP10B-003: AARDING 3 LAADPLAATS 10B IN ALARM;ON;
31/08/15;15:15:59;XA-LP10B-003: AARDING 3 LAADPLAATS 10B IN ALARM;OFF;
31/08/15;15:16:03;XA-LP10B-003: AARDING 3 LAADPLAATS 10B IN ALARM;ACK;
31/08/15;15:16:23;ORDER DATA LP7B ANT_T0150_25 CONTROLE OK;ON;
31/08/15;15:16:27;ORDER DATA LP7B ANT_T0150_25 CONTROLE OK;OFF;
31/08/15;15:20:47;ORDER DATA LP3B ANT_T0075_07 CONTROLE OK;ON;
31/08/15;15:20:49;ORDER DATA LP3B ANT_T0075_07 CONTROLE OK;OFF;
31/08/15;15:21:12;T4300-11-EL1: LEVEL ENTIS TANK 4300-11 MEETFOUT;ON;
31/08/15;15:21:12;T4300-11-EM1: MASSA ENTIS TANK 4300-11 MEETFOUT;ON;
31/08/15;15:21:12;T4300-11-EQ1: FLOW ENTIS TANK 4300-11 MEETFOUT;ON;
31/08/15;15:21:12;T4300-11-ETOV1: TOTAL OBSERVED VOLUME TANK 4300-11 MEETFOUT;ON;
31/08/15;15:21:12;T4300-11-ERA1: ROOM AVAILABLE TANK 4300-11 MEETFOUT;ON;
31/08/15;15:21:34;T4300-11-ERA1: ROOM AVAILABLE TANK 4300-11 MEETFOUT;ACK;
31/08/15;15:21:36;T4300-11-ETOV1: TOTAL OBSERVED VOLUME TANK 4300-11 MEETFOUT;ACK;
31/08/15;15:21:36;T4300-11-EQ1: FLOW ENTIS TANK 4300-11 MEETFOUT;ACK;
31/08/15;15:21:37;T4300-11-EM1: MASSA ENTIS TANK 4300-11 MEETFOUT;ACK;
31/08/15;15:21:38;T4300-11-EL1: LEVEL ENTIS TANK 4300-11 MEETFOUT;ACK;
31/08/15;15:21:59;PIT-VPU-621A-002-001: DRUKMETING KNOCK OUT DRUM 2 VPU003 HOOG ALARM;ON;
31/08/15;15:22:12;T4300-11-EL1: LEVEL ENTIS TANK 4300-11 MEETFOUT;OFF;
31/08/15;15:22:12;T4300-11-EM1: MASSA ENTIS TANK 4300-11 MEETFOUT;OFF;
31/08/15;15:22:12;T4300-11-EQ1: FLOW ENTIS TANK 4300-11 MEETFOUT;OFF;
31/08/15;15:22:12;T4300-11-ETOV1: TOTAL OBSERVED VOLUME TANK 4300-11 MEETFOUT;OFF;
31/08/15;15:22:12;T4300-11-ERA1: ROOM AVAILABLE TANK 4300-11 MEETFOUT;OFF;
31/08/15;15:22:33;ORDER DATA LP2A ANT_T0100_09 CONTROLE OK;ON;
31/08/15;15:22:43;PIT-VPU-621A-002-001: DRUKMETING KNOCK OUT DRUM 2 VPU003 HOOG ALARM;ACK;
31/08/15;15:22:53;ORDER DATA LP2A ANT_T0100_09 CONTROLE OK;OFF;
31/08/15;15:22:57;T4300-11-ET1: TEMPERATUUR VLOEISTOF ENTIS TANK 4300-11 MEETFOUT;ON;
31/08/15;15:22:57;T4300-11-ET2: TEMPERATUUR GAS ENTIS TANK 4300-11 MEETFOUT;ON;
31/08/15;15:22:57;T4300-11-EM1: MASSA ENTIS TANK 4300-11 MEETFOUT;ON;
31/08/15;15:23:10;T4300-11-EM1: MASSA ENTIS TANK 4300-11 MEETFOUT;ACK;
31/08/15;15:23:14;T4300-11-ET2: TEMPERATUUR GAS ENTIS TANK 4300-11 MEETFOUT;ACK;
31/08/15;15:23:17;T4300-11-ET1: TEMPERATUUR VLOEISTOF ENTIS TANK 4300-11 MEETFOUT;ACK;
31/08/15;15:24:15;T4300-11-ET1: TEMPERATUUR VLOEISTOF ENTIS TANK 4300-11 MEETFOUT;OFF;
31/08/15;15:24:15;T4300-11-ET2: TEMPERATUUR GAS ENTIS TANK 4300-11 MEETFOUT;OFF;
31/08/15;15:24:15;T4300-11-EM1: MASSA ENTIS TANK 4300-11 MEETFOUT;OFF;
31/08/15;15:25:10;ORDER DATA LP5A ANT_T0075_21 CONTROLE OK;ON;
31/08/15;15:25:19;ORDER DATA LP5A ANT_T0075_21 CONTROLE OK;OFF;
31/08/15;15:26:40;PIT-VPU-621A-002-001: DRUKMETING KNOCK OUT DRUM 2 VPU003 HOOG ALARM;OFF;
31/08/15;15:27:28;T4300-11-EL1: LEVEL ENTIS TANK 4300-11 MEETFOUT;ON;
31/08/15;15:27:28;T4300-11-EM1: MASSA ENTIS TANK 4300-11 MEETFOUT;ON;
31/08/15;15:27:28;T4300-11-EQ1: FLOW ENTIS TANK 4300-11 MEETFOUT;ON;
31/08/15;15:27:28;T4300-11-ETOV1: TOTAL OBSERVED VOLUME TANK 4300-11 MEETFOUT;ON;
31/08/15;15:27:28;T4300-11-ERA1: ROOM AVAILABLE TANK 4300-11 MEETFOUT;ON;
31/08/15;15:27:42;T4300-11-ERA1: ROOM AVAILABLE TANK 4300-11 MEETFOUT;ACK;
31/08/15;15:27:43;T4300-11-ETOV1: TOTAL OBSERVED VOLUME TANK 4300-11 MEETFOUT;ACK;
31/08/15;15:27:44;T4300-11-EQ1: FLOW ENTIS TANK 4300-11 MEETFOUT;ACK;
31/08/15;15:27:45;T4300-11-EM1: MASSA ENTIS TANK 4300-11 MEETFOUT;ACK;
31/08/15;15:27:46;T4300-11-EL1: LEVEL ENTIS TANK 4300-11 MEETFOUT;ACK;
31/08/15;15:28:34;T4300-11-EL1: LEVEL ENTIS TANK 4300-11 MEETFOUT;OFF;
31/08/15;15:28:34;T4300-11-EM1: MASSA ENTIS TANK 4300-11 MEETFOUT;OFF;
31/08/15;15:28:34;T4300-11-EQ1: FLOW ENTIS TANK 4300-11 MEETFOUT;OFF;
31/08/15;15:28:34;T4300-11-ETOV1: TOTAL OBSERVED VOLUME TANK 4300-11 MEETFOUT;OFF;
31/08/15;15:28:34;T4300-11-ERA1: ROOM AVAILABLE TANK 4300-11 MEETFOUT;OFF;
31/08/15;15:28:55;T4300-11-ET1: TEMPERATUUR VLOEISTOF ENTIS TANK 4300-11 MEETFOUT;ON;
31/08/15;15:28:55;T4300-11-ET2: TEMPERATUUR GAS ENTIS TANK 4300-11 MEETFOUT;ON;
31/08/15;15:28:55;T4300-11-EM1: MASSA ENTIS TANK 4300-11 MEETFOUT;ON;
31/08/15;15:29:10;T4300-11-EM1: MASSA ENTIS TANK 4300-11 MEETFOUT;ACK;
31/08/15;15:29:11;T4300-11-ET2: TEMPERATUUR GAS ENTIS TANK 4300-11 MEETFOUT;ACK;
31/08/15;15:29:12;T4300-11-ET1: TEMPERATUUR VLOEISTOF ENTIS TANK 4300-11 MEETFOUT;ACK;
31/08/15;15:30:09;T300-9-ET1: TEMPERATUUR VLOEISTOF ENTIS TANK 300-9 IN SIMULATIE;ON;
31/08/15;15:30:11;T300-9-ET1: TEMPERATUUR VLOEISTOF ENTIS TANK 300-9 COMMENTAAR AAN;ON;
31/08/15;15:30:27;T4300-11-ET1: TEMPERATUUR VLOEISTOF ENTIS TANK 4300-11 MEETFOUT;OFF;
31/08/15;15:30:27;T4300-11-ET2: TEMPERATUUR GAS ENTIS TANK 4300-11 MEETFOUT;OFF;
31/08/15;15:30:27;T4300-11-EM1: MASSA ENTIS TANK 4300-11 MEETFOUT;OFF;
31/08/15;15:30:51;ORDER DATA LP3B ANT_T0150_01 CONTROLE OK;ON;
31/08/15;15:30:59;ORDER DATA LP3B ANT_T0150_01 CONTROLE OK;OFF;
31/08/15;15:31:03;T300-9-EM1: MASSA ENTIS TANK 300-9 IN SIMULATIE;ON;
31/08/15;15:31:07;T300-9-EM1: MASSA ENTIS TANK 300-9 COMMENTAAR AAN;ON;
31/08/15;15:31:53;T300-9-EM1: MASSA ENTIS TANK 300-9 MEETFOUT;OFF;
31/08/15;15:31:53;T300-9-ET1: TEMPERATUUR VLOEISTOF ENTIS TANK 300-9 MEETFOUT;OFF;
31/08/15;15:31:53;T300-9-ET2: TEMPERATUUR GAS ENTIS TANK 300-9 MEETFOUT;OFF;
31/08/15;15:31:57;ORDER DATA LP3B ANT_T0150_01 CONTROLE OK;ON;
31/08/15;15:32:05;ORDER DATA LP3B ANT_T0150_01 HANDBEDIENING;OFF;
31/08/15;15:32:05;ORDER DATA LP3B ANT_T0150_01 CONTROLE OK;OFF;
31/08/15;15:32:08;ORDER DATA LP3B ANT_T0150_01 HANDBEDIENING;ON;
31/08/15;15:32:27;TT-POMP-073-001: TEMPERATUURMETING POMP 073 TANK 75-20 MEETFOUT;OFF;
31/08/15;15:33:58;T4300-04-EM1: MASSA ENTIS TANK 4300-04 IN SIMULATIE;ON;
31/08/15;15:34:00;T4300-04-EM1 : MASSA ENTIS TANK 4300-04 COMMENTAAR AAN;ON;
31/08/15;15:34:14;T4300-11-EL1: LEVEL ENTIS TANK 4300-11 MEETFOUT;ON;
31/08/15;15:34:14;T4300-11-EM1: MASSA ENTIS TANK 4300-11 MEETFOUT;ON;
31/08/15;15:34:14;T4300-11-EQ1: FLOW ENTIS TANK 4300-11 MEETFOUT;ON;
31/08/15;15:34:14;T4300-11-ETOV1: TOTAL OBSERVED VOLUME TANK 4300-11 MEETFOUT;ON;
31/08/15;15:34:14;T4300-11-ERA1: ROOM AVAILABLE TANK 4300-11 MEETFOUT;ON;
31/08/15;15:34:29;T4300-11-ERA1: ROOM AVAILABLE TANK 4300-11 MEETFOUT;ACK;
31/08/15;15:34:30;T4300-11-ETOV1: TOTAL OBSERVED VOLUME TANK 4300-11 MEETFOUT;ACK;
31/08/15;15:34:31;T4300-11-EQ1: FLOW ENTIS TANK 4300-11 MEETFOUT;ACK;
31/08/15;15:34:33;T4300-11-EM1: MASSA ENTIS TANK 4300-11 MEETFOUT;ACK;
31/08/15;15:34:34;T4300-11-EL1: LEVEL ENTIS TANK 4300-11 MEETFOUT;ACK;
31/08/15;15:34:47;T4300-04-ET1: TEMPERATUUR ENTIS TANK 4300-04 IN SIMULATIE;ON;
31/08/15;15:34:49;T4300-04-ET1 : TEMPERATUUR ENTIS TANK 4300-04 COMMENTAAR AAN;ON;
31/08/15;15:35:04;T4300-11-EL1: LEVEL ENTIS TANK 4300-11 MEETFOUT;OFF;
31/08/15;15:35:04;T4300-11-EM1: MASSA ENTIS TANK 4300-11 MEETFOUT;OFF;
31/08/15;15:35:04;T4300-11-EQ1: FLOW ENTIS TANK 4300-11 MEETFOUT;OFF;
31/08/15;15:35:04;T4300-11-ETOV1: TOTAL OBSERVED VOLUME TANK 4300-11 MEETFOUT;OFF;
31/08/15;15:35:04;T4300-11-ERA1: ROOM AVAILABLE TANK 4300-11 MEETFOUT;OFF;
31/08/15;15:35:20;T4300-04-ET2: TEMPERATUUR ENTIS 2 TANK 4300-04 IN SIMULATIE;ON;
31/08/15;15:35:22;T4300-04-ET2 : TEMPERATUUR GAS ENTIS TANK 4300-04 COMMENTAAR AAN;ON;
31/08/15;15:35:42;T4300-11-ET2: TEMPERATUUR GAS ENTIS TANK 4300-11 MEETFOUT;ON;
31/08/15;15:35:50;T4300-04-EM1: MASSA ENTIS TANK 4300-04 MEETFOUT;OFF;
31/08/15;15:35:50;T4300-04-ET1: TEMPERATUUR ENTIS TANK 4300-04 MEETFOUT;OFF;
31/08/15;15:35:50;T4300-04-ET2: TEMPERATUUR ENTIS 2 TANK 4300-04 MEETFOUT;OFF;
31/08/15;15:35:57;T4300-11-ET2: TEMPERATUUR GAS ENTIS TANK 4300-11 MEETFOUT;ACK;
31/08/15;15:36:07;T4300-11-ET1: TEMPERATUUR VLOEISTOF ENTIS TANK 4300-11 MEETFOUT;ON;
31/08/15;15:36:07;T4300-11-EM1: MASSA ENTIS TANK 4300-11 MEETFOUT;ON;
31/08/15;15:36:22;T4300-11-EM1: MASSA ENTIS TANK 4300-11 MEETFOUT;ACK;
31/08/15;15:36:23;T4300-11-ET1: TEMPERATUUR VLOEISTOF ENTIS TANK 4300-11 MEETFOUT;ACK;
31/08/15;15:37:42;LSH-OWS06-001: HOOG NIVEAU WATER OLIE/WATER AFSCHEIDER 6 IN SIMULATIE;ON;
31/08/15;15:37:43;T4300-11-ET1: TEMPERATUUR VLOEISTOF ENTIS TANK 4300-11 MEETFOUT;OFF;
31/08/15;15:37:43;T4300-11-ET2: TEMPERATUUR GAS ENTIS TANK 4300-11 MEETFOUT;OFF;
31/08/15;15:37:43;T4300-11-EM1: MASSA ENTIS TANK 4300-11 MEETFOUT;OFF;
31/08/15;15:37:46;LSH-OWS06-001: HOOG NIVEAU WATER OLIE/WATER AFSCHEIDER 6 IN ALARM;OFF;
31/08/15;15:37:46;LSH-OWS06-001 : HOOG NIVEAU WATER OLIE/WATER AFSCHEIDER 6 COMMENTAAR AAN;ON;
31/08/15;15:39:37;XV-75-10-001: HOGE ZUIG AFSLUITER TANK 75-10 IN HAND;OFF;
31/08/15;15:40:19;LSH-LA26-001: NIVEAUSCHAKELAAR LAADARM LA26 IN SIMULATIE;OFF;
31/08/15;15:40:42;PIT-3100-1-010: DRUKMETING DAMP NAAR VRU SABIC TANK 3100-1 HOOG ALARM;OFF;
31/08/15;15:40:42;PIT-3100-1-010: DRUKMETING DAMP NAAR VRU SABIC TANK 3100-1 HOOG HOOG ALARM;OFF;
31/08/15;15:43:30;T4300-11-EL1: LEVEL ENTIS TANK 4300-11 MEETFOUT;ON;
31/08/15;15:43:30;T4300-11-EQ1: FLOW ENTIS TANK 4300-11 MEETFOUT;ON;
31/08/15;15:43:30;T4300-11-EM1: MASSA ENTIS TANK 4300-11 MEETFOUT;ON;
31/08/15;15:43:30;T4300-11-ETOV1: TOTAL OBSERVED VOLUME TANK 4300-11 MEETFOUT;ON;
31/08/15;15:43:30;T4300-11-ERA1: ROOM AVAILABLE TANK 4300-11 MEETFOUT;ON;
31/08/15;15:43:39;T4300-11-ERA1: ROOM AVAILABLE TANK 4300-11 MEETFOUT;ACK;
31/08/15;15:43:43;T4300-11-ETOV1: TOTAL OBSERVED VOLUME TANK 4300-11 MEETFOUT;ACK;
31/08/15;15:43:44;T4300-11-EM1: MASSA ENTIS TANK 4300-11 MEETFOUT;ACK;
31/08/15;15:43:45;T4300-11-EQ1: FLOW ENTIS TANK 4300-11 MEETFOUT;ACK;
31/08/15;15:43:46;T4300-11-EL1: LEVEL ENTIS TANK 4300-11 MEETFOUT;ACK;
31/08/15;15:44:14;T4300-11-EL1: LEVEL ENTIS TANK 4300-11 MEETFOUT;OFF;
31/08/15;15:44:14;T4300-11-EM1: MASSA ENTIS TANK 4300-11 MEETFOUT;OFF;
31/08/15;15:44:14;T4300-11-EQ1: FLOW ENTIS TANK 4300-11 MEETFOUT;OFF;
31/08/15;15:44:14;T4300-11-ETOV1: TOTAL OBSERVED VOLUME TANK 4300-11 MEETFOUT;OFF;
31/08/15;15:44:14;T4300-11-ERA1: ROOM AVAILABLE TANK 4300-11 MEETFOUT;OFF;
31/08/15;15:44:43;T4300-11-ET1: TEMPERATUUR VLOEISTOF ENTIS TANK 4300-11 MEETFOUT;ON;
31/08/15;15:44:43;T4300-11-ET2: TEMPERATUUR GAS ENTIS TANK 4300-11 MEETFOUT;ON;
31/08/15;15:44:43;T4300-11-EM1: MASSA ENTIS TANK 4300-11 MEETFOUT;ON;
31/08/15;15:44:59;T4300-11-EM1: MASSA ENTIS TANK 4300-11 MEETFOUT;ACK;
31/08/15;15:45:03;T4300-11-ET2: TEMPERATUUR GAS ENTIS TANK 4300-11 MEETFOUT;ACK;
31/08/15;15:45:04;T4300-11-ET1: TEMPERATUUR VLOEISTOF ENTIS TANK 4300-11 MEETFOUT;ACK;
31/08/15;15:47:00;T4300-11-ET1: TEMPERATUUR VLOEISTOF ENTIS TANK 4300-11 MEETFOUT;OFF;
31/08/15;15:47:00;T4300-11-ET2: TEMPERATUUR GAS ENTIS TANK 4300-11 MEETFOUT;OFF;
31/08/15;15:47:00;T4300-11-EM1: MASSA ENTIS TANK 4300-11 MEETFOUT;OFF;
31/08/15;15:48:15;LSH-CUPC-001: OVERVULBEVEILIGING AFVALWATER OPVANGBAK C;ON;
31/08/15;15:48:22;LSH-CUPC-001: OVERVULBEVEILIGING AFVALWATER OPVANGBAK C;OFF;
31/08/15;15:48:27;LSH-CUPC-001: OVERVULBEVEILIGING AFVALWATER OPVANGBAK C;ACK;
31/08/15;15:48:28;LSH-CUPC-001: OVERVULBEVEILIGING AFVALWATER OPVANGBAK C;ON;
31/08/15;15:48:37;LSH-CUPC-001: OVERVULBEVEILIGING AFVALWATER OPVANGBAK C;ACK;
31/08/15;15:48:37;LSH-CUPC-001: OVERVULBEVEILIGING AFVALWATER OPVANGBAK C;OFF;
31/08/15;15:48:39;LSH-CUPC-001: OVERVULBEVEILIGING AFVALWATER OPVANGBAK C;ON;
31/08/15;15:48:49;LSH-CUPC-001: OVERVULBEVEILIGING AFVALWATER OPVANGBAK C;ACK;
31/08/15;15:51:34;LSHH-OWS06-001: HOOG HOOG NIVEAU WATER OLIE/WATER AFSCHEIDER 6 IN ALARM;ON;
31/08/15;15:51:48;LSHH-OWS06-001: HOOG HOOG NIVEAU WATER OLIE/WATER AFSCHEIDER 6 IN ALARM;ACK;
31/08/15;15:56:02;LSH-P411-002: HOOG NIVEAU POMPPUT P411 IN ALARM;ON;
31/08/15;15:56:16;LSH-P411-002: HOOG NIVEAU POMPPUT P411 IN ALARM;ACK;
31/08/15;15:56:19;ORDER DATA LP5A ANT_T0075_19 CONTROLE OK;ON;
31/08/15;15:56:37;ORDER DATA LP5A ANT_T0075_19 CONTROLE OK;OFF;
31/08/15;15:59:48;LSH-P363-001: HOOG NIVEAU POMPPUT P363 IN ALARM;ON;
31/08/15;16:00:00;LSH-P363-001: HOOG NIVEAU POMPPUT P363 IN ALARM;ACK;
31/08/15;16:00:38;LSH-P364-001: HOOG NIVEAU POMPPUT P364 IN ALARM;ON;
31/08/15;16:00:51;LSH-P364-001: HOOG NIVEAU POMPPUT P364 IN ALARM;ACK;
31/08/15;16:01:23;ORDER DATA LP7B ANT_T0150_25 CONTROLE OK;OFF;
31/08/15;16:01:23;ORDER DATA LP7B ANT_T0150_25 CONTROLE OK;ON;
31/08/15;16:36:09;ORDER DATA LP2B ANT_T0150_19 CONTROLE OK;ON;
31/08/15;16:36:39;ORDER DATA LP2B ANT_T0150_19 CONTROLE OK;OFF;
31/08/15;16:42:21;ORDER DATA LP1A ANT_T0300_09 CONTROLE OK;ON;
31/08/15;16:42:33;ORDER DATA LP1A ANT_T0300_09 CONTROLE OK;OFF;
31/08/15;16:54:03;LSH-P364-001: HOOG NIVEAU POMPPUT P364 IN ALARM;OFF;
31/08/15;17:13:32;ORDER DATA LP9A ANT_T0075_13 CONTROLE OK;ON;
31/08/15;17:13:43;ORDER DATA LP9A ANT_T0075_13 CONTROLE OK;OFF;
31/08/15;17:28:07;TT-POMP-073-001: TEMPERATUURMETING POMP 073 TANK 75-20 MEETFOUT;ON;
31/08/15;17:28:22;TT-POMP-073-001: TEMPERATUURMETING POMP 073 TANK 75-20 MEETFOUT;ACK;
31/08/15;17:30:13;STP-75-2-030: LOKALE STOP BOVEN TANK 75-2 IN ALARM;ON;
31/08/15;17:30:27;STP-75-2-030: LOKALE STOP BOVEN TANK 75-2 IN ALARM;OFF;
31/08/15;17:30:31;STP-75-2-030: LOKALE STOP BOVEN TANK 75-2 IN ALARM;ACK;
31/08/15;17:34:03;ORDER DATA LP7A ANT_T0150_24 CONTROLE OK;ON;
31/08/15;17:34:13;ORDER DATA LP7A ANT_T0150_24 CONTROLE OK;OFF;
31/08/15;17:37:33;LSH-P363-001: HOOG NIVEAU POMPPUT P363 IN ALARM;OFF;
31/08/15;18:04:46;ORDER DATA LP5A ANT_T0075_21 CONTROLE OK;ON;
31/08/15;18:04:55;ORDER DATA LP5A ANT_T0075_21 CONTROLE OK;OFF;
31/08/15;19:26:19;TT-POMP-073-001: TEMPERATUURMETING POMP 073 TANK 75-20 MEETFOUT;OFF;
31/08/15;19:26:23;TT-POMP-073-001: TEMPERATUURMETING POMP 073 TANK 75-20 IN SIMULATIE;ON;
31/08/15;19:26:27;TT-POMP-073-001: TEMPERATUURMETING POMP 073 TANK 75-20 COMMENTAAR AAN;ON;
31/08/15;19:27:39;LSH-OWS06-001: HOOG NIVEAU WATER OLIE/WATER AFSCHEIDER 6 IN ALARM;ON;
31/08/15;19:27:39;LSH-OWS06-001: HOOG NIVEAU WATER OLIE/WATER AFSCHEIDER 6 IN SIMULATIE;OFF;
31/08/15;19:27:44;LSH-OWS06-001 : HOOG NIVEAU WATER OLIE/WATER AFSCHEIDER 6 COMMENTAAR AAN;OFF;
31/08/15;19:27:48;LSH-OWS06-001: HOOG NIVEAU WATER OLIE/WATER AFSCHEIDER 6 IN ALARM;ACK;
31/08/15;19:28:11;LSHH-OWS06-001: HOOG HOOG NIVEAU WATER OLIE/WATER AFSCHEIDER 6 IN SIMULATIE;ON;
31/08/15;19:28:13;LSHH-OWS06-001: HOOG HOOG NIVEAU WATER OLIE/WATER AFSCHEIDER 6 IN ALARM;OFF;
31/08/15;19:28:25;LSHH-OWS06-001: HOOG HOOG NIVEAU WATER OLIE/WATER AFSCHEIDER 6 IN ALARM;ON;
31/08/15;19:28:25;LSHH-OWS06-001: HOOG HOOG NIVEAU WATER OLIE/WATER AFSCHEIDER 6 IN SIMULATIE;OFF;
31/08/15;19:28:33;LSHH-OWS06-001: HOOG HOOG NIVEAU WATER OLIE/WATER AFSCHEIDER 6 IN ALARM;ACK;
31/08/15;20:24:37;KWH-P529-001: VERMOGENMETING POMP P529 HOOG ALARM;ON;
31/08/15;20:24:54;KWH-P529-001: VERMOGENMETING POMP P529 HOOG ALARM;ACK;
31/08/15;20:24:59;KWH-P529-001: VERMOGENMETING POMP P529 HOOG ALARM;OFF;
31/08/15;20:31:05;T2450-7: SABIC TANK STEIGER FUNCTIE GESTOPT DOOR STOPCONDITIE;ON;
31/08/15;20:31:07;T2450-7: SABIC TANK STEIGER FUNCTIE GESTOPT DOOR STOPCONDITIE;OFF;
31/08/15;20:31:15;T2450-7: SABIC TANK STEIGER FUNCTIE GESTOPT DOOR STOPCONDITIE;ACK;
31/08/15;20:31:25;LIJN 9 PigAlarm : TIJD PIGPASSAGE IS TE LANG;ON;
31/08/15;20:31:50;LIJN 9 PigAlarm : TIJD PIGPASSAGE IS TE LANG;ACK;
31/08/15;20:31:51;LIJN 9 PigAlarm : TIJD PIGPASSAGE IS TE LANG;OFF;
31/08/15;21:00:38;KWH-P529-001: VERMOGENMETING POMP P529 HOOG ALARM;ON;
31/08/15;21:01:10;KWH-P529-001: VERMOGENMETING POMP P529 HOOG ALARM;ACK;
31/08/15;21:01:44;KWH-P529-001: VERMOGENMETING POMP P529 HOOG ALARM;OFF;
31/08/15;22:53:58;KWH-P529-001: VERMOGENMETING POMP P529 HOOG ALARM;ON;
31/08/15;22:54:07;KWH-P529-001: VERMOGENMETING POMP P529 HOOG ALARM;ACK;
31/08/15;22:54:17;KWH-P529-001: VERMOGENMETING POMP P529 HOOG ALARM;OFF;
31/08/15;23:30:35;KWH-P529-001: VERMOGENMETING POMP P529 HOOG ALARM;ON;
31/08/15;23:30:47;KWH-P529-001: VERMOGENMETING POMP P529 HOOG ALARM;ACK;
31/08/15;23:30:59;KWH-P529-001: VERMOGENMETING POMP P529 HOOG ALARM;OFF;
31/08/15;23:37:14;T1200-4-ET2: TEMPERATUUR GASFASE ENTIS TANK 1200-4 MEETFOUT;ON;
31/08/15;23:37:14;T1200-4-EL1: LEVEL ENTIS TANK 1200-4 MEETFOUT;ON;
31/08/15;23:37:14;T1200-4-ET1: TEMPERATUUR ENTIS TANK 1200-4 MEETFOUT;ON;
31/08/15;23:37:14;T1200-4-EQ1: FLOW ENTIS TANK 1200-4 MEETFOUT;ON;
31/08/15;23:37:14;T1200-4-EM1: MASSA ENTIS TANK 1200-4 MEETFOUT;ON;
31/08/15;23:37:14;T1200-4-ED1: DENSITY ENTIS TANK 1200-4 MEETFOUT;ON;
31/08/15;23:37:30;T1200-4-ED1: DENSITY ENTIS TANK 1200-4 MEETFOUT;ACK;
31/08/15;23:37:31;T1200-4-EM1: MASSA ENTIS TANK 1200-4 MEETFOUT;ACK;
31/08/15;23:37:32;T1200-4-EQ1: FLOW ENTIS TANK 1200-4 MEETFOUT;ACK;
31/08/15;23:37:53;T1200-4-ET1: TEMPERATUUR ENTIS TANK 1200-4 MEETFOUT;ACK;
31/08/15;23:37:54;T1200-4-EL1: LEVEL ENTIS TANK 1200-4 MEETFOUT;OFF;
31/08/15;23:37:54;T1200-4-ET1: TEMPERATUUR ENTIS TANK 1200-4 MEETFOUT;OFF;
31/08/15;23:37:54;T1200-4-EQ1: FLOW ENTIS TANK 1200-4 MEETFOUT;OFF;
31/08/15;23:37:54;T1200-4-EM1: MASSA ENTIS TANK 1200-4 MEETFOUT;OFF;
31/08/15;23:37:54;T1200-4-ED1: DENSITY ENTIS TANK 1200-4 MEETFOUT;OFF;
31/08/15;23:37:54;T1200-4-EL1: LEVEL ENTIS TANK 1200-4 MEETFOUT;ACK;
31/08/15;23:37:55;T1200-4-ET2: TEMPERATUUR GASFASE ENTIS TANK 1200-4 MEETFOUT;ACK;
31/08/15;23:37:56;T1200-4-ET2: TEMPERATUUR GASFASE ENTIS TANK 1200-4 MEETFOUT;OFF;
01/09/15;01:11:35;DP-SLAVE19-PLC07-PR1-POST5-ERR: DP SLAVE 19 PLC07 PROFIBUS 1 POST5 IN ALARM;ON;
01/09/15;01:11:35;DP-SLAVE3-PLC07-PR1-POST11-ERR: DP SLAVE 3 PLC07 PROFIBUS 1 POST11 IN ALARM;ON;
01/09/15;01:11:35;DP-SLAVE85-PLC07-PR1-POST11-ERR: DP SLAVE 85 PLC07 PROFIBUS 1 POST11 IN ALARM;ON;
01/09/15;01:11:35;DP-SLAVE87-PLC07-PR1-POST11-ERR: DP SLAVE 87 PLC07 PROFIBUS 1 POST11 IN ALARM;ON;
01/09/15;01:11:35;DP-SLAVE90-PLC07-PR1-POST11-ERR: DP SLAVE 90 PLC07 PROFIBUS 1 POST11 IN ALARM;ON;
01/09/15;01:11:35;DP-SLAVE81-PLC07-PR1-POST11-ERR: DP SLAVE 81 PLC07 PROFIBUS 1 POST11 IN ALARM;ON;
01/09/15;01:11:35;DP-SLAVE83-PLC07-ERR: DP SLAVE 83 PLC07 LPM-3 IN ALARM;ON;
01/09/15;01:11:35;DP-SLAVE84-PLC07-ERR: DP SLAVE 84 PLC07 LPM-4 IN ALARM;ON;
01/09/15;01:11:35;DP-SLAVE7-PLC07-PR1-POST2-ERR: DP SLAVE 7 PLC07 PROFIBUS 1 POST2 IN ALARM;ON;
01/09/15;01:11:35;DP-SLAVE15-PLC07-PR1-POST5-ERR: DP SLAVE 15 PLC07 PROFIBUS 1 POST5 IN ALARM;ON;
01/09/15;01:11:35;DP-SLAVE16-PLC07-PR1-POST5-ERR: DP SLAVE 16 PLC07 PROFIBUS 1 POST5 IN ALARM;ON;
01/09/15;01:11:35;DP-SLAVE91-PLC07-ERR: DP SLAVE 91 PLC07 IN ALARM;ON;
01/09/15;01:11:35;PIT-L117-001: DRUK PRODUCT WAGONBELADING L117 MEETFOUT;ON;
01/09/15;01:11:35;PIT-L118-001: DRUK PRODUCT WAGONBELADING L118 MEETFOUT;ON;
01/09/15;01:11:35;PIT-L119-001: DRUK PRODUCT WAGONBELADING L119 MEETFOUT;ON;
01/09/15;01:11:35;PIT-L116-001: DRUK PRODUCT WAGONBELADING L116 MEETFOUT;ON;
01/09/15;01:11:35;PIT-L116-002: DRUKMETING PRODUCTLEIDING LP AZIJNZUUR MEETFOUT;ON;
01/09/15;01:11:35;DP-SLAVE6: SLAVE 6 ALARM IN ALARM;ON;
01/09/15;01:11:35;DP-SLAVE33: SLAVE 33 ALARM IN ALARM;ON;
01/09/15;01:11:35;DP-SLAVE35: SLAVE 35 ALARM IN ALARM;ON;
01/09/15;01:11:35;DP-SLAVE36: SLAVE 36 ALARM IN ALARM;ON;
01/09/15;01:11:35;DP-SLAVE37: SLAVE 37 ALARM IN ALARM;ON;
01/09/15;01:11:35;DP-SLAVE38: SLAVE 38 ALARM IN ALARM;ON;
01/09/15;01:11:35;PT-150-8-002: DRUKMETING TANK 150-8 LAAG ALARM;ON;
01/09/15;01:11:35;PT-150-8-002: DRUKMETING TANK 150-8 LAAG LAAG ALARM;ON;
01/09/15;01:11:35;PT-150-8-002: DRUKMETING TANK 150-8 MEETFOUT;ON;
01/09/15;01:11:35;PIT-150-9-002: DRUKMETING TANK 150-9 LAAG ALARM;ON;
01/09/15;01:11:35;PIT-150-9-002: DRUKMETING TANK 150-9 LAAG LAAG ALARM;ON;
01/09/15;01:11:35;PT-150-11-002: DRUKMETING TANK 150-11 LAAG ALARM;ON;
01/09/15;01:11:35;PT-150-11-002: DRUKMETING TANK 150-11 LAAG LAAG ALARM;ON;
01/09/15;01:11:35;TT-P150-12-003: TEMPERATUUTMETING STOOM T150-12 MEETFOUT;ON;
01/09/15;01:11:35;DP-SLAVE39: SLAVE 39 ALARM IN ALARM;ON;
01/09/15;01:11:35;DP-SLAVE61: SLAVE 61 ALARM IN ALARM;ON;
01/09/15;01:11:35;DP-SLAVE62: SLAVE 62 ALARM IN ALARM;ON;
01/09/15;01:11:35;TT-P150-8-002: TEMPERATUURSMETING POMP T150-8 MEETFOUT;ON;
01/09/15;01:11:37;P272: POMP P272 TANK 250-3 IN ALARM;ON;
01/09/15;01:11:37;P279: POMP P279 TANK 300-10 IN ALARM;ON;
01/09/15;01:11:37;MS-P267-001: POMP P267 IN FOUT IN ALARM;ON;
01/09/15;01:11:37;MS-P268-001: POMP P268 IN FOUT IN ALARM;ON;
01/09/15;01:11:37;MS-P269-001: POMP P269 IN FOUT IN ALARM;ON;
01/09/15;01:11:37;MS-P266-001: POMP P266 IN FOUT IN ALARM;ON;
01/09/15;01:11:37;MS-P259-001: POMP P259 IN FOUT IN ALARM;ON;
01/09/15;01:11:37;MS-P260-001: POMP P260 IN FOUT IN ALARM;ON;
01/09/15;01:11:37;MS-P270-001: POMP P270 IN FOUT IN ALARM;ON;
01/09/15;01:11:37;MS-P278-001: POMP P278 IN FOUT IN ALARM;ON;
01/09/15;01:11:37;MS-P279-001: POMP P279 IN FOUT IN ALARM;ON;
01/09/15;01:11:37;MS-P261-001: POMP P261 IN FOUT IN ALARM;ON;
01/09/15;01:11:37;MS-P262-001: POMP P262 IN FOUT IN ALARM;ON;
01/09/15;01:11:37;MS-P263-001: POMP P263 IN FOUT IN ALARM;ON;
01/09/15;01:11:37;MS-P264-001: POMP P264 IN FOUT IN ALARM;ON;
01/09/15;01:11:37;MS-P265-001: POMP P265 IN FOUT IN ALARM;ON;
01/09/15;01:11:37;MS-P272-001: POMP P272 IN FOUT IN ALARM;ON;
01/09/15;01:11:37;MS-P273-001: POMP P273 IN FOUT IN ALARM;ON;
01/09/15;01:11:37;MS-P274-001: POMP P274 IN FOUT IN ALARM;ON;
01/09/15;01:11:37;MS-P275-001: POMP P275 IN FOUT IN ALARM;ON;
01/09/15;01:11:37;MS-P276-001: POMP P276 IN FOUT IN ALARM;ON;
01/09/15;01:11:37;MS-P277-001: POMP P277 IN FOUT IN ALARM;ON;
01/09/15;01:11:37;MS-P271-001: POMP P271 IN FOUT IN ALARM;ON;
01/09/15;01:11:37;MS-P528-001: TERUGMELDING FOUT POMP P528 IN ALARM;ON;
01/09/15;01:11:37;MS-P529-001: TERUGMELDING FOUT POMP P529 IN ALARM;ON;
01/09/15;01:11:37;TT-200-17-004: TEMPERATUURMETING PRODUCT TANK 200-17 MEETFOUT;ON;
01/09/15;01:11:37;TT-200-18-004: TEMPERATUURMETING PRODUCT TANK 200-18 MEETFOUT;ON;
01/09/15;01:11:37;TT-200-19-004: TEMPERATUURMETING PRODUCT TANK 200-19 MEETFOUT;ON;
01/09/15;01:11:37;PT-200-19-007: DRUKMETING LAADARM TANK 200-19 MEETFOUT;ON;
01/09/15;01:11:37;TT-300-4-004: TEMPERATUURMETING PRODUCT TANK 300-4 MEETFOUT;ON;
01/09/15;01:11:37;PT-300-4-007: DRUKMETING LAADARM TANK 300-4 MEETFOUT;ON;
01/09/15;01:11:37;TT-300-5-004: TEMPERATUURMETING PRODUCT TANK 300-5 MEETFOUT;ON;
01/09/15;01:11:37;PT-300-5-007: DRUKMETING LAADARM TANK 300-5 MEETFOUT;ON;
01/09/15;01:11:37;TT-250-1-004: TEMPERATUURMETING PRODUCT TANK 250-1 MEETFOUT;ON;
01/09/15;01:11:37;TT-250-2-004: TEMPERATUURMETING PRODUCT TANK 250-2 MEETFOUT;ON;
01/09/15;01:11:37;TT-300-9-004: TEMPERATUURMETING PRODUCT TANK 300-9 MEETFOUT;ON;
01/09/15;01:11:37;PT-300-9-007: DRUKMETING LAADARM TANK 300-9 MEETFOUT;ON;
01/09/15;01:11:37;TT-300-10-004: TEMPERATUURMETING PRODUCT TANK 30010 MEETFOUT;ON;
01/09/15;01:11:37;PT-300-10-007: DRUKMETING LAADARM TANK 300-10 MEETFOUT;ON;
01/09/15;01:11:37;LSH-150-8-002: NIVEAUSCHAKELAAR TANK 150-8 IN ALARM;ON;
01/09/15;01:11:37;LSH-150-9-002: NIVEAUSCHAKELAAR TANK 150-9 IN ALARM;ON;
01/09/15;01:11:37;LSH-150-11-002: NIVEAUSCHAKELAAR TANK 150-11 IN ALARM;ON;
01/09/15;01:11:37;TT-150-28-004: TEMPERATUURMETING PRODUCT TANK 150-28 MEETFOUT;ON;
01/09/15;01:11:37;TT-150-29-004: TEMPERATUURMETING PRODUCT TANK 150-29 MEETFOUT;ON;
01/09/15;01:11:37;TT-150-30-004: TEMPERATUURMETING PRODUCT TANK 150-30 MEETFOUT;ON;
01/09/15;01:11:37;TT-200-14-004: TEMPERATUURMETING PRODUCT TANK 200-14 MEETFOUT;ON;
01/09/15;01:11:37;TT-200-15-004: TEMPERATUURMETING PRODUCT TANK 200-15 MEETFOUT;ON;
01/09/15;01:11:37;TT-200-16-004: TEMPERATUURMETING PRODUCT TANK 200-16 MEETFOUT;ON;
01/09/15;01:11:37;TT-250-3-004: TEMPERATUURMETING PRODUCT TANK 250-3 MEETFOUT;ON;
01/09/15;01:11:37;TT-250-4-004: TEMPERATUURMETING PRODUCT TANK 250-4 MEETFOUT;ON;
01/09/15;01:11:37;TT-250-5-004: TEMPERATUURMETING PRODUCT TANK 250-5 MEETFOUT;ON;
01/09/15;01:11:37;TT-300-6-004: TEMPERATUURMETING PRODUCT TANK 300-6 MEETFOUT;ON;
01/09/15;01:11:37;TT-300-7-004: TEMPERATUURMETING PRODUCT TANK 300-7 MEETFOUT;ON;
01/09/15;01:11:37;TT-300-8-004: TEMPERATUURMETING PRODUCT TANK 300-8 MEETFOUT;ON;
01/09/15;01:11:37;T250-3:  STEIGER FUNCTIE GESTOPT DOOR STOPCONDITIE;ON;
01/09/15;01:11:37;T300-10:  CIRCULATIE FUNCTIE GESTOPT DOOR STOPCONDITIE;ON;
01/09/15;01:11:38;XV-625A-111: AFSLUITER DAMPRETOUR NAAR ST625A IN ALARM;ON;
01/09/15;01:11:38;XV-625A-112: AFSLUITER PRODUCT NAAR ST625A IN ALARM;ON;
01/09/15;01:11:38;XV-L116-001: AFSLUITER PRODUCT NAAR LP11-L116 IN ALARM;ON;
01/09/15;01:11:38;XV-L116-003: AFSLUITER N2 NAAR LP11-L116 IN ALARM;ON;
01/09/15;01:11:38;XV-L116-004: AFSLUITER DAMP L116 NAAR SCRUBBER IN ALARM;ON;
01/09/15;01:11:38;XV-L117-001: AFSLUITER PRODUCT NAAR LP11-L117 IN ALARM;ON;
01/09/15;01:11:38;XV-L117-003: AFSLUITER N2 NAAR LP11-L117 IN ALARM;ON;
01/09/15;01:11:38;XV-L117-004: AFSLUITER DAMP L117 NAAR SCRUBBER IN ALARM;ON;
01/09/15;01:11:38;XV-L118-001: AFSLUITER PRODUCT NAAR LP11-L118 IN ALARM;ON;
01/09/15;01:11:38;XV-L118-003: AFSLUITER N2 NAAR LP11-L118 IN ALARM;ON;
01/09/15;01:11:38;XV-L118-004: AFSLUITER DAMP L118 NAAR SCRUBBER IN ALARM;ON;
01/09/15;01:11:38;XV-L119-001: AFSLUITER PRODUCT NAAR LP11-L119 IN ALARM;ON;
01/09/15;01:11:38;XV-L119-003: AFSLUITER N2 NAAR LP11-L119 IN ALARM;ON;
01/09/15;01:11:38;XV-L119-004: AFSLUITER DAMP L119 NAAR SCRUBBER IN ALARM;ON;
01/09/15;01:11:38;FCV-L116-002: REGELKLEP PRODUCT NAAR LP11-L116 IN ALARM;ON;
01/09/15;01:11:38;FCV-L117-002: REGELKLEP PRODUCT NAAR LP11-L117 IN ALARM;ON;
01/09/15;01:11:38;FCV-L118-002: REGELKLEP PRODUCT NAAR LP11-L118 IN ALARM;ON;
01/09/15;01:11:38;FCV-L119-002: REGELKLEP PRODUCT NAAR LP11-L119 IN ALARM;ON;
01/09/15;01:11:38;XV-150-8-001: HOGE ZUIG TANK 150-8 IN ALARM;ON;
01/09/15;01:11:38;XV-150-8-002: LAGE ZUIG TANK 150-8 IN ALARM;ON;
01/09/15;01:11:38;XV-150-8-004: CIRCULATIE  TANK 150-8 IN ALARM;ON;
01/09/15;01:11:38;XV-150-8-005: AFSLUITER ZUIG POMP TANK 150-8 IN ALARM;ON;
01/09/15;01:11:38;XV-150-8-007: AFSLUITER BYPASS POMP TANK 150-8 IN ALARM;ON;
01/09/15;01:11:38;XV-150-8-009: OVERVUL AFSLUITER TANK 150-8 IN ALARM;ON;
01/09/15;01:11:38;XV-150-9-001: HOGE ZUIG TANK 150-9 IN ALARM;ON;
01/09/15;01:11:38;XV-150-9-002: LAGE ZUIG TANK 150-9 IN ALARM;ON;
01/09/15;01:11:38;XV-150-9-004: CIRCULATIE  TANK 150-9 IN ALARM;ON;
01/09/15;01:11:38;XV-150-9-005: AFSLUITER ZUIG POMP TANK 150-9 IN ALARM;ON;
01/09/15;01:11:38;XV-150-9-007: AFSLUITER BYPASS POMP TANK 150-9 IN ALARM;ON;
01/09/15;01:11:38;XV-150-9-009: OVERVUL AFSLUITER TANK 150-9 IN ALARM;ON;
01/09/15;01:11:38;XV-150-11-001: HOGE ZUIG TANK 150-11 IN ALARM;ON;
01/09/15;01:11:38;XV-150-11-002: LAGE ZUIG TANK 150-11 IN ALARM;ON;
01/09/15;01:11:38;XV-150-11-004: CIRCULATIE  TANK 150-11 IN ALARM;ON;
01/09/15;01:11:38;XV-150-11-005: AFSLUITER ZUIG POMP TANK 150-11 IN ALARM;ON;
01/09/15;01:11:38;XV-150-11-007: AFSLUITER BYPASS POMP TANK 150-11 IN ALARM;ON;
01/09/15;01:11:38;XV-150-11-009: OVERVUL AFSLUITER TANK 150-11 IN ALARM;ON;
01/09/15;01:11:38;XV-150-12-016: AFSLUITER MONSANTO TANK 150-12 IN ALARM;ON;
01/09/15;01:11:38;XV-150-12-015: AFSLUITER MONSANTO TANK 150-12 IN ALARM;ON;
01/09/15;01:11:38;XV-150-12-009: AFSLUITER NAAR ST625 + LP10B TANK 150-12 IN ALARM;ON;
01/09/15;01:11:38;XV-150-10-016: AFSLUITER MONSANTO TANK 150-10 IN ALARM;ON;
01/09/15;01:11:38;XV-150-10-015: AFSLUITER MONSANTO TANK 150-10 IN ALARM;ON;
01/09/15;01:11:38;XV-150-10-001: AFSLUITER NAAR ST625 + LP10B TANK 150-10 IN ALARM;ON;
01/09/15;01:11:38;XV-150-10-021: AFSLUITER DAMP RETOUR LP10B IN ALARM;ON;
01/09/15;01:11:38;XV-150-10-022: AFSLUITER NAAR LP10B IN ALARM;ON;
01/09/15;01:11:38;XV-150-007-050: AFSLUITER ST625 IN ALARM;ON;
01/09/15;01:11:38;SP-L116-001A: FUNTIONELE STOP DRUKKNOP BOVEN IN ALARM;ON;
01/09/15;01:11:38;LSH-L116-001: NIVEAUSCHAKELAAR PRODUCT IN WAGON IN ALARM;ON;
01/09/15;01:11:38;SP-L117-001A: FUNTIONELE STOP DRUKKNOP BOVEN IN ALARM;ON;
01/09/15;01:11:38;LSH-L117-001: NIVEAUSCHAKELAAR PRODUCT IN WAGON IN ALARM;ON;
01/09/15;01:11:38;SP-L118-001A: FUNTIONELE STOP DRUKKNOP BOVEN IN ALARM;ON;
01/09/15;01:11:38;LSH-L118-001: NIVEAUSCHAKELAAR PRODUCT IN WAGON IN ALARM;ON;
01/09/15;01:11:38;SP-L119-001A: FUNTIONELE STOP DRUKKNOP BOVEN IN ALARM;ON;
01/09/15;01:11:38;LSH-L119-001: NIVEAUSCHAKELAAR PRODUCT IN WAGON IN ALARM;ON;
01/09/15;01:11:38;GW17-RUN: GW17 RUN IN ALARM;ON;
01/09/15;01:11:38;XS-ALSB2A-POST11-A611-01: REDUNDANTIEBEWAKING POST11 24VDC ALSB2A IN ALARM;ON;
01/09/15;01:11:38;XS-ALSB2A-POST11-A611-02: BALANSBEWAKING POST11 24VDC ALSB2A IN ALARM;ON;
01/09/15;01:11:38;XS-TR31-LPM-01: POWERTRACING PRODUCTLEIDNG AZIJNZUUR IN ALARM;ON;
01/09/15;01:11:38;XS-TR32-LPM-01: POWERTRACING LAADARM AZIJNZUUR IN ALARM;ON;
01/09/15;01:11:38;XS-TR33-LPM-01: POWERTRACING VAPOUR RECOVERY AZIJNZUUR IN ALARM;ON;
01/09/15;01:11:38;DP-SLAVE81-MB1-PLC07-PR1-POST11-ERR: DP SLAVE 81 MB1 PLC07 PROFIBUS 1 POST11 IN ALARM;ON;
01/09/15;01:11:38;DP-SLAVE81-MB2-PLC07-PR1-POST11-ERR: DP SLAVE 81 MB2 PLC07 PROFIBUS 1 POST11 IN ALARM;ON;
01/09/15;01:11:38;DP-SLAVE81-MB3-PLC07-PR1-POST11-ERR: DP SLAVE 81 MB3 PLC07 PROFIBUS 1 POST11 IN ALARM;ON;
01/09/15;01:11:38;DP-SLAVE81-MB4-PLC07-PR1-POST11-ERR: DP SLAVE 81 MB4 PLC07 PROFIBUS 1 POST11 IN ALARM;ON;
01/09/15;01:11:38;STP-LPM-001: FUNTIONELE STOP AAN L116 IN ALARM;ON;
01/09/15;01:11:38;STP-LPM-002: FUNTIONELE STOP AAN L117 IN ALARM;ON;
01/09/15;01:11:38;STP-LPM-004: FUNTIONELE STOP AAN EDC BORDES WEST IN ALARM;ON;
01/09/15;01:11:38;STP-LPM-003: FUNTIONELE STOP AAN L119 IN ALARM;ON;
01/09/15;01:11:38;STP-LPM-005: FUNTIONELE STOP AAN EDC BORDES OOST IN ALARM;ON;
01/09/15;01:11:38;MS-PWW150-8-001: TERUGMELDING FOUT PWW150-08-001 IN ALARM;ON;
01/09/15;01:11:38;U05A-800: TRACING ALARM S160-1 SFEER IN ALARM;ON;
01/09/15;01:11:38;U05A-801: TRACING ALARM S160-1 LEIDINGEN IN ALARM;ON;
01/09/15;01:11:38;U05A-802: TRACING ALARM S160-2 SFEER IN ALARM;ON;
01/09/15;01:11:38;U05A-803: TRACING ALARM S160-2 LEIDINGEN IN ALARM;ON;
01/09/15;01:11:38;U05A-804: TRACING ALARM S160-4 SFEER IN ALARM;ON;
01/09/15;01:11:38;U05A-805: TRACING ALARM S160-4 LEIDINGEN IN ALARM;ON;
01/09/15;01:11:38;U05A-806: TRACING ALARM TRANSFERLEIDINGEN ST623 IN ALARM;ON;
01/09/15;01:11:38;U05A-807: TRACING ALARM TRANSFERLEIDINGEN ST625 IN ALARM;ON;
01/09/15;01:11:38;U05A-808: TRACING ALARM SPRINKLERS S160-1 SFEER IN ALARM;ON;
01/09/15;01:11:38;U05A-809: TRACING ALARM SPRINKLERS S160-2 SFEER IN ALARM;ON;
01/09/15;01:11:38;U05A-810: TRACING ALARM SPRINKLERS S160-4 SFEER IN ALARM;ON;
01/09/15;01:11:38;L05B-700: OVERVULBEVEILIGING T150-7 IN ALARM;ON;
01/09/15;01:11:38;L05B-705: OVERVULBEVEILIGING T150-10 IN ALARM;ON;
01/09/15;01:11:38;L05B-707: OVERVULBEVEILIGING T150-12 IN ALARM;ON;
01/09/15;01:11:38;L05B-708: TRACING ALARM OVERVULBEVEILIGING AFSLUITER ST625 IN ALARM;ON;
01/09/15;01:11:38;L05B-800: TRACING ALARM OVERVULBEVEILIGING ST625 NAAR PUT 7 ST625 NAAR PUT 5 IN ALARM;ON;
01/09/15;01:11:38;L05B-801: TRACING ALARM POST5 NAAR PUT 5 IN ALARM;ON;
01/09/15;01:11:38;L05B-802: TRACING ALARM POST 5 NAAR PUT 7 IN ALARM;ON;
01/09/15;01:11:38;L05B-803: TRACING ALARM ST625 NAAR 623 ST325 IN ALARM;ON;
01/09/15;01:11:38;L05B-804: TRACING ALARM LEIDING ST625 PUT 7 ST623 IN ALARM;ON;
01/09/15;01:11:38;L05B-806: TRACING ALARM T150-2 TRANSFER MONSANTO IN ALARM;ON;
01/09/15;01:11:38;L05B-807: TRACING ALARM POMPEN P172/173 IN ALARM;ON;
01/09/15;01:11:38;L05B-808: TRACING ALARM WERKLEIDING ST625 IN ALARM;ON;
01/09/15;01:11:38;Z-ND-ST625-01: NOODDOUCHES ST625 BEDIEND IN ALARM;ON;
01/09/15;01:11:38;AU-ND-ST625-01: STROOMUITVAL ST625 IN ALARM;ON;
01/09/15;01:11:38;UA-RD-POST5-001: ROOKDETECTIE PUT 5 GEACTIVEERD IN ALARM;ON;
01/09/15;01:11:38;TSHH-150-12-003: TEMPERATUUR SWITCH IN ALARM;ON;
01/09/15;01:11:38;XV-150-12-003: OPEN TERUGMELDING XV 150-12-003 IN ALARM;ON;
01/09/15;01:11:38;FQT-L116-001-FLOW: FLOW PRODUCT WAGONBELADING L116 MEETFOUT;ON;
01/09/15;01:11:38;FQT-L116-001-TOT: TOTALIZER PRODUCT WAGONBELADING L116 MEETFOUT;ON;
01/09/15;01:11:38;FQT-L117-001-FLOW: FLOW PRODUCT WAGONBELADING L117 MEETFOUT;ON;
01/09/15;01:11:38;FQT-L117-001-TOT: TOTALIZER PRODUCT WAGONBELADING L117 MEETFOUT;ON;
01/09/15;01:11:38;FQT-L118-001-FLOW: FLOW PRODUCT WAGONBELADING L118 MEETFOUT;ON;
01/09/15;01:11:38;FQT-L118-001-TOT: TOTALIZER PRODUCT WAGONBELADING L118 MEETFOUT;ON;
01/09/15;01:11:38;FQT-L119-001-FLOW: FLOW PRODUCT WAGONBELADING L119 MEETFOUT;ON;
01/09/15;01:11:38;FQT-L119-001-TOT: TOTALIZER PRODUCT WAGONBELADING L119 MEETFOUT;ON;
01/09/15;01:11:38;PIT-150-9-002: DRUKMETING TANK 150-9 MEETFOUT;ON;
01/09/15;01:11:38;TT-P150-9-001: TEMPERATUURSMETING POMP T150-9 MEETFOUT;ON;
01/09/15;01:11:38;PT-WW-150-9-001: DRUKMETING WARMWATER UNIT WW-T150-9 MEETFOUT;ON;
01/09/15;01:11:38;TT-WW-150-9-001: TEMPERATUURSMETING WARMWATER UNIT WW-T150-9 MEETFOUT;ON;
01/09/15;01:11:38;PT-150-11-002: DRUKMETING TANK 150-11 MEETFOUT;ON;
01/09/15;01:11:38;TT-P150-11-001: TEMPERATUURSMETING POMP T150-11 MEETFOUT;ON;
01/09/15;01:11:38;PT-WW-150-11-001: DRUKMETING WARMWATER UNIT WW-T150-11 MEETFOUT;ON;
01/09/15;01:11:38;TT-WW-150-11-001: TEMPERATUURSMETING WARMWATER UNIT WW-T150-11 MEETFOUT;ON;
01/09/15;01:11:38;TT-P150-9-002: TEMPERATUURSMETING POMP T150-9 MEETFOUT;ON;
01/09/15;01:11:40;SDI-TR140-CH-03: SHUTDOWN INPUT CHEMIE PILZ -> S7 IN ALARM;ON;
01/09/15;01:11:41;SSDI-PLC07-PLC01-01: NOODSTOP VINGERPIER IN ALARM;ON;
01/09/15;01:11:41;SSDI-PLC07-PLC01-02: NOODSTOP LP EDC/METHANOL IN ALARM;ON;
01/09/15;01:11:41;SSDI-PLC07-PLC01-03: BRANDDETECTIE LP EDC/METHANOL IN ALARM;ON;
01/09/15;01:11:41;SSDI-PLC07-PLC01-04: NOODSTOP TP5/7/8/16/17/18/19 IN ALARM;ON;
01/09/15;01:11:41;SDI-POST11-GW17-001: NOODSTOP GASWASSER 17 IN ALARM;ON;
01/09/15;01:11:41;SDI-TR140-PLC07-PLC09-01: VERZAMELCONTACT NOODSTOP AREA ST625A IN ALARM;ON;
01/09/15;01:11:41;SDI-TR140-PLC07-PLC09-02: VERZAMELCONTACT GAS AREA ST625A IN ALARM;ON;
01/09/15;01:11:41;PDIT-420-01-003: VERSCHILDRUKMETING OVER FLAME ARRESTOR T420-01 MEETFOUT;ON;
01/09/15;01:11:41;PDIT-420-02-003: VERSCHILDRUKMETING OVER FLAME ARRESTOR T420-02 MEETFOUT;ON;
01/09/15;01:11:41;PDIT-420-03-003: VERSCHILDRUKMETING OVER FLAME ARRESTOR T420-03 MEETFOUT;ON;
01/09/15;01:11:41;PTWW-420-01-001: DRUKMETING WARMWATER UNIT WW-T420-01 MEETFOUT;ON;
01/09/15;01:11:41;PTWW-420-02-001: DRUKMETING WARMWATER UNIT WW-T420-02 MEETFOUT;ON;
01/09/15;01:11:41;PTWW-420-03-001: DRUKMETING WARMWATER UNIT WW-T420-03 MEETFOUT;ON;
01/09/15;01:11:41;TTWW-420-03-003: TEMPERATUURMETING WARMWATER UNIT WW-T420-03 MEETFOUT;ON;
01/09/15;01:11:41;XV-250-1-010: AFSLUITER STEIGER 623 IN ALARM;ON;
01/09/15;01:11:41;XV-250-4-010: AFSLUITER STEIGER 623 IN ALARM;ON;
01/09/15;01:11:41;XV-300-8-010: AFSLUITER STEIGER 623 IN ALARM;ON;
01/09/15;01:11:41;XV-300-9-010: AFSLUITER STEIGER 623 IN ALARM;ON;
01/09/15;01:11:41;XV-200-17-010: AFSLUITER STEIGER 623 IN ALARM;ON;
01/09/15;01:11:41;XV-300-5-010: AFSLUITER STEIGER 623 IN ALARM;ON;
01/09/15;01:11:43;XV-200-15-010: AFSLUITER STEIGER 623 IN ALARM;ON;
01/09/15;01:11:43;XV-300-4-010: AFSLUITER STEIGER 623 IN ALARM;ON;
01/09/15;01:11:43;XV-GW20-001: AFSLUITER SCRUBBER GW20 IN ALARM;ON;
01/09/15;01:11:43;XV-250-5-010: AFSLUITER STEIGER 623 IN ALARM;ON;
01/09/15;01:11:43;XV-300-10-010: AFSLUITER STEIGER 623 IN ALARM;ON;
01/09/15;01:11:43;XV-150-29-010: AFSLUITER STEIGER 623 IN ALARM;ON;
01/09/15;01:11:43;XV-200-16-010: AFSLUITER STEIGER 623 IN ALARM;ON;
01/09/15;01:11:47;XV-200-19-010: AFSLUITER STEIGER 623 IN ALARM;ON;
01/09/15;01:11:47;XV-250-2-010: AFSLUITER STEIGER 623 IN ALARM;ON;
01/09/15;01:11:49;XV-150-30-010: AFSLUITER STEIGER 623 IN ALARM;ON;
01/09/15;01:11:49;XV-150-28-010: AFSLUITER STEIGER 623 IN ALARM;ON;
01/09/15;01:11:49;XV-200-14-010: AFSLUITER STEIGER 623 IN ALARM;ON;
01/09/15;01:11:50;XV-150-30-010: AFSLUITER STEIGER 623 IN ALARM;ACK;
01/09/15;01:12:03;T250-3:  STEIGER FUNCTIE GESTOPT DOOR STOPCONDITIE;OFF;
01/09/15;01:12:03;T300-10:  CIRCULATIE FUNCTIE GESTOPT DOOR STOPCONDITIE;OFF;
01/09/15;01:12:04;XV-200-14-010: AFSLUITER STEIGER 623 IN ALARM;ACK;
01/09/15;01:12:09;XV-150-28-010: AFSLUITER STEIGER 623 IN ALARM;ACK;
01/09/15;01:12:10;XV-250-2-010: AFSLUITER STEIGER 623 IN ALARM;ACK;
01/09/15;01:12:11;XV-200-19-010: AFSLUITER STEIGER 623 IN ALARM;ACK;
01/09/15;01:12:14;XV-200-18-010: AFSLUITER STEIGER 623 IN ALARM;ON;
01/09/15;01:12:14;XV-200-16-010: AFSLUITER STEIGER 623 IN ALARM;ACK;
01/09/15;01:12:15;XV-150-29-010: AFSLUITER STEIGER 623 IN ALARM;ACK;
01/09/15;01:12:17;XV-200-18-010: AFSLUITER STEIGER 623 IN ALARM;ACK;
01/09/15;01:12:18;XV-300-10-010: AFSLUITER STEIGER 623 IN ALARM;ACK;
01/09/15;01:12:25;XV-250-5-010: AFSLUITER STEIGER 623 IN ALARM;ACK;
01/09/15;01:12:27;XV-GW20-001: AFSLUITER SCRUBBER GW20 IN ALARM;ACK;
01/09/15;01:12:55;TT-POST2-001: TEMPERATUURBEWAKING POST2 LAAGSPANNING HOOG HOOG ALARM;OFF;
01/09/15;01:13:41;XV-300-4-010: AFSLUITER STEIGER 623 IN ALARM;ACK;
01/09/15;01:13:42;XV-200-15-010: AFSLUITER STEIGER 623 IN ALARM;ACK;
01/09/15;01:14:41;XV-300-5-010: AFSLUITER STEIGER 623 IN ALARM;ACK;
01/09/15;01:14:46;XV-200-17-010: AFSLUITER STEIGER 623 IN ALARM;ACK;
01/09/15;01:15:19;XV-300-9-010: AFSLUITER STEIGER 623 IN ALARM;ACK;
01/09/15;01:15:23;XV-300-8-010: AFSLUITER STEIGER 623 IN ALARM;ACK;
01/09/15;01:17:29;XV-250-4-010: AFSLUITER STEIGER 623 IN ALARM;ACK;
01/09/15;01:21:57;SDI-TR140-CH-03: SHUTDOWN INPUT CHEMIE PILZ -> S7 IN ALARM;OFF;
01/09/15;01:21:57;SSDI-PLC07-PLC01-01: NOODSTOP VINGERPIER IN ALARM;OFF;
01/09/15;01:21:57;SSDI-PLC07-PLC01-02: NOODSTOP LP EDC/METHANOL IN ALARM;OFF;
01/09/15;01:21:57;SSDI-PLC07-PLC01-03: BRANDDETECTIE LP EDC/METHANOL IN ALARM;OFF;
01/09/15;01:21:57;SSDI-PLC07-PLC01-04: NOODSTOP TP5/7/8/16/17/18/19 IN ALARM;OFF;
01/09/15;01:21:57;SDI-POST11-GW17-001: NOODSTOP GASWASSER 17 IN ALARM;OFF;
01/09/15;01:22:01;XV-250-1-010: AFSLUITER STEIGER 623 IN ALARM;ACK;
01/09/15;01:22:05;TT-300-4-004: TEMPERATUURMETING PRODUCT TANK 300-4 MEETFOUT;OFF;
01/09/15;01:22:05;PT-300-4-007: DRUKMETING LAADARM TANK 300-4 MEETFOUT;OFF;
01/09/15;01:22:09;XV-300-4-010: AFSLUITER STEIGER 623 IN ALARM;OFF;
01/09/15;01:22:17;SDI-TR140-PLC07-PLC09-01: VERZAMELCONTACT NOODSTOP AREA ST625A IN ALARM;OFF;
01/09/15;01:22:17;SDI-TR140-PLC07-PLC09-02: VERZAMELCONTACT GAS AREA ST625A IN ALARM;OFF;
01/09/15;01:22:20;TTWW-420-03-003: TEMPERATUURMETING WARMWATER UNIT WW-T420-03 MEETFOUT;ACK;
01/09/15;01:22:20;PTWW-420-03-001: DRUKMETING WARMWATER UNIT WW-T420-03 MEETFOUT;ACK;
01/09/15;01:23:07;DP-SLAVE19-PLC07-PR1-POST5-ERR: DP SLAVE 19 PLC07 PROFIBUS 1 POST5 IN ALARM;OFF;
01/09/15;01:23:07;DP-SLAVE7-PLC07-PR1-POST2-ERR: DP SLAVE 7 PLC07 PROFIBUS 1 POST2 IN ALARM;OFF;
01/09/15;01:23:07;DP-SLAVE15-PLC07-PR1-POST5-ERR: DP SLAVE 15 PLC07 PROFIBUS 1 POST5 IN ALARM;OFF;
01/09/15;01:23:07;DP-SLAVE16-PLC07-PR1-POST5-ERR: DP SLAVE 16 PLC07 PROFIBUS 1 POST5 IN ALARM;OFF;
01/09/15;01:23:07;DP-SLAVE6: SLAVE 6 ALARM IN ALARM;OFF;
01/09/15;01:23:07;DP-SLAVE33: SLAVE 33 ALARM IN ALARM;OFF;
01/09/15;01:23:07;DP-SLAVE35: SLAVE 35 ALARM IN ALARM;OFF;
01/09/15;01:23:07;DP-SLAVE36: SLAVE 36 ALARM IN ALARM;OFF;
01/09/15;01:23:07;DP-SLAVE37: SLAVE 37 ALARM IN ALARM;OFF;
01/09/15;01:23:07;DP-SLAVE38: SLAVE 38 ALARM IN ALARM;OFF;
01/09/15;01:23:07;DP-SLAVE39: SLAVE 39 ALARM IN ALARM;OFF;
01/09/15;01:23:07;DP-SLAVE61: SLAVE 61 ALARM IN ALARM;OFF;
01/09/15;01:23:07;DP-SLAVE62: SLAVE 62 ALARM IN ALARM;OFF;
01/09/15;01:23:10;PTWW-420-02-001: DRUKMETING WARMWATER UNIT WW-T420-02 MEETFOUT;ACK;
01/09/15;01:23:11;PTWW-420-01-001: DRUKMETING WARMWATER UNIT WW-T420-01 MEETFOUT;ACK;
01/09/15;01:23:26;PDIT-420-03-003: VERSCHILDRUKMETING OVER FLAME ARRESTOR T420-03 MEETFOUT;ACK;
01/09/15;01:23:27;PDIT-420-02-003: VERSCHILDRUKMETING OVER FLAME ARRESTOR T420-02 MEETFOUT;ACK;
01/09/15;01:23:28;PDIT-420-01-003: VERSCHILDRUKMETING OVER FLAME ARRESTOR T420-01 MEETFOUT;ACK;
01/09/15;01:23:30;SDI-TR140-PLC07-PLC09-02: VERZAMELCONTACT GAS AREA ST625A IN ALARM;ACK;
01/09/15;01:23:31;SDI-TR140-PLC07-PLC09-01: VERZAMELCONTACT NOODSTOP AREA ST625A IN ALARM;ACK;
01/09/15;01:23:32;SDI-POST11-GW17-001: NOODSTOP GASWASSER 17 IN ALARM;ACK;
01/09/15;01:23:33;SSDI-PLC07-PLC01-04: NOODSTOP TP5/7/8/16/17/18/19 IN ALARM;ACK;
01/09/15;01:23:37;SSDI-PLC07-PLC01-03: BRANDDETECTIE LP EDC/METHANOL IN ALARM;ACK;
01/09/15;01:23:37;SSDI-PLC07-PLC01-02: NOODSTOP LP EDC/METHANOL IN ALARM;ACK;
01/09/15;01:23:38;SSDI-PLC07-PLC01-01: NOODSTOP VINGERPIER IN ALARM;ACK;
01/09/15;01:23:39;SDI-TR140-CH-03: SHUTDOWN INPUT CHEMIE PILZ -> S7 IN ALARM;ACK;
01/09/15;01:23:40;TT-P150-9-002: TEMPERATUURSMETING POMP T150-9 MEETFOUT;ACK;
01/09/15;01:23:42;TT-WW-150-11-001: TEMPERATUURSMETING WARMWATER UNIT WW-T150-11 MEETFOUT;ACK;
01/09/15;01:23:42;PT-WW-150-11-001: DRUKMETING WARMWATER UNIT WW-T150-11 MEETFOUT;ACK;
01/09/15;01:23:43;TT-P150-11-001: TEMPERATUURSMETING POMP T150-11 MEETFOUT;ACK;
01/09/15;01:23:44;PT-150-11-002: DRUKMETING TANK 150-11 MEETFOUT;ACK;
01/09/15;01:23:47;TT-WW-150-9-001: TEMPERATUURSMETING WARMWATER UNIT WW-T150-9 MEETFOUT;ACK;
01/09/15;01:23:54;PT-WW-150-9-001: DRUKMETING WARMWATER UNIT WW-T150-9 MEETFOUT;ACK;
01/09/15;01:23:59;TT-P150-9-001: TEMPERATUURSMETING POMP T150-9 MEETFOUT;ACK;
01/09/15;01:24:00;PIT-150-9-002: DRUKMETING TANK 150-9 MEETFOUT;ACK;
01/09/15;01:24:01;FQT-L119-001-TOT: TOTALIZER PRODUCT WAGONBELADING L119 MEETFOUT;ACK;
01/09/15;01:24:03;FQT-L119-001-FLOW: FLOW PRODUCT WAGONBELADING L119 MEETFOUT;ACK;
01/09/15;01:24:04;FQT-L118-001-TOT: TOTALIZER PRODUCT WAGONBELADING L118 MEETFOUT;ACK;
01/09/15;01:24:05;FQT-L118-001-FLOW: FLOW PRODUCT WAGONBELADING L118 MEETFOUT;ACK;
01/09/15;01:24:10;FQT-L117-001-TOT: TOTALIZER PRODUCT WAGONBELADING L117 MEETFOUT;ACK;
01/09/15;01:24:11;FQT-L117-001-FLOW: FLOW PRODUCT WAGONBELADING L117 MEETFOUT;ACK;
01/09/15;01:24:12;FQT-L116-001-TOT: TOTALIZER PRODUCT WAGONBELADING L116 MEETFOUT;ACK;
01/09/15;01:24:16;FQT-L116-001-FLOW: FLOW PRODUCT WAGONBELADING L116 MEETFOUT;ACK;
01/09/15;01:24:16;XV-150-12-003: OPEN TERUGMELDING XV 150-12-003 IN ALARM;ACK;
01/09/15;01:24:21;TSHH-150-12-003: TEMPERATUUR SWITCH IN ALARM;ACK;
01/09/15;01:24:23;UA-RD-POST5-001: ROOKDETECTIE PUT 5 GEACTIVEERD IN ALARM;ACK;
01/09/15;01:24:32;AU-ND-ST625-01: STROOMUITVAL ST625 IN ALARM;ACK;
01/09/15;01:24:33;Z-ND-ST625-01: NOODDOUCHES ST625 BEDIEND IN ALARM;OFF;
01/09/15;01:24:33;AU-ND-ST625-01: STROOMUITVAL ST625 IN ALARM;OFF;
01/09/15;01:25:15;Z-ND-ST625-01: NOODDOUCHES ST625 BEDIEND IN ALARM;ACK;
01/09/15;01:25:16;L05B-808: TRACING ALARM WERKLEIDING ST625 IN ALARM;ACK;
01/09/15;01:25:24;L05B-807: TRACING ALARM POMPEN P172/173 IN ALARM;ACK;
01/09/15;01:25:27;L05B-806: TRACING ALARM T150-2 TRANSFER MONSANTO IN ALARM;ACK;
01/09/15;01:25:28;L05B-804: TRACING ALARM LEIDING ST625 PUT 7 ST623 IN ALARM;ACK;
01/09/15;01:25:28;L05B-803: TRACING ALARM ST625 NAAR 623 ST325 IN ALARM;ACK;
01/09/15;01:25:29;DP-SLAVE19-PLC07-PR1-POST5-ERR: DP SLAVE 19 PLC07 PROFIBUS 1 POST5 IN ALARM;ACK;
01/09/15;01:25:29;DP-SLAVE3-PLC07-PR1-POST11-ERR: DP SLAVE 3 PLC07 PROFIBUS 1 POST11 IN ALARM;ACK;
01/09/15;01:25:29;DP-SLAVE85-PLC07-PR1-POST11-ERR: DP SLAVE 85 PLC07 PROFIBUS 1 POST11 IN ALARM;ACK;
01/09/15;01:25:29;DP-SLAVE87-PLC07-PR1-POST11-ERR: DP SLAVE 87 PLC07 PROFIBUS 1 POST11 IN ALARM;ACK;
01/09/15;01:25:29;DP-SLAVE90-PLC07-PR1-POST11-ERR: DP SLAVE 90 PLC07 PROFIBUS 1 POST11 IN ALARM;ACK;
01/09/15;01:25:29;DP-SLAVE81-PLC07-PR1-POST11-ERR: DP SLAVE 81 PLC07 PROFIBUS 1 POST11 IN ALARM;ACK;
01/09/15;01:25:29;DP-SLAVE83-PLC07-ERR: DP SLAVE 83 PLC07 LPM-3 IN ALARM;ACK;
01/09/15;01:25:29;DP-SLAVE7-PLC07-PR1-POST2-ERR: DP SLAVE 7 PLC07 PROFIBUS 1 POST2 IN ALARM;ACK;
01/09/15;01:25:29;DP-SLAVE15-PLC07-PR1-POST5-ERR: DP SLAVE 15 PLC07 PROFIBUS 1 POST5 IN ALARM;ACK;
01/09/15;01:25:29;DP-SLAVE16-PLC07-PR1-POST5-ERR: DP SLAVE 16 PLC07 PROFIBUS 1 POST5 IN ALARM;ACK;
01/09/15;01:25:29;DP-SLAVE84-PLC07-ERR: DP SLAVE 84 PLC07 LPM-4 IN ALARM;ACK;
01/09/15;01:25:29;DP-SLAVE91-PLC07-ERR: DP SLAVE 91 PLC07 IN ALARM;ACK;
01/09/15;01:25:29;PIT-L117-001: DRUK PRODUCT WAGONBELADING L117 MEETFOUT;ACK;
01/09/15;01:25:29;PIT-L118-001: DRUK PRODUCT WAGONBELADING L118 MEETFOUT;ACK;
01/09/15;01:25:29;PIT-L119-001: DRUK PRODUCT WAGONBELADING L119 MEETFOUT;ACK;
01/09/15;01:25:29;PIT-L116-001: DRUK PRODUCT WAGONBELADING L116 MEETFOUT;ACK;
01/09/15;01:25:29;PIT-L116-002: DRUKMETING PRODUCTLEIDING LP AZIJNZUUR MEETFOUT;ACK;
01/09/15;01:25:29;DP-SLAVE6: SLAVE 6 ALARM IN ALARM;ACK;
01/09/15;01:25:29;DP-SLAVE33: SLAVE 33 ALARM IN ALARM;ACK;
01/09/15;01:25:29;DP-SLAVE35: SLAVE 35 ALARM IN ALARM;ACK;
01/09/15;01:25:29;DP-SLAVE36: SLAVE 36 ALARM IN ALARM;ACK;
01/09/15;01:25:29;DP-SLAVE37: SLAVE 37 ALARM IN ALARM;ACK;
01/09/15;01:25:29;DP-SLAVE38: SLAVE 38 ALARM IN ALARM;ACK;
01/09/15;01:25:29;PT-150-8-002: DRUKMETING TANK 150-8 LAAG ALARM;ACK;
01/09/15;01:25:29;PT-150-8-002: DRUKMETING TANK 150-8 LAAG LAAG ALARM;ACK;
01/09/15;01:25:29;PT-150-8-002: DRUKMETING TANK 150-8 MEETFOUT;ACK;
01/09/15;01:25:29;PIT-150-9-002: DRUKMETING TANK 150-9 LAAG ALARM;ACK;
01/09/15;01:25:29;PIT-150-9-002: DRUKMETING TANK 150-9 LAAG LAAG ALARM;ACK;
01/09/15;01:25:29;PT-150-11-002: DRUKMETING TANK 150-11 LAAG ALARM;ACK;
01/09/15;01:25:29;PT-150-11-002: DRUKMETING TANK 150-11 LAAG LAAG ALARM;ACK;
01/09/15;01:25:29;TT-P150-12-003: TEMPERATUUTMETING STOOM T150-12 MEETFOUT;ACK;
01/09/15;01:25:29;DP-SLAVE39: SLAVE 39 ALARM IN ALARM;ACK;
01/09/15;01:25:29;DP-SLAVE61: SLAVE 61 ALARM IN ALARM;ACK;
01/09/15;01:25:29;DP-SLAVE62: SLAVE 62 ALARM IN ALARM;ACK;
01/09/15;01:25:29;MS-P267-001: POMP P267 IN FOUT IN ALARM;ACK;
01/09/15;01:25:29;P272: POMP P272 TANK 250-3 IN ALARM;ACK;
01/09/15;01:25:29;P279: POMP P279 TANK 300-10 IN ALARM;ACK;
01/09/15;01:25:29;TT-P150-8-002: TEMPERATUURSMETING POMP T150-8 MEETFOUT;ACK;
01/09/15;01:25:29;MS-P268-001: POMP P268 IN FOUT IN ALARM;ACK;
01/09/15;01:25:29;MS-P269-001: POMP P269 IN FOUT IN ALARM;ACK;
01/09/15;01:25:29;MS-P266-001: POMP P266 IN FOUT IN ALARM;ACK;
01/09/15;01:25:29;MS-P259-001: POMP P259 IN FOUT IN ALARM;ACK;
01/09/15;01:25:29;MS-P260-001: POMP P260 IN FOUT IN ALARM;ACK;
01/09/15;01:25:29;MS-P270-001: POMP P270 IN FOUT IN ALARM;ACK;
01/09/15;01:25:29;MS-P278-001: POMP P278 IN FOUT IN ALARM;ACK;
01/09/15;01:25:29;MS-P279-001: POMP P279 IN FOUT IN ALARM;ACK;
01/09/15;01:25:29;MS-P261-001: POMP P261 IN FOUT IN ALARM;ACK;
01/09/15;01:25:29;MS-P262-001: POMP P262 IN FOUT IN ALARM;ACK;
01/09/15;01:25:29;MS-P263-001: POMP P263 IN FOUT IN ALARM;ACK;
01/09/15;01:25:29;MS-P264-001: POMP P264 IN FOUT IN ALARM;ACK;
01/09/15;01:25:29;MS-P265-001: POMP P265 IN FOUT IN ALARM;ACK;
01/09/15;01:25:29;MS-P272-001: POMP P272 IN FOUT IN ALARM;ACK;
01/09/15;01:25:29;MS-P273-001: POMP P273 IN FOUT IN ALARM;ACK;
01/09/15;01:25:29;MS-P274-001: POMP P274 IN FOUT IN ALARM;ACK;
01/09/15;01:25:29;MS-P275-001: POMP P275 IN FOUT IN ALARM;ACK;
01/09/15;01:25:29;MS-P276-001: POMP P276 IN FOUT IN ALARM;ACK;
01/09/15;01:25:29;MS-P277-001: POMP P277 IN FOUT IN ALARM;ACK;
01/09/15;01:25:29;MS-P528-001: TERUGMELDING FOUT POMP P528 IN ALARM;ACK;
01/09/15;01:25:29;MS-P529-001: TERUGMELDING FOUT POMP P529 IN ALARM;ACK;
01/09/15;01:25:29;MS-P271-001: POMP P271 IN FOUT IN ALARM;ACK;
01/09/15;01:25:29;TT-200-17-004: TEMPERATUURMETING PRODUCT TANK 200-17 MEETFOUT;ACK;
01/09/15;01:25:29;TT-200-18-004: TEMPERATUURMETING PRODUCT TANK 200-18 MEETFOUT;ACK;
01/09/15;01:25:29;TT-200-19-004: TEMPERATUURMETING PRODUCT TANK 200-19 MEETFOUT;ACK;
01/09/15;01:25:29;PT-200-19-007: DRUKMETING LAADARM TANK 200-19 MEETFOUT;ACK;
01/09/15;01:25:29;TT-300-4-004: TEMPERATUURMETING PRODUCT TANK 300-4 MEETFOUT;ACK;
01/09/15;01:25:29;PT-300-4-007: DRUKMETING LAADARM TANK 300-4 MEETFOUT;ACK;
01/09/15;01:25:29;TT-300-5-004: TEMPERATUURMETING PRODUCT TANK 300-5 MEETFOUT;ACK;
01/09/15;01:25:29;PT-300-5-007: DRUKMETING LAADARM TANK 300-5 MEETFOUT;ACK;
01/09/15;01:25:29;TT-250-1-004: TEMPERATUURMETING PRODUCT TANK 250-1 MEETFOUT;ACK;
01/09/15;01:25:29;TT-250-2-004: TEMPERATUURMETING PRODUCT TANK 250-2 MEETFOUT;ACK;
01/09/15;01:25:29;TT-300-9-004: TEMPERATUURMETING PRODUCT TANK 300-9 MEETFOUT;ACK;
01/09/15;01:25:29;PT-300-9-007: DRUKMETING LAADARM TANK 300-9 MEETFOUT;ACK;
01/09/15;01:25:29;TT-300-10-004: TEMPERATUURMETING PRODUCT TANK 30010 MEETFOUT;ACK;
01/09/15;01:25:29;PT-300-10-007: DRUKMETING LAADARM TANK 300-10 MEETFOUT;ACK;
01/09/15;01:25:29;LSH-150-8-002: NIVEAUSCHAKELAAR TANK 150-8 IN ALARM;ACK;
01/09/15;01:25:29;LSH-150-9-002: NIVEAUSCHAKELAAR TANK 150-9 IN ALARM;ACK;
01/09/15;01:25:29;TT-150-28-004: TEMPERATUURMETING PRODUCT TANK 150-28 MEETFOUT;ACK;
01/09/15;01:25:29;TT-150-29-004: TEMPERATUURMETING PRODUCT TANK 150-29 MEETFOUT;ACK;
01/09/15;01:25:29;TT-150-30-004: TEMPERATUURMETING PRODUCT TANK 150-30 MEETFOUT;ACK;
01/09/15;01:25:29;LSH-150-11-002: NIVEAUSCHAKELAAR TANK 150-11 IN ALARM;ACK;
01/09/15;01:25:29;TT-200-14-004: TEMPERATUURMETING PRODUCT TANK 200-14 MEETFOUT;ACK;
01/09/15;01:25:29;TT-200-15-004: TEMPERATUURMETING PRODUCT TANK 200-15 MEETFOUT;ACK;
01/09/15;01:25:29;TT-200-16-004: TEMPERATUURMETING PRODUCT TANK 200-16 MEETFOUT;ACK;
01/09/15;01:25:29;TT-250-3-004: TEMPERATUURMETING PRODUCT TANK 250-3 MEETFOUT;ACK;
01/09/15;01:25:29;TT-250-4-004: TEMPERATUURMETING PRODUCT TANK 250-4 MEETFOUT;ACK;
01/09/15;01:25:29;TT-250-5-004: TEMPERATUURMETING PRODUCT TANK 250-5 MEETFOUT;ACK;
01/09/15;01:25:29;TT-300-6-004: TEMPERATUURMETING PRODUCT TANK 300-6 MEETFOUT;ACK;
01/09/15;01:25:29;TT-300-7-004: TEMPERATUURMETING PRODUCT TANK 300-7 MEETFOUT;ACK;
01/09/15;01:25:29;XV-625A-111: AFSLUITER DAMPRETOUR NAAR ST625A IN ALARM;ACK;
01/09/15;01:25:29;TT-300-8-004: TEMPERATUURMETING PRODUCT TANK 300-8 MEETFOUT;ACK;
01/09/15;01:25:29;T250-3:  STEIGER FUNCTIE GESTOPT DOOR STOPCONDITIE;ACK;
01/09/15;01:25:29;T300-10:  CIRCULATIE FUNCTIE GESTOPT DOOR STOPCONDITIE;ACK;
01/09/15;01:25:29;XV-625A-112: AFSLUITER PRODUCT NAAR ST625A IN ALARM;ACK;
01/09/15;01:25:29;XV-L116-001: AFSLUITER PRODUCT NAAR LP11-L116 IN ALARM;ACK;
01/09/15;01:25:29;XV-L116-003: AFSLUITER N2 NAAR LP11-L116 IN ALARM;ACK;
01/09/15;01:25:29;XV-L116-004: AFSLUITER DAMP L116 NAAR SCRUBBER IN ALARM;ACK;
01/09/15;01:25:29;XV-L117-001: AFSLUITER PRODUCT NAAR LP11-L117 IN ALARM;ACK;
01/09/15;01:25:29;XV-L117-003: AFSLUITER N2 NAAR LP11-L117 IN ALARM;ACK;
01/09/15;01:25:29;XV-L117-004: AFSLUITER DAMP L117 NAAR SCRUBBER IN ALARM;ACK;
01/09/15;01:25:29;XV-L118-001: AFSLUITER PRODUCT NAAR LP11-L118 IN ALARM;ACK;
01/09/15;01:25:29;XV-L118-003: AFSLUITER N2 NAAR LP11-L118 IN ALARM;ACK;
01/09/15;01:25:30;XV-L118-004: AFSLUITER DAMP L118 NAAR SCRUBBER IN ALARM;ACK;
01/09/15;01:25:30;XV-L119-001: AFSLUITER PRODUCT NAAR LP11-L119 IN ALARM;ACK;
01/09/15;01:25:30;XV-L119-003: AFSLUITER N2 NAAR LP11-L119 IN ALARM;ACK;
01/09/15;01:25:30;XV-L119-004: AFSLUITER DAMP L119 NAAR SCRUBBER IN ALARM;ACK;
01/09/15;01:25:30;FCV-L116-002: REGELKLEP PRODUCT NAAR LP11-L116 IN ALARM;ACK;
01/09/15;01:25:30;FCV-L117-002: REGELKLEP PRODUCT NAAR LP11-L117 IN ALARM;ACK;
01/09/15;01:25:30;FCV-L118-002: REGELKLEP PRODUCT NAAR LP11-L118 IN ALARM;ACK;
01/09/15;01:25:30;FCV-L119-002: REGELKLEP PRODUCT NAAR LP11-L119 IN ALARM;ACK;
01/09/15;01:25:30;XV-150-8-001: HOGE ZUIG TANK 150-8 IN ALARM;ACK;
01/09/15;01:25:30;XV-150-8-002: LAGE ZUIG TANK 150-8 IN ALARM;ACK;
01/09/15;01:25:30;XV-150-8-004: CIRCULATIE  TANK 150-8 IN ALARM;ACK;
01/09/15;01:25:30;XV-150-8-005: AFSLUITER ZUIG POMP TANK 150-8 IN ALARM;ACK;
01/09/15;01:25:30;XV-150-8-007: AFSLUITER BYPASS POMP TANK 150-8 IN ALARM;ACK;
01/09/15;01:25:30;XV-150-8-009: OVERVUL AFSLUITER TANK 150-8 IN ALARM;ACK;
01/09/15;01:25:30;XV-150-9-001: HOGE ZUIG TANK 150-9 IN ALARM;ACK;
01/09/15;01:25:30;XV-150-9-002: LAGE ZUIG TANK 150-9 IN ALARM;ACK;
01/09/15;01:25:30;XV-150-9-004: CIRCULATIE  TANK 150-9 IN ALARM;ACK;
01/09/15;01:25:30;XV-150-9-005: AFSLUITER ZUIG POMP TANK 150-9 IN ALARM;ACK;
01/09/15;01:25:30;XV-150-9-007: AFSLUITER BYPASS POMP TANK 150-9 IN ALARM;ACK;
01/09/15;01:25:30;XV-150-9-009: OVERVUL AFSLUITER TANK 150-9 IN ALARM;ACK;
01/09/15;01:25:30;XV-150-11-001: HOGE ZUIG TANK 150-11 IN ALARM;ACK;
01/09/15;01:25:30;XV-150-11-002: LAGE ZUIG TANK 150-11 IN ALARM;ACK;
01/09/15;01:25:30;XV-150-11-004: CIRCULATIE  TANK 150-11 IN ALARM;ACK;
01/09/15;01:25:30;XV-150-11-005: AFSLUITER ZUIG POMP TANK 150-11 IN ALARM;ACK;
01/09/15;01:25:30;XV-150-11-007: AFSLUITER BYPASS POMP TANK 150-11 IN ALARM;ACK;
01/09/15;01:25:30;XV-150-11-009: OVERVUL AFSLUITER TANK 150-11 IN ALARM;ACK;
01/09/15;01:25:30;XV-150-12-016: AFSLUITER MONSANTO TANK 150-12 IN ALARM;ACK;
01/09/15;01:25:30;XV-150-12-015: AFSLUITER MONSANTO TANK 150-12 IN ALARM;ACK;
01/09/15;01:25:30;XV-150-12-009: AFSLUITER NAAR ST625 + LP10B TANK 150-12 IN ALARM;ACK;
01/09/15;01:25:30;XV-150-10-016: AFSLUITER MONSANTO TANK 150-10 IN ALARM;ACK;
01/09/15;01:25:30;XV-150-10-015: AFSLUITER MONSANTO TANK 150-10 IN ALARM;ACK;
01/09/15;01:25:30;XV-150-10-001: AFSLUITER NAAR ST625 + LP10B TANK 150-10 IN ALARM;ACK;
01/09/15;01:25:30;XV-150-10-021: AFSLUITER DAMP RETOUR LP10B IN ALARM;ACK;
01/09/15;01:25:30;SP-L116-001A: FUNTIONELE STOP DRUKKNOP BOVEN IN ALARM;ACK;
01/09/15;01:25:30;LSH-L116-001: NIVEAUSCHAKELAAR PRODUCT IN WAGON IN ALARM;ACK;
01/09/15;01:25:30;XV-150-10-022: AFSLUITER NAAR LP10B IN ALARM;ACK;
01/09/15;01:25:30;XV-150-007-050: AFSLUITER ST625 IN ALARM;ACK;
01/09/15;01:25:30;SP-L117-001A: FUNTIONELE STOP DRUKKNOP BOVEN IN ALARM;ACK;
01/09/15;01:25:30;LSH-L117-001: NIVEAUSCHAKELAAR PRODUCT IN WAGON IN ALARM;ACK;
01/09/15;01:25:30;SP-L118-001A: FUNTIONELE STOP DRUKKNOP BOVEN IN ALARM;ACK;
01/09/15;01:25:30;LSH-L118-001: NIVEAUSCHAKELAAR PRODUCT IN WAGON IN ALARM;ACK;
01/09/15;01:25:30;SP-L119-001A: FUNTIONELE STOP DRUKKNOP BOVEN IN ALARM;ACK;
01/09/15;01:25:30;LSH-L119-001: NIVEAUSCHAKELAAR PRODUCT IN WAGON IN ALARM;ACK;
01/09/15;01:25:30;XS-ALSB2A-POST11-A611-01: REDUNDANTIEBEWAKING POST11 24VDC ALSB2A IN ALARM;ACK;
01/09/15;01:25:30;GW17-RUN: GW17 RUN IN ALARM;ACK;
01/09/15;01:25:30;XS-ALSB2A-POST11-A611-02: BALANSBEWAKING POST11 24VDC ALSB2A IN ALARM;ACK;
01/09/15;01:25:30;XS-TR31-LPM-01: POWERTRACING PRODUCTLEIDNG AZIJNZUUR IN ALARM;ACK;
01/09/15;01:25:30;XS-TR32-LPM-01: POWERTRACING LAADARM AZIJNZUUR IN ALARM;ACK;
01/09/15;01:25:30;XS-TR33-LPM-01: POWERTRACING VAPOUR RECOVERY AZIJNZUUR IN ALARM;ACK;
01/09/15;01:25:30;DP-SLAVE81-MB1-PLC07-PR1-POST11-ERR: DP SLAVE 81 MB1 PLC07 PROFIBUS 1 POST11 IN ALARM;ACK;
01/09/15;01:25:30;DP-SLAVE81-MB2-PLC07-PR1-POST11-ERR: DP SLAVE 81 MB2 PLC07 PROFIBUS 1 POST11 IN ALARM;ACK;
01/09/15;01:25:30;DP-SLAVE81-MB3-PLC07-PR1-POST11-ERR: DP SLAVE 81 MB3 PLC07 PROFIBUS 1 POST11 IN ALARM;ACK;
01/09/15;01:25:30;DP-SLAVE81-MB4-PLC07-PR1-POST11-ERR: DP SLAVE 81 MB4 PLC07 PROFIBUS 1 POST11 IN ALARM;ACK;
01/09/15;01:25:30;STP-LPM-001: FUNTIONELE STOP AAN L116 IN ALARM;ACK;
01/09/15;01:25:30;STP-LPM-002: FUNTIONELE STOP AAN L117 IN ALARM;ACK;
01/09/15;01:25:30;STP-LPM-004: FUNTIONELE STOP AAN EDC BORDES WEST IN ALARM;ACK;
01/09/15;01:25:30;STP-LPM-003: FUNTIONELE STOP AAN L119 IN ALARM;ACK;
01/09/15;01:25:30;STP-LPM-005: FUNTIONELE STOP AAN EDC BORDES OOST IN ALARM;ACK;
01/09/15;01:25:30;MS-PWW150-8-001: TERUGMELDING FOUT PWW150-08-001 IN ALARM;ACK;
01/09/15;01:25:30;U05A-800: TRACING ALARM S160-1 SFEER IN ALARM;ACK;
01/09/15;01:25:30;U05A-801: TRACING ALARM S160-1 LEIDINGEN IN ALARM;ACK;
01/09/15;01:25:30;U05A-802: TRACING ALARM S160-2 SFEER IN ALARM;ACK;
01/09/15;01:25:30;U05A-803: TRACING ALARM S160-2 LEIDINGEN IN ALARM;ACK;
01/09/15;01:25:30;U05A-804: TRACING ALARM S160-4 SFEER IN ALARM;ACK;
01/09/15;01:25:30;U05A-805: TRACING ALARM S160-4 LEIDINGEN IN ALARM;ACK;
01/09/15;01:25:30;U05A-806: TRACING ALARM TRANSFERLEIDINGEN ST623 IN ALARM;ACK;
01/09/15;01:25:30;U05A-807: TRACING ALARM TRANSFERLEIDINGEN ST625 IN ALARM;ACK;
01/09/15;01:25:30;U05A-808: TRACING ALARM SPRINKLERS S160-1 SFEER IN ALARM;ACK;
01/09/15;01:25:30;U05A-809: TRACING ALARM SPRINKLERS S160-2 SFEER IN ALARM;ACK;
01/09/15;01:25:30;U05A-810: TRACING ALARM SPRINKLERS S160-4 SFEER IN ALARM;ACK;
01/09/15;01:25:30;L05B-700: OVERVULBEVEILIGING T150-7 IN ALARM;ACK;
01/09/15;01:25:30;L05B-705: OVERVULBEVEILIGING T150-10 IN ALARM;ACK;
01/09/15;01:25:30;L05B-707: OVERVULBEVEILIGING T150-12 IN ALARM;ACK;
01/09/15;01:25:30;L05B-708: TRACING ALARM OVERVULBEVEILIGING AFSLUITER ST625 IN ALARM;ACK;
01/09/15;01:25:30;L05B-800: TRACING ALARM OVERVULBEVEILIGING ST625 NAAR PUT 7 ST625 NAAR PUT 5 IN ALARM;ACK;
01/09/15;01:25:30;L05B-801: TRACING ALARM POST5 NAAR PUT 5 IN ALARM;ACK;
01/09/15;01:25:30;L05B-802: TRACING ALARM POST 5 NAAR PUT 7 IN ALARM;ACK;
01/09/15;01:26:27;XV-300-5-010: AFSLUITER STEIGER 623 IN ALARM;OFF;
01/09/15;01:26:27;TT-300-5-004: TEMPERATUURMETING PRODUCT TANK 300-5 MEETFOUT;OFF;
01/09/15;01:26:27;PT-300-5-007: DRUKMETING LAADARM TANK 300-5 MEETFOUT;OFF;
01/09/15;01:26:37;XV-150-28-010: AFSLUITER STEIGER 623 IN ALARM;OFF;
01/09/15;01:26:37;TT-150-28-004: TEMPERATUURMETING PRODUCT TANK 150-28 MEETFOUT;OFF;
01/09/15;01:26:43;XV-150-29-010: AFSLUITER STEIGER 623 IN ALARM;OFF;
01/09/15;01:26:43;TT-150-29-004: TEMPERATUURMETING PRODUCT TANK 150-29 MEETFOUT;OFF;
01/09/15;01:26:52;XV-150-30-010: AFSLUITER STEIGER 623 IN ALARM;OFF;
01/09/15;01:26:52;TT-150-30-004: TEMPERATUURMETING PRODUCT TANK 150-30 MEETFOUT;OFF;
01/09/15;01:26:53;XV-200-14-010: AFSLUITER STEIGER 623 IN ALARM;OFF;
01/09/15;01:26:53;TT-200-14-004: TEMPERATUURMETING PRODUCT TANK 200-14 MEETFOUT;OFF;
01/09/15;01:27:01;XV-200-15-010: AFSLUITER STEIGER 623 IN ALARM;OFF;
01/09/15;01:27:04;TT-200-15-004: TEMPERATUURMETING PRODUCT TANK 200-15 MEETFOUT;OFF;
01/09/15;01:27:07;XV-200-16-010: AFSLUITER STEIGER 623 IN ALARM;OFF;
01/09/15;01:27:07;TT-200-16-004: TEMPERATUURMETING PRODUCT TANK 200-16 MEETFOUT;OFF;
01/09/15;01:27:18;XV-200-17-010: AFSLUITER STEIGER 623 IN ALARM;OFF;
01/09/15;01:27:18;TT-200-17-004: TEMPERATUURMETING PRODUCT TANK 200-17 MEETFOUT;OFF;
01/09/15;01:27:24;XV-200-18-010: AFSLUITER STEIGER 623 IN ALARM;OFF;
01/09/15;01:27:24;TT-200-18-004: TEMPERATUURMETING PRODUCT TANK 200-18 MEETFOUT;OFF;
01/09/15;01:27:30;XV-200-19-010: AFSLUITER STEIGER 623 IN ALARM;OFF;
01/09/15;01:27:30;TT-200-19-004: TEMPERATUURMETING PRODUCT TANK 200-19 MEETFOUT;OFF;
01/09/15;01:27:30;PT-200-19-007: DRUKMETING LAADARM TANK 200-19 MEETFOUT;OFF;
01/09/15;01:27:50;XV-250-1-010: AFSLUITER STEIGER 623 IN ALARM;OFF;
01/09/15;01:27:50;TT-250-1-004: TEMPERATUURMETING PRODUCT TANK 250-1 MEETFOUT;OFF;
01/09/15;01:27:55;XV-250-2-010: AFSLUITER STEIGER 623 IN ALARM;OFF;
01/09/15;01:27:55;TT-250-2-004: TEMPERATUURMETING PRODUCT TANK 250-2 MEETFOUT;OFF;
01/09/15;01:28:01;P272: POMP P272 TANK 250-3 IN ALARM;OFF;
01/09/15;01:28:01;TT-250-3-004: TEMPERATUURMETING PRODUCT TANK 250-3 MEETFOUT;OFF;
01/09/15;01:28:13;TT-250-4-004: TEMPERATUURMETING PRODUCT TANK 250-4 MEETFOUT;OFF;
01/09/15;01:28:35;TT-250-5-004: TEMPERATUURMETING PRODUCT TANK 250-5 MEETFOUT;OFF;
01/09/15;01:28:41;TT-300-6-004: TEMPERATUURMETING PRODUCT TANK 300-6 MEETFOUT;OFF;
01/09/15;01:28:49;TT-300-7-004: TEMPERATUURMETING PRODUCT TANK 300-7 MEETFOUT;OFF;
01/09/15;01:28:53;XV-300-8-010: AFSLUITER STEIGER 623 IN ALARM;OFF;
01/09/15;01:28:53;TT-300-8-004: TEMPERATUURMETING PRODUCT TANK 300-8 MEETFOUT;OFF;
01/09/15;01:29:17;XV-300-9-010: AFSLUITER STEIGER 623 IN ALARM;OFF;
01/09/15;01:29:17;TT-300-9-004: TEMPERATUURMETING PRODUCT TANK 300-9 MEETFOUT;OFF;
01/09/15;01:29:17;PT-300-9-007: DRUKMETING LAADARM TANK 300-9 MEETFOUT;OFF;
01/09/15;01:29:32;P279: POMP P279 TANK 300-10 IN ALARM;OFF;
01/09/15;01:29:32;XV-300-10-010: AFSLUITER STEIGER 623 IN ALARM;OFF;
01/09/15;01:29:32;TT-300-10-004: TEMPERATUURMETING PRODUCT TANK 30010 MEETFOUT;OFF;
01/09/15;01:29:32;PT-300-10-007: DRUKMETING LAADARM TANK 300-10 MEETFOUT;OFF;
01/09/15;01:29:41;U05A-800: TRACING ALARM S160-1 SFEER IN ALARM;OFF;
01/09/15;01:29:41;U05A-801: TRACING ALARM S160-1 LEIDINGEN IN ALARM;OFF;
01/09/15;01:29:41;U05A-802: TRACING ALARM S160-2 SFEER IN ALARM;OFF;
01/09/15;01:29:41;U05A-803: TRACING ALARM S160-2 LEIDINGEN IN ALARM;OFF;
01/09/15;01:29:41;U05A-804: TRACING ALARM S160-4 SFEER IN ALARM;OFF;
01/09/15;01:29:41;U05A-805: TRACING ALARM S160-4 LEIDINGEN IN ALARM;OFF;
01/09/15;01:29:41;U05A-806: TRACING ALARM TRANSFERLEIDINGEN ST623 IN ALARM;OFF;
01/09/15;01:29:41;U05A-807: TRACING ALARM TRANSFERLEIDINGEN ST625 IN ALARM;OFF;
01/09/15;01:29:41;U05A-808: TRACING ALARM SPRINKLERS S160-1 SFEER IN ALARM;OFF;
01/09/15;01:29:41;U05A-809: TRACING ALARM SPRINKLERS S160-2 SFEER IN ALARM;OFF;
01/09/15;01:29:41;U05A-810: TRACING ALARM SPRINKLERS S160-4 SFEER IN ALARM;OFF;
01/09/15;01:29:41;L05B-708: TRACING ALARM OVERVULBEVEILIGING AFSLUITER ST625 IN ALARM;OFF;
01/09/15;01:29:41;L05B-800: TRACING ALARM OVERVULBEVEILIGING ST625 NAAR PUT 7 ST625 NAAR PUT 5 IN ALARM;OFF;
01/09/15;01:29:41;L05B-801: TRACING ALARM POST5 NAAR PUT 5 IN ALARM;OFF;
01/09/15;01:29:41;L05B-802: TRACING ALARM POST 5 NAAR PUT 7 IN ALARM;OFF;
01/09/15;01:29:41;L05B-803: TRACING ALARM ST625 NAAR 623 ST325 IN ALARM;OFF;
01/09/15;01:29:41;L05B-804: TRACING ALARM LEIDING ST625 PUT 7 ST623 IN ALARM;OFF;
01/09/15;01:29:41;L05B-806: TRACING ALARM T150-2 TRANSFER MONSANTO IN ALARM;OFF;
01/09/15;01:29:41;L05B-807: TRACING ALARM POMPEN P172/173 IN ALARM;OFF;
01/09/15;01:29:41;L05B-808: TRACING ALARM WERKLEIDING ST625 IN ALARM;OFF;
01/09/15;01:30:09;DP-SLAVE3-PLC07-PR1-POST11-ERR: DP SLAVE 3 PLC07 PROFIBUS 1 POST11 IN ALARM;OFF;
01/09/15;01:30:09;DP-SLAVE85-PLC07-PR1-POST11-ERR: DP SLAVE 85 PLC07 PROFIBUS 1 POST11 IN ALARM;OFF;
01/09/15;01:30:09;DP-SLAVE87-PLC07-PR1-POST11-ERR: DP SLAVE 87 PLC07 PROFIBUS 1 POST11 IN ALARM;OFF;
01/09/15;01:30:09;DP-SLAVE90-PLC07-PR1-POST11-ERR: DP SLAVE 90 PLC07 PROFIBUS 1 POST11 IN ALARM;OFF;
01/09/15;01:30:09;DP-SLAVE81-PLC07-PR1-POST11-ERR: DP SLAVE 81 PLC07 PROFIBUS 1 POST11 IN ALARM;OFF;
01/09/15;01:30:09;DP-SLAVE83-PLC07-ERR: DP SLAVE 83 PLC07 LPM-3 IN ALARM;OFF;
01/09/15;01:30:09;DP-SLAVE84-PLC07-ERR: DP SLAVE 84 PLC07 LPM-4 IN ALARM;OFF;
01/09/15;01:30:09;DP-SLAVE81-MB1-PLC07-PR1-POST11-ERR: DP SLAVE 81 MB1 PLC07 PROFIBUS 1 POST11 IN ALARM;OFF;
01/09/15;01:30:09;DP-SLAVE81-MB2-PLC07-PR1-POST11-ERR: DP SLAVE 81 MB2 PLC07 PROFIBUS 1 POST11 IN ALARM;OFF;
01/09/15;01:30:09;DP-SLAVE81-MB3-PLC07-PR1-POST11-ERR: DP SLAVE 81 MB3 PLC07 PROFIBUS 1 POST11 IN ALARM;OFF;
01/09/15;01:30:09;DP-SLAVE81-MB4-PLC07-PR1-POST11-ERR: DP SLAVE 81 MB4 PLC07 PROFIBUS 1 POST11 IN ALARM;OFF;
01/09/15;01:30:21;XS-TR31-LPM-01: POWERTRACING PRODUCTLEIDNG AZIJNZUUR IN ALARM;OFF;
01/09/15;01:30:21;XS-TR32-LPM-01: POWERTRACING LAADARM AZIJNZUUR IN ALARM;OFF;
01/09/15;01:30:21;XS-TR33-LPM-01: POWERTRACING VAPOUR RECOVERY AZIJNZUUR IN ALARM;OFF;
01/09/15;01:30:38;XV-L116-001: AFSLUITER PRODUCT NAAR LP11-L116 IN ALARM;OFF;
01/09/15;01:30:38;XV-L116-003: AFSLUITER N2 NAAR LP11-L116 IN ALARM;OFF;
01/09/15;01:30:38;XV-L116-004: AFSLUITER DAMP L116 NAAR SCRUBBER IN ALARM;OFF;
01/09/15;01:30:38;XV-L117-001: AFSLUITER PRODUCT NAAR LP11-L117 IN ALARM;OFF;
01/09/15;01:30:38;XV-L117-003: AFSLUITER N2 NAAR LP11-L117 IN ALARM;OFF;
01/09/15;01:30:38;XV-L117-004: AFSLUITER DAMP L117 NAAR SCRUBBER IN ALARM;OFF;
01/09/15;01:30:38;XV-L118-001: AFSLUITER PRODUCT NAAR LP11-L118 IN ALARM;OFF;
01/09/15;01:30:38;XV-L118-003: AFSLUITER N2 NAAR LP11-L118 IN ALARM;OFF;
01/09/15;01:30:38;XV-L118-004: AFSLUITER DAMP L118 NAAR SCRUBBER IN ALARM;OFF;
01/09/15;01:30:38;XV-L119-001: AFSLUITER PRODUCT NAAR LP11-L119 IN ALARM;OFF;
01/09/15;01:30:38;XV-L119-003: AFSLUITER N2 NAAR LP11-L119 IN ALARM;OFF;
01/09/15;01:30:38;XV-L119-004: AFSLUITER DAMP L119 NAAR SCRUBBER IN ALARM;OFF;
01/09/15;01:30:38;FCV-L116-002: REGELKLEP PRODUCT NAAR LP11-L116 IN ALARM;OFF;
01/09/15;01:30:38;FCV-L117-002: REGELKLEP PRODUCT NAAR LP11-L117 IN ALARM;OFF;
01/09/15;01:30:38;FCV-L118-002: REGELKLEP PRODUCT NAAR LP11-L118 IN ALARM;OFF;
01/09/15;01:30:38;FCV-L119-002: REGELKLEP PRODUCT NAAR LP11-L119 IN ALARM;OFF;
01/09/15;01:30:38;SP-L116-001A: FUNTIONELE STOP DRUKKNOP BOVEN IN ALARM;OFF;
01/09/15;01:30:38;LSH-L116-001: NIVEAUSCHAKELAAR PRODUCT IN WAGON IN ALARM;OFF;
01/09/15;01:30:38;SP-L117-001A: FUNTIONELE STOP DRUKKNOP BOVEN IN ALARM;OFF;
01/09/15;01:30:38;LSH-L117-001: NIVEAUSCHAKELAAR PRODUCT IN WAGON IN ALARM;OFF;
01/09/15;01:30:38;SP-L118-001A: FUNTIONELE STOP DRUKKNOP BOVEN IN ALARM;OFF;
01/09/15;01:30:38;LSH-L118-001: NIVEAUSCHAKELAAR PRODUCT IN WAGON IN ALARM;OFF;
01/09/15;01:30:38;SP-L119-001A: FUNTIONELE STOP DRUKKNOP BOVEN IN ALARM;OFF;
01/09/15;01:30:38;LSH-L119-001: NIVEAUSCHAKELAAR PRODUCT IN WAGON IN ALARM;OFF;
01/09/15;01:30:38;STP-LPM-001: FUNTIONELE STOP AAN L116 IN ALARM;OFF;
01/09/15;01:30:38;STP-LPM-002: FUNTIONELE STOP AAN L117 IN ALARM;OFF;
01/09/15;01:30:38;STP-LPM-004: FUNTIONELE STOP AAN EDC BORDES WEST IN ALARM;OFF;
01/09/15;01:30:38;STP-LPM-003: FUNTIONELE STOP AAN L119 IN ALARM;OFF;
01/09/15;01:30:38;STP-LPM-005: FUNTIONELE STOP AAN EDC BORDES OOST IN ALARM;OFF;
01/09/15;01:30:38;FQT-L116-001-FLOW: FLOW PRODUCT WAGONBELADING L116 MEETFOUT;OFF;
01/09/15;01:30:38;FQT-L116-001-TOT: TOTALIZER PRODUCT WAGONBELADING L116 MEETFOUT;OFF;
01/09/15;01:30:38;FQT-L117-001-FLOW: FLOW PRODUCT WAGONBELADING L117 MEETFOUT;OFF;
01/09/15;01:30:38;FQT-L117-001-TOT: TOTALIZER PRODUCT WAGONBELADING L117 MEETFOUT;OFF;
01/09/15;01:30:38;PIT-L117-001: DRUK PRODUCT WAGONBELADING L117 MEETFOUT;OFF;
01/09/15;01:30:38;FQT-L118-001-FLOW: FLOW PRODUCT WAGONBELADING L118 MEETFOUT;OFF;
01/09/15;01:30:38;FQT-L118-001-TOT: TOTALIZER PRODUCT WAGONBELADING L118 MEETFOUT;OFF;
01/09/15;01:30:38;PIT-L118-001: DRUK PRODUCT WAGONBELADING L118 MEETFOUT;OFF;
01/09/15;01:30:38;FQT-L119-001-FLOW: FLOW PRODUCT WAGONBELADING L119 MEETFOUT;OFF;
01/09/15;01:30:38;FQT-L119-001-TOT: TOTALIZER PRODUCT WAGONBELADING L119 MEETFOUT;OFF;
01/09/15;01:30:38;PIT-L119-001: DRUK PRODUCT WAGONBELADING L119 MEETFOUT;OFF;
01/09/15;01:30:38;PIT-L116-001: DRUK PRODUCT WAGONBELADING L116 MEETFOUT;OFF;
01/09/15;01:30:38;PIT-L116-002: DRUKMETING PRODUCTLEIDING LP AZIJNZUUR MEETFOUT;OFF;
