"Date";"Time";"Message text";"Status";"Acknowledgment Status"
20/08/15;08:46:33;WCCRT:SCADASERVER01:Connection SCADACLIENT006 disconnected;ON;
20/08/15;08:46:33;WCCRT:SCADASERVER01:Connection SCADACLIENT004 connected;ON;
20/08/15;08:46:33;WCCRT:SCADASERVER01:Connection  modified;ON;
20/08/15;08:46:33;WCCRT::Connection  disconnected;Acknowledgment - System;
20/08/15;08:46:33;WCCRT:SCADASERVER01:Connection SCADACLIENT007 disconnected;ON;
20/08/15;08:46:33;WCCRT:SCADASERVER01:Connection SCADACLIENT005 connected;ON;
20/08/15;08:46:33;WCCRT:SCADASERVER01:Connection  modified;ON;
20/08/15;08:46:34;WCCRT:SCADASERVER01:Connection SCADACLIENT006 connected;ON;
20/08/15;08:46:34;WCCRT:SCADASERVER01:Connection SCADACLIENT007 connected;ON;
20/08/15;08:46:34;WCCRT::Connection  disconnected;Acknowledgment - System;
20/08/15;08:46:34;WCCRT:SCADASERVER01:Connection PLC07 disconnected;ON;
20/08/15;08:46:34;WCCRT:SCADASERVER01:Connection PLC07 connected;ON;
20/08/15;08:46:34;WCCRT:SCADASERVER01:Connection  modified;ON;
20/08/15;08:46:40;WCCRT::Connection  disconnected;Acknowledgment - System;
20/08/15;08:46:40;WCCRT:SCADASERVER01:Connection PLC08 disconnected;ON;
20/08/15;08:46:41;WCCRT:SCADASERVER01:Connection PLC08 connected;ON;
20/08/15;08:46:41;WCCRT:SCADASERVER01:Connection  modified;ON;
20/08/15;08:46:47;WCCRT::Connection  disconnected;ACK;
20/08/15;08:46:47;WCCRT:SCADASERVER01:Connection PLC09 disconnected;ON;
20/08/15;08:46:47;WCCRT:SCADASERVER01:Connection  modified;ON;
20/08/15;08:46:47;WCCRT:SCADASERVER01:Connection PLC09 connected;ON;
20/08/15;08:46:47;WCCRT::Connection  disconnected;Acknowledgment - System;
20/08/15;08:46:47;WCCRT:SCADASERVER01:Connection PLC02 disconnected;ON;
20/08/15;08:46:47;WCCRT:SCADASERVER01:Connection PLC02 connected;ON;
20/08/15;08:46:48;WCCRT:SCADASERVER01:Connection  modified;ON;
20/08/15;08:46:48;WCCRT::Connection  disconnected;ACK;
20/08/15;08:46:50;WCCRT::Connection  disconnected;ACK;
20/08/15;08:46:54;WCCRT:SCADASERVER01:Connection PLC_FG03_PLC_FG04 disconnected;ON;
20/08/15;08:46:54;WCCRT:SCADASERVER01:Connection  modified;ON;
20/08/15;08:46:54;WCCRT:SCADASERVER01:Connection PLC_FG03_PLC_FG04 connected;ON;
20/08/15;08:46:54;WCCRT::Connection  disconnected;Acknowledgment - System;
20/08/15;08:46:54;WCCRT:SCADASERVER01:Connection PLC_FG05_PLC_FG06 disconnected;ON;
20/08/15;08:46:54;WCCRT:SCADASERVER01:Connection  modified;ON;
20/08/15;08:46:54;WCCRT:SCADASERVER01:Connection PLC_FG05_PLC_FG06 connected;ON;
20/08/15;08:47:03;WCCRT::Connection  disconnected;ACK;
20/08/15;08:48:54;FT-103: FLOWMETING INLAAT VRU BUITEN DIENST;ON;
20/08/15;08:49:30;FT-103: FLOWMETING INLAAT VRU BUITEN DIENST;OFF;
20/08/15;08:50:13;ORDER DATA LP7A ANT_T0150_24 CONTROLE OK;ON;
20/08/15;08:50:17;WCCRT:SCADASERVER02:Connection SCADACLIENT002 disconnected;ON;
20/08/15;08:50:17;WCCRT:SCADASERVER01:Connection SCADACLIENT002 disconnected;ON;
20/08/15;08:50:24;WCCRT::Connection  disconnected;ACK;
20/08/15;08:50:25;ORDER DATA LP7A ANT_T0150_24 CONTROLE OK;OFF;
20/08/15;08:50:25;WCCRT::Connection  disconnected;ACK;
20/08/15;08:56:19;ORDER DATA LP7B ANT_T0125_02 CONTROLE OK;ON;
20/08/15;08:56:31;ORDER DATA LP7B ANT_T0125_02 CONTROLE OK;OFF;
20/08/15;08:57:01;ORDER DATA LP4A ANT_T0075_11 CONTROLE OK;ON;
20/08/15;08:57:04;ORDER DATA LP4A ANT_T0075_11 CONTROLE OK;OFF;
20/08/15;08:58:23;T2000-02-EL1: LEVEL ENTIS TANK 2000-02 MEETFOUT;ON;
20/08/15;08:58:23;T2000-02-EQ1: FLOW ENTIS TANK 2000-02 MEETFOUT;ON;
20/08/15;08:58:23;T2000-02-EM1: MASSA ENTIS TANK 2000-02 MEETFOUT;ON;
20/08/15;08:58:23;T2000-02-DISPL-POS: DISPLACER POSITIE TANK 2000-02 MEETFOUT;ON;
20/08/15;08:58:42;T2000-02-DISPL-POS: DISPLACER POSITIE TANK 2000-02 MEETFOUT;ACK;
20/08/15;08:58:43;T2000-02-EM1: MASSA ENTIS TANK 2000-02 MEETFOUT;ACK;
20/08/15;08:58:44;T2000-02-EQ1: FLOW ENTIS TANK 2000-02 MEETFOUT;ACK;
20/08/15;08:58:45;T2000-02-EL1: LEVEL ENTIS TANK 2000-02 MEETFOUT;ACK;
20/08/15;08:59:06;T75-8-EL1: LEVEL ENTIS TANK 75-8 LAAG ALARM;OFF;
20/08/15;08:59:16;T75-8-EL1: LEVEL ENTIS TANK 75-8 LAAG ALARM;ON;
20/08/15;08:59:26;T75-8-EL1: LEVEL ENTIS TANK 75-8 LAAG ALARM;ACK;
20/08/15;09:00:26;T75-8-EL1: LEVEL ENTIS TANK 75-8 LAAG ALARM;OFF;
20/08/15;09:01:14;T75-8-EL1: LEVEL ENTIS TANK 75-8 LAAG ALARM;ON;
20/08/15;09:01:35;T75-8-EL1: LEVEL ENTIS TANK 75-8 LAAG ALARM;ACK;
20/08/15;09:01:40;T75-8-EL1: LEVEL ENTIS TANK 75-8 LAAG ALARM;OFF;
20/08/15;09:02:37;ORDER DATA LP2B ANT_T0200_08 CONTROLE OK;ON;
20/08/15;09:02:41;ORDER DATA LP2B ANT_T0200_08 CONTROLE OK;OFF;
20/08/15;09:06:10;DELTALOADER:SCADASERVER02:Delta loading was started;ON;
20/08/15;09:06:22;DELTALOADER:SCADASERVER02:Delta loading ended;ON;
20/08/15;09:06:26;DELTALOADER:SCADASERVER01:Delta loading was started;ON;
20/08/15;09:06:29;DELTALOADER:SCADASERVER01:Delta loading ended;ON;
20/08/15;09:11:08;ORDER DATA LP1B ANT_T0200_17 CONTROLE OK;ON;
20/08/15;09:11:13;ORDER DATA LP1B ANT_T0200_17 CONTROLE OK;OFF;
20/08/15;09:19:21;ORDER DATA LP8A ANT_T0100_21 CONTROLE OK;ON;
20/08/15;09:19:25;ORDER DATA LP8A ANT_T0100_21 CONTROLE OK;OFF;
20/08/15;09:25:31;CT-P307-002-AL-H: CONDUCTIVITEITS TRANSMITTER 002 HOOG ALARM;OFF;
20/08/15;09:39:17;ORDER DATA LP9A ANT_T0075_12 CONTROLE NOK;ON;
20/08/15;09:40:35;ORDER DATA LP9A ANT_T0075_12 CONTROLE NOK;OFF;
20/08/15;09:41:31;ORDER DATA LP9A ANT_T0075_13 CONTROLE NOK;ON;
20/08/15;09:41:57;ORDER DATA LP9A ANT_T0075_13 CONTROLE NOK;OFF;
20/08/15;09:42:08;SYNC::SCADACLIENT002:LAN-Sync: time synchronization set to PC scadaserver02;ON;
20/08/15;09:42:09;WCCRT:SCADASERVER02:Connection SCADACLIENT002 connected;ON;
20/08/15;09:42:10;WCCRT:SCADASERVER01:Connection SCADACLIENT002 connected;ON;
20/08/15;09:43:51;ORDER DATA LP9A ANT_T0075_12 CONTROLE NOK;ON;
20/08/15;09:43:59;ORDER DATA LP9A ANT_T0075_12 CONTROLE NOK;OFF;
20/08/15;09:44:49;ORDER DATA LP9A ANT_T0075_12 CONTROLE OK;ON;
20/08/15;09:44:53;ORDER DATA LP9A ANT_T0075_12 CONTROLE OK;OFF;
20/08/15;09:50:24;HV-LA32-006: HANDAFSLUITER ISOBUTANE UNHYDROGENATED NAAR LAADARM LA32 IN ALARM;ON;
20/08/15;09:50:49;HV-LA32-006: HANDAFSLUITER ISOBUTANE UNHYDROGENATED NAAR LAADARM LA32 IN ALARM;ACK;
20/08/15;09:50:50;HV-LA32-006: HANDAFSLUITER ISOBUTANE UNHYDROGENATED NAAR LAADARM LA32 IN ALARM;OFF;
20/08/15;09:54:33;ORDER DATA LP2B ANT_T0150_17 CONTROLE OK;ON;
20/08/15;09:54:45;ORDER DATA LP2B ANT_T0150_17 CONTROLE OK;OFF;
20/08/15;10:02:20;ORDER DATA LP1B ANT_T0200_17 CONTROLE OK;ON;
20/08/15;10:02:24;ORDER DATA LP1B ANT_T0200_17 CONTROLE OK;OFF;
20/08/15;10:07:11;PT-102: DRUKMETING INLAAT VRU HOOG HOOG ALARM;ON;
20/08/15;10:07:18;VERZAMELALARM UNIT B IN ALARM;ON;
20/08/15;10:07:29;VERZAMELALARM UNIT B IN ALARM;ACK;
20/08/15;10:07:36;PT-102: DRUKMETING INLAAT VRU HOOG HOOG ALARM;ACK;
20/08/15;10:09:19;VERZAMELALARM UNIT B IN ALARM;OFF;
20/08/15;10:13:30;VERZAMELALARM UNIT B IN ALARM;ON;
20/08/15;10:13:50;VERZAMELALARM UNIT B IN ALARM;ACK;
20/08/15;10:14:54;VERZAMELALARM UNIT B IN ALARM;OFF;
20/08/15;10:15:13;ORDER DATA LP3B ANT_T0150_01 CONTROLE OK;ON;
20/08/15;10:15:15;ORDER DATA LP3B ANT_T0150_01 CONTROLE OK;OFF;
20/08/15;10:15:57;ORDER DATA LP3B ANT_T0150_01 CONTROLE OK;ON;
20/08/15;10:15:59;ORDER DATA LP9A ANT_T0075_12 CONTROLE OK;ON;
20/08/15;10:16:01;ORDER DATA LP3B ANT_T0150_01 HANDBEDIENING;OFF;
20/08/15;10:16:01;ORDER DATA LP3B ANT_T0150_01 CONTROLE OK;OFF;
20/08/15;10:16:03;ORDER DATA LP3B ANT_T0150_01 HANDBEDIENING;ON;
20/08/15;10:16:05;ORDER DATA LP9A ANT_T0075_12 CONTROLE OK;OFF;
20/08/15;10:18:12;PT-102: DRUKMETING INLAAT VRU HOOG HOOG ALARM;OFF;
20/08/15;10:26:03;ORDER DATA LP5A ANT_T0300_03 CONTROLE OK;ON;
20/08/15;10:26:07;ORDER DATA LP5A ANT_T0300_03 CONTROLE OK;OFF;
20/08/15;10:39:23;ORDER DATA LP7A ANT_T0150_24 CONTROLE OK;ON;
20/08/15;10:39:35;ORDER DATA LP7A ANT_T0150_24 CONTROLE OK;OFF;
20/08/15;10:42:45;ORDER DATA LP3A ANT_T0150_06 CONTROLE OK;ON;
20/08/15;10:42:49;ORDER DATA LP3A ANT_T0150_06 CONTROLE OK;OFF;
20/08/15;10:44:32;FT-300-3-001-AL-VAR: TOTALIZER PRODUCT VRACHTWAGENBELADING LP5A VARIATIE IN ALARM;ON;
20/08/15;10:44:53;FT-300-3-001-AL-VAR: TOTALIZER PRODUCT VRACHTWAGENBELADING LP5A VARIATIE IN ALARM;ACK;
20/08/15;10:44:54;FT-300-3-001-AL-VAR: TOTALIZER PRODUCT VRACHTWAGENBELADING LP5A VARIATIE IN ALARM;OFF;
20/08/15;10:51:21;ORDER DATA LP1B ANT_T0200_17 CONTROLE OK;ON;
20/08/15;10:51:30;ORDER DATA LP1B ANT_T0200_17 CONTROLE OK;OFF;
20/08/15;10:52:19;ORDER DATA LP2A ANT_T0100_08 CONTROLE OK;ON;
20/08/15;10:52:23;ORDER DATA LP2A ANT_T0100_08 CONTROLE OK;OFF;
20/08/15;10:59:00;HV-2450-1/2-DR-JET: HANDAFSLUITER DRAIN JET TANK 2450-1/2 IN SIMULATIE;OFF;
20/08/15;11:05:27;XS-ND-ZST2-001: NOOD- EN OGENDOUCHE ACTIEF ZST2 IN ALARM;ON;
20/08/15;11:05:27;ST-P450-001: REMOTE START SIGNAAL REGENWATER TP20 IN SIMULATIE;ON;
20/08/15;11:05:34;XS-ND-ZST2-001: NOOD- EN OGENDOUCHE ACTIEF ZST2 IN ALARM;ACK;
20/08/15;11:05:56;XS-ND-ZST2-001: NOOD- EN OGENDOUCHE ACTIEF ZST2 IN ALARM;OFF;
20/08/15;11:06:20;ST-P450-001: REMOTE START SIGNAAL REGENWATER TP20 IN SIMULATIE;OFF;
20/08/15;11:07:39;ST-P450-001: REMOTE START SIGNAAL REGENWATER TP20 IN SIMULATIE;ON;
20/08/15;11:11:27;ORDER DATA LP1B ANT_T0200_17 CONTROLE OK;ON;
20/08/15;11:11:35;ORDER DATA LP1B ANT_T0200_17 CONTROLE OK;OFF;
20/08/15;11:12:17;ORDER DATA LP2A ANT_T0100_11 CONTROLE OK;ON;
20/08/15;11:13:37;WCCRT:SCADASERVER01:Connection SCADACLIENT002 disconnected;ON;
20/08/15;11:13:37;WCCRT:SCADASERVER02:Connection SCADACLIENT002 disconnected;ON;
20/08/15;11:13:43;WCCRT::Connection  disconnected;ACK;
20/08/15;11:13:46;WCCRT::Connection  disconnected;ACK;
20/08/15;11:14:17;ORDER DATA LP2A ANT_T0100_11 TIME-OUT BEVESTIGING OPERATOR;ON;
20/08/15;11:15:09;SYNC::SCADACLIENT002:LAN-Sync: time synchronization set to PC scadaserver02;ON;
20/08/15;11:15:18;WCCRT:SCADASERVER01:Connection SCADACLIENT002 connected;ON;
20/08/15;11:15:18;WCCRT:SCADASERVER02:Connection SCADACLIENT002 connected;ON;
20/08/15;11:17:40;WCCRT:SCADASERVER02:Connection SCADACLIENT002 disconnected;ON;
20/08/15;11:17:40;WCCRT:SCADASERVER01:Connection SCADACLIENT002 disconnected;ON;
20/08/15;11:17:42;WCCRT::Connection  disconnected;ACK;
20/08/15;11:17:44;WCCRT::Connection  disconnected;ACK;
20/08/15;11:21:41;SYNC::SCADACLIENT002:LAN-Sync: time synchronization set to PC scadaserver02;ON;
20/08/15;11:21:41;WCCRT:SCADASERVER02:Connection SCADACLIENT002 connected;ON;
20/08/15;11:21:41;WCCRT:SCADASERVER01:Connection SCADACLIENT002 connected;ON;
20/08/15;11:24:01;PT-103: VERSCHILDRUK UNIT B HOOG ALARM;ON;
20/08/15;11:24:18;PT-103: VERSCHILDRUK UNIT B HOOG ALARM;ACK;
20/08/15;11:24:47;WCCRT:SCADASERVER02:Connection SCADACLIENT002 disconnected;ON;
20/08/15;11:24:47;WCCRT:SCADASERVER01:Connection SCADACLIENT002 disconnected;ON;
20/08/15;11:24:48;WCCRT::Connection  disconnected;ACK;
20/08/15;11:24:50;WCCRT::Connection  disconnected;ACK;
20/08/15;11:25:26;SYNC::SCADACLIENT002:LAN-Sync: time synchronization set to PC scadaserver02;ON;
20/08/15;11:25:28;WCCRT:SCADASERVER02:Connection SCADACLIENT002 connected;ON;
20/08/15;11:25:28;WCCRT:SCADASERVER01:Connection SCADACLIENT002 connected;ON;
20/08/15;11:26:21;FOUT-RAP-FT-350-07-001: FOUT LOGGING VERLADING FT-350-07-001;ON;
20/08/15;11:26:24;ORDER DATA LP4A ANT_T0050_04 CONTROLE OK;ON;
20/08/15;11:26:39;ORDER DATA LP4A ANT_T0050_04 CONTROLE OK;OFF;
20/08/15;11:26:43;FOUT-RAP-FT-350-07-001: FOUT LOGGING VERLADING FT-350-07-001;ACK;
20/08/15;11:26:44;FOUT-RAP-FT-350-07-001: FOUT LOGGING VERLADING FT-350-07-001;OFF;
20/08/15;11:27:09;ORDER DATA LP7A ANT_T0100_17 CONTROLE OK;ON;
20/08/15;11:27:15;ORDER DATA LP7A ANT_T0100_17 CONTROLE OK;OFF;
20/08/15;11:38:48;ST-P450-001: REMOTE START SIGNAAL REGENWATER TP20 IN SIMULATIE;OFF;
20/08/15;11:40:16;ORDER DATA LP3A ANT_T0200_04 CONTROLE OK;ON;
20/08/15;11:40:20;ORDER DATA LP3A ANT_T0200_04 HANDBEDIENING;OFF;
20/08/15;11:40:20;ORDER DATA LP3A ANT_T0200_04 CONTROLE OK;OFF;
20/08/15;11:40:22;ORDER DATA LP3A ANT_T0200_04 HANDBEDIENING;ON;
20/08/15;11:40:48;PT-103: VERSCHILDRUK UNIT B HOOG ALARM;OFF;
20/08/15;11:41:50;ORDER DATA LP1B ANT_T0300_06 CONTROLE OK;ON;
20/08/15;11:41:56;ORDER DATA LP1B ANT_T0300_06 CONTROLE OK;OFF;
20/08/15;11:53:58;ORDER DATA LP3A ANT_T0150_06 CONTROLE OK;ON;
20/08/15;11:54:02;ORDER DATA LP3A ANT_T0150_06 CONTROLE OK;OFF;
20/08/15;11:55:15;ORDER DATA LP2B ANT_T0150_19 CONTROLE OK;ON;
20/08/15;11:55:35;ORDER DATA LP2B ANT_T0150_19 CONTROLE OK;OFF;
20/08/15;11:57:48;PT-103: VERSCHILDRUK UNIT B HOOG ALARM;ON;
20/08/15;11:57:56;PT-103: VERSCHILDRUK UNIT B HOOG ALARM;ACK;
20/08/15;12:05:54;PT-150-11-002: DRUKMETING TANK 150-11 HOOG ALARM;ON;
20/08/15;12:06:04;PT-150-11-002: DRUKMETING TANK 150-11 HOOG ALARM;ACK;
20/08/15;12:12:05;ORDER DATA LP7B ANT_T0125_02 CONTROLE OK;ON;
20/08/15;12:12:31;ORDER DATA LP7B ANT_T0125_02 CONTROLE OK;OFF;
20/08/15;12:16:43;PCE500: INSTRUMENT LUCHTDRUK LAAG;ON;
20/08/15;12:17:03;PCE500: INSTRUMENT LUCHTDRUK LAAG;ACK;
20/08/15;12:17:06;LSH-L114-001: OVERVULBEVEILIGING VRACHTWAGENBELADING L114;ON;
20/08/15;12:17:08;T4300-10: METHANOL TANK  FUNCTIE OP L114 GESTOPT DOOR STOPCONDITIE;ON;
20/08/15;12:17:13;T4300-10: METHANOL TANK  FUNCTIE OP L114 GESTOPT DOOR STOPCONDITIE;ACK;
20/08/15;12:17:19;LSH-L114-001: OVERVULBEVEILIGING VRACHTWAGENBELADING L114;ACK;
20/08/15;12:17:21;LSH-L114-001: OVERVULBEVEILIGING VRACHTWAGENBELADING L114;OFF;
20/08/15;12:17:22;T4300-10: METHANOL TANK  FUNCTIE OP L114 GESTOPT DOOR STOPCONDITIE;OFF;
20/08/15;12:17:43;ORDER DATA LP2B ANT_T0150_17 CONTROLE OK;ON;
20/08/15;12:17:51;ORDER DATA LP2B ANT_T0150_17 CONTROLE OK;OFF;
20/08/15;12:17:59;VERZAMELALARM UNIT A IN ALARM;ON;
20/08/15;12:18:28;VERZAMELALARM UNIT A IN ALARM;ACK;
20/08/15;12:20:10;VERZAMELALARM UNIT B IN ALARM;ON;
20/08/15;12:20:19;VERZAMELALARM UNIT B IN ALARM;ACK;
20/08/15;12:32:17;ORDER DATA LP3B ANT_T0150_01 CONTROLE OK;ON;
20/08/15;12:32:18;PIT-3100-1-010: DRUKMETING DAMP NAAR VRU SABIC TANK 3100-1 HOOG ALARM;ON;
20/08/15;12:32:18;PIT-3100-1-010: DRUKMETING DAMP NAAR VRU SABIC TANK 3100-1 HOOG HOOG ALARM;ON;
20/08/15;12:32:28;ORDER DATA LP3B ANT_T0150_01 CONTROLE OK;OFF;
20/08/15;12:32:30;PIT-3100-1-010: DRUKMETING DAMP NAAR VRU SABIC TANK 3100-1 HOOG HOOG ALARM;ACK;
20/08/15;12:32:32;PIT-3100-1-010: DRUKMETING DAMP NAAR VRU SABIC TANK 3100-1 HOOG ALARM;ACK;
20/08/15;12:32:36;PIT-3100-1-010: DRUKMETING DAMP NAAR VRU SABIC TANK 3100-1 HOOG ALARM;OFF;
20/08/15;12:32:36;PIT-3100-1-010: DRUKMETING DAMP NAAR VRU SABIC TANK 3100-1 HOOG HOOG ALARM;OFF;
20/08/15;12:32:38;PIT-3100-1-010: DRUKMETING DAMP NAAR VRU SABIC TANK 3100-1 HOOG ALARM;ON;
20/08/15;12:32:40;PIT-3100-1-010: DRUKMETING DAMP NAAR VRU SABIC TANK 3100-1 HOOG HOOG ALARM;ON;
20/08/15;12:32:42;PIT-3100-1-010: DRUKMETING DAMP NAAR VRU SABIC TANK 3100-1 HOOG HOOG ALARM;ACK;
20/08/15;12:32:44;PIT-3100-1-010: DRUKMETING DAMP NAAR VRU SABIC TANK 3100-1 HOOG ALARM;ACK;
20/08/15;12:32:45;PIT-3100-1-010: DRUKMETING DAMP NAAR VRU SABIC TANK 3100-1 HOOG ALARM;OFF;
20/08/15;12:32:45;PIT-3100-1-010: DRUKMETING DAMP NAAR VRU SABIC TANK 3100-1 HOOG HOOG ALARM;OFF;
20/08/15;12:32:50;PIT-3100-1-010: DRUKMETING DAMP NAAR VRU SABIC TANK 3100-1 HOOG ALARM;ON;
20/08/15;12:32:50;PIT-3100-1-010: DRUKMETING DAMP NAAR VRU SABIC TANK 3100-1 HOOG HOOG ALARM;ON;
20/08/15;12:33:21;PIT-3100-1-010: DRUKMETING DAMP NAAR VRU SABIC TANK 3100-1 HOOG HOOG ALARM;ACK;
20/08/15;12:33:22;PIT-3100-1-010: DRUKMETING DAMP NAAR VRU SABIC TANK 3100-1 HOOG ALARM;ACK;
20/08/15;12:33:24;PIT-3100-1-010: DRUKMETING DAMP NAAR VRU SABIC TANK 3100-1 HOOG ALARM;OFF;
20/08/15;12:33:24;PIT-3100-1-010: DRUKMETING DAMP NAAR VRU SABIC TANK 3100-1 HOOG HOOG ALARM;OFF;
20/08/15;12:33:31;PIT-3100-1-010: DRUKMETING DAMP NAAR VRU SABIC TANK 3100-1 HOOG ALARM;ON;
20/08/15;12:33:35;PIT-3100-1-010: DRUKMETING DAMP NAAR VRU SABIC TANK 3100-1 HOOG HOOG ALARM;ON;
20/08/15;12:33:39;PIT-3100-1-010: DRUKMETING DAMP NAAR VRU SABIC TANK 3100-1 HOOG HOOG ALARM;ACK;
20/08/15;12:33:43;PIT-3100-1-010: DRUKMETING DAMP NAAR VRU SABIC TANK 3100-1 HOOG ALARM;ACK;
20/08/15;12:33:44;PIT-3100-1-010: DRUKMETING DAMP NAAR VRU SABIC TANK 3100-1 HOOG ALARM;OFF;
20/08/15;12:33:44;PIT-3100-1-010: DRUKMETING DAMP NAAR VRU SABIC TANK 3100-1 HOOG HOOG ALARM;OFF;
20/08/15;12:34:06;PIT-3100-1-010: DRUKMETING DAMP NAAR VRU SABIC TANK 3100-1 HOOG ALARM;ON;
20/08/15;12:34:12;PIT-3100-1-010: DRUKMETING DAMP NAAR VRU SABIC TANK 3100-1 HOOG ALARM;ACK;
20/08/15;12:39:23;PIT-3100-1-010: DRUKMETING DAMP NAAR VRU SABIC TANK 3100-1 HOOG ALARM;OFF;
20/08/15;12:44:37;XV-VPU-621A-002-010: AFSLUITER INLAAT KNOCK OUT DRUM 2 VPU003 COMMENTAAR AAN;OFF;
20/08/15;12:44:39;XV-VPU-621A-002-010: AFSLUITER INLAAT KNOCK OUT DRUM 2 VPU003 IN HAND;OFF;
20/08/15;12:49:29;VPU003 : ZSL50007: NIET GESLOTEN;ON;
20/08/15;12:49:29;VPU003 : ZSL50008: NIET GESLOTEN;ON;
20/08/15;12:49:29;VPU003 : FISL20006B-PLS:  LAAG DEBIET FLARE GAS;ON;
20/08/15;12:49:29;VPU003 : BRANDER FOUT 12 : EXTERNE FOUT VEILIGHEIDS TRIPS;ON;
20/08/15;12:49:48;VPU003 : BRANDER FOUT 12 : EXTERNE FOUT VEILIGHEIDS TRIPS;ACK;
20/08/15;12:49:53;VPU003 : FISL20006B-PLS:  LAAG DEBIET FLARE GAS;ACK;
20/08/15;12:49:57;VPU003 : ZSL50008: NIET GESLOTEN;ACK;
20/08/15;12:50:00;VPU003 : ZSL50007: NIET GESLOTEN;ACK;
20/08/15;12:51:56;DELTALOADER:SCADASERVER02:Delta loading was started;ON;
20/08/15;12:52:10;DELTALOADER:SCADASERVER02:Delta loading ended;ON;
20/08/15;12:52:11;DELTALOADER:SCADASERVER01:Delta loading was started;ON;
20/08/15;12:52:15;DELTALOADER:SCADASERVER01:Delta loading ended;ON;
20/08/15;12:52:23;PSH-MFO400-WTR-GRD: HOGE DRUK WATERGORDIJN 1 = IN ALARM;ON;
20/08/15;12:54:02;XV-VRU001-004: AFSLUITER BYPASS HOOFD CONDENSORS 1 = AFSLUITER OPENEN IN HAND;ON;
20/08/15;12:54:02;XV-VRU001-008: AFSLUITER BYPASS NAVERBRANDER (MFO400) 1 = AFSLUITER OPENEN IN HAND;ON;
20/08/15;12:54:02;XV-VRU001-006: AFSLUITER UITLAAT HOOFD CONDENSORS 1 = AFSLUITER OPENEN IN HAND;ON;
20/08/15;12:54:02;GT-MFO400-001: GASDETECTIE MFO400 MEETFOUT;ON;
20/08/15;12:54:02;GT-MFO400-002: GASDETECTIE MFO400 MEETFOUT;ON;
20/08/15;12:54:02;GT-MFO400-003: GASDETECTIE MFO400 MEETFOUT;ON;
20/08/15;12:54:02;PIT-VRU001-001: DRUKMETING INGANG MFO400 COMMENTAAR AAN;ON;
20/08/15;12:54:02;PIT-VRU001-001: DRUKMETING INGANG MFO400 BUITEN DIENST;ON;
20/08/15;12:54:19;GT-MFO400-003: GASDETECTIE MFO400 MEETFOUT;ACK;
20/08/15;12:54:20;GT-MFO400-002: GASDETECTIE MFO400 MEETFOUT;ACK;
20/08/15;12:54:23;GT-MFO400-001: GASDETECTIE MFO400 MEETFOUT;ACK;
20/08/15;12:54:29;PSH-MFO400-WTR-GRD: HOGE DRUK WATERGORDIJN 1 = IN ALARM;ACK;
20/08/15;12:59:43;PT-103: VERSCHILDRUK UNIT B HOOG ALARM;OFF;
20/08/15;13:00:20;XV-VRU001-006: AFSLUITER UITLAAT HOOFD CONDENSORS 1 = AFSLUITER OPENEN IN HAND;OFF;
20/08/15;13:00:22;XV-VRU001-004: AFSLUITER BYPASS HOOFD CONDENSORS 1 = AFSLUITER OPENEN IN HAND;OFF;
20/08/15;13:00:25;XV-VRU001-008: AFSLUITER BYPASS NAVERBRANDER (MFO400) 1 = AFSLUITER OPENEN IN HAND;OFF;
20/08/15;13:04:17;ORDER DATA LP2A ANT_T0100_11 CONTROLE OK;OFF;
20/08/15;13:04:17;ORDER DATA LP2A ANT_T0100_11 TIME-OUT BEVESTIGING OPERATOR;OFF;
20/08/15;13:05:33;ORDER DATA LP2A ANT_T0100_09 CONTROLE OK;ON;
20/08/15;13:05:54;ORDER DATA LP4A ANT_T0050_04 CONTROLE OK;ON;
20/08/15;13:06:03;ORDER DATA LP2A ANT_T0100_09 CONTROLE OK;OFF;
20/08/15;13:07:53;ORDER DATA LP4A ANT_T0050_04 TIME-OUT BEVESTIGING OPERATOR;ON;
20/08/15;13:09:01;ORDER DATA LP1B ANT_T0250_03 CONTROLE OK;ON;
20/08/15;13:09:38;ORDER DATA LP5A ANT_T0300_03 CONTROLE OK;ON;
20/08/15;13:09:40;ORDER DATA LP5A ANT_T0300_03 CONTROLE OK;OFF;
20/08/15;13:09:56;ORDER DATA LP1B ANT_T0250_03 CONTROLE OK;OFF;
20/08/15;13:14:48;LSH-TP20-001: NIVEAUSCHAKELAAR LSH REGENWATER TP20 IN ALARM;ON;
20/08/15;13:14:55;LSH-TP20-001: NIVEAUSCHAKELAAR LSH REGENWATER TP20 IN ALARM;ACK;
20/08/15;13:17:57;VPU003 : ZSL50008: NIET GESLOTEN;OFF;
20/08/15;13:17:57;VPU003 : BRANDER FOUT 12 : EXTERNE FOUT VEILIGHEIDS TRIPS;OFF;
20/08/15;13:17:58;VPU003 : ZSL50007: NIET GESLOTEN;OFF;
20/08/15;13:17:58;VPU003 : FISL20006B-PLS:  LAAG DEBIET FLARE GAS;OFF;
20/08/15;13:21:49;VPU003 : ZSL50007: NIET GESLOTEN;ON;
20/08/15;13:21:49;VPU003 : ZSL50008: NIET GESLOTEN;ON;
20/08/15;13:21:49;VPU003 : FISL20006B-PLS:  LAAG DEBIET FLARE GAS;ON;
20/08/15;13:21:49;VPU003 : BRANDER FOUT 12 : EXTERNE FOUT VEILIGHEIDS TRIPS;ON;
20/08/15;13:22:14;VPU003 : BRANDER FOUT 12 : EXTERNE FOUT VEILIGHEIDS TRIPS;ACK;
20/08/15;13:22:20;VPU003 : FISL20006B-PLS:  LAAG DEBIET FLARE GAS;ACK;
20/08/15;13:22:21;VPU003 : ZSL50008: NIET GESLOTEN;ACK;
20/08/15;13:22:23;VPU003 : ZSL50007: NIET GESLOTEN;ACK;
20/08/15;13:22:26;VPU003 : ZSL50007: NIET GESLOTEN;OFF;
20/08/15;13:22:26;VPU003 : ZSL50008: NIET GESLOTEN;OFF;
20/08/15;13:22:26;VPU003 : FISL20006B-PLS:  LAAG DEBIET FLARE GAS;OFF;
20/08/15;13:22:26;VPU003 : BRANDER FOUT 12 : EXTERNE FOUT VEILIGHEIDS TRIPS;OFF;
20/08/15;13:24:11;VERZAMELALARM UNIT A IN ALARM;OFF;
20/08/15;13:24:13;VERZAMELALARM UNIT B IN ALARM;OFF;
20/08/15;13:24:47;PCE500: INSTRUMENT LUCHTDRUK LAAG;OFF;
20/08/15;13:26:37;FT-103: FLOWMETING INLAAT VRU HOOG HOOG ALARM;ON;
20/08/15;13:26:37;FT-103: FLOWMETING INLAAT VRU HOOG ALARM;ON;
20/08/15;13:26:46;PIT-3100-1-010: DRUKMETING DAMP NAAR VRU SABIC TANK 3100-1 HOOG ALARM;ON;
20/08/15;13:26:46;PIT-3100-1-010: DRUKMETING DAMP NAAR VRU SABIC TANK 3100-1 HOOG HOOG ALARM;ON;
20/08/15;13:26:50;PIT-3100-1-010: DRUKMETING DAMP NAAR VRU SABIC TANK 3100-1 HOOG HOOG ALARM;ACK;
20/08/15;13:26:52;PIT-3100-1-010: DRUKMETING DAMP NAAR VRU SABIC TANK 3100-1 HOOG ALARM;ACK;
20/08/15;13:26:52;ORDER DATA LP3A ANT_T0050_07 CONTROLE OK;ON;
20/08/15;13:26:54;FT-103: FLOWMETING INLAAT VRU HOOG ALARM;ACK;
20/08/15;13:26:55;PIT-3100-1-010: DRUKMETING DAMP NAAR VRU SABIC TANK 3100-1 HOOG ALARM;OFF;
20/08/15;13:26:55;PIT-3100-1-010: DRUKMETING DAMP NAAR VRU SABIC TANK 3100-1 HOOG HOOG ALARM;OFF;
20/08/15;13:26:56;FT-103: FLOWMETING INLAAT VRU HOOG HOOG ALARM;ACK;
20/08/15;13:26:56;ORDER DATA LP3A ANT_T0050_07 CONTROLE OK;OFF;
20/08/15;13:27:02;PIT-3100-1-010: DRUKMETING DAMP NAAR VRU SABIC TANK 3100-1 HOOG ALARM;ON;
20/08/15;13:27:04;PIT-3100-1-010: DRUKMETING DAMP NAAR VRU SABIC TANK 3100-1 HOOG HOOG ALARM;ON;
20/08/15;13:27:13;PIT-3100-1-010: DRUKMETING DAMP NAAR VRU SABIC TANK 3100-1 HOOG HOOG ALARM;ACK;
20/08/15;13:27:15;PIT-3100-1-010: DRUKMETING DAMP NAAR VRU SABIC TANK 3100-1 HOOG ALARM;ACK;
20/08/15;13:27:17;PIT-3100-1-010: DRUKMETING DAMP NAAR VRU SABIC TANK 3100-1 HOOG ALARM;OFF;
20/08/15;13:27:17;PIT-3100-1-010: DRUKMETING DAMP NAAR VRU SABIC TANK 3100-1 HOOG HOOG ALARM;OFF;
20/08/15;13:27:24;PIT-3100-1-010: DRUKMETING DAMP NAAR VRU SABIC TANK 3100-1 HOOG ALARM;ON;
20/08/15;13:27:27;PIT-3100-1-010: DRUKMETING DAMP NAAR VRU SABIC TANK 3100-1 HOOG HOOG ALARM;ON;
20/08/15;13:27:27;FT-103: FLOWMETING INLAAT VRU HOOG HOOG ALARM;OFF;
20/08/15;13:27:29;FT-103: FLOWMETING INLAAT VRU HOOG ALARM;OFF;
20/08/15;13:27:42;PIT-3100-1-010: DRUKMETING DAMP NAAR VRU SABIC TANK 3100-1 HOOG HOOG ALARM;ACK;
20/08/15;13:27:43;PIT-3100-1-010: DRUKMETING DAMP NAAR VRU SABIC TANK 3100-1 HOOG ALARM;ACK;
20/08/15;13:27:48;PIT-3100-1-010: DRUKMETING DAMP NAAR VRU SABIC TANK 3100-1 HOOG ALARM;OFF;
20/08/15;13:27:48;PIT-3100-1-010: DRUKMETING DAMP NAAR VRU SABIC TANK 3100-1 HOOG HOOG ALARM;OFF;
20/08/15;13:27:52;PIT-3100-1-010: DRUKMETING DAMP NAAR VRU SABIC TANK 3100-1 HOOG ALARM;ON;
20/08/15;13:28:04;PIT-3100-1-010: DRUKMETING DAMP NAAR VRU SABIC TANK 3100-1 HOOG HOOG ALARM;ON;
20/08/15;13:28:21;PIT-3100-1-010: DRUKMETING DAMP NAAR VRU SABIC TANK 3100-1 HOOG HOOG ALARM;ACK;
20/08/15;13:28:24;PIT-3100-1-010: DRUKMETING DAMP NAAR VRU SABIC TANK 3100-1 HOOG ALARM;ACK;
20/08/15;13:28:24;PIT-3100-1-010: DRUKMETING DAMP NAAR VRU SABIC TANK 3100-1 HOOG ALARM;OFF;
20/08/15;13:28:24;PIT-3100-1-010: DRUKMETING DAMP NAAR VRU SABIC TANK 3100-1 HOOG HOOG ALARM;OFF;
20/08/15;13:28:27;PIT-3100-1-010: DRUKMETING DAMP NAAR VRU SABIC TANK 3100-1 HOOG ALARM;ON;
20/08/15;13:28:27;PIT-3100-1-010: DRUKMETING DAMP NAAR VRU SABIC TANK 3100-1 HOOG HOOG ALARM;ON;
20/08/15;13:28:29;XV-VRU001-008: AFSLUITER BYPASS NAVERBRANDER (MFO400) 1 = AFSLUITER OPENEN IN HAND;ON;
20/08/15;13:28:29;PIT-3100-1-010: DRUKMETING DAMP NAAR VRU SABIC TANK 3100-1 HOOG ALARM;OFF;
20/08/15;13:28:29;PIT-3100-1-010: DRUKMETING DAMP NAAR VRU SABIC TANK 3100-1 HOOG HOOG ALARM;OFF;
20/08/15;13:28:34;PIT-3100-1-010: DRUKMETING DAMP NAAR VRU SABIC TANK 3100-1 HOOG HOOG ALARM;ACK;
20/08/15;13:28:35;PIT-3100-1-010: DRUKMETING DAMP NAAR VRU SABIC TANK 3100-1 HOOG ALARM;ACK;
20/08/15;13:28:50;PIT-3100-1-010: DRUKMETING DAMP NAAR VRU SABIC TANK 3100-1 HOOG ALARM;ON;
20/08/15;13:28:50;PIT-3100-1-010: DRUKMETING DAMP NAAR VRU SABIC TANK 3100-1 HOOG HOOG ALARM;ON;
20/08/15;13:28:58;PIT-3100-1-010: DRUKMETING DAMP NAAR VRU SABIC TANK 3100-1 HOOG HOOG ALARM;ACK;
20/08/15;13:28:59;PIT-3100-1-010: DRUKMETING DAMP NAAR VRU SABIC TANK 3100-1 HOOG ALARM;ACK;
20/08/15;13:29:01;PIT-3100-1-010: DRUKMETING DAMP NAAR VRU SABIC TANK 3100-1 HOOG ALARM;OFF;
20/08/15;13:29:01;PIT-3100-1-010: DRUKMETING DAMP NAAR VRU SABIC TANK 3100-1 HOOG HOOG ALARM;OFF;
20/08/15;13:29:03;ORDER DATA LP2A ANT_T0100_11 CONTROLE OK;ON;
20/08/15;13:29:07;ORDER DATA LP2A ANT_T0100_11 CONTROLE OK;OFF;
20/08/15;13:29:19;ORDER DATA LP2B ANT_T0150_15 CONTROLE OK;ON;
20/08/15;13:29:27;ORDER DATA LP2B ANT_T0150_15 CONTROLE OK;OFF;
20/08/15;13:32:30;Z-ND-PUT10-01: NOOD EN OOG DOUCHE TP10 LOCATIE ZUID BETREDINGSALARM IN ALARM;ON;
20/08/15;13:32:36;Z-ND-PUT10-01: NOOD EN OOG DOUCHE TP10 LOCATIE ZUID BETREDINGSALARM IN ALARM;ACK;
20/08/15;13:36:19;ORDER DATA LP1A ANT_T0300_09 CONTROLE OK;ON;
20/08/15;13:36:26;ORDER DATA LP1A ANT_T0300_09 CONTROLE OK;OFF;
20/08/15;13:39:36;S160-01-EM1: MASSA ENTIS SFEER 160-01 IN SIMULATIE;OFF;
20/08/15;13:39:42;S160-01-ET1: TEMPERATUUR ENTIS SFEER 160-01 IN SIMULATIE;OFF;
20/08/15;13:40:42;XV-VRU001-008: AFSLUITER BYPASS NAVERBRANDER (MFO400) 1 = AFSLUITER OPENEN IN HAND;OFF;
20/08/15;13:42:15;XV-VRU001-008: AFSLUITER BYPASS NAVERBRANDER (MFO400) 1 = AFSLUITER OPENEN IN HAND;ON;
20/08/15;13:53:12;DELTALOADER:SCADASERVER02:Delta loading was started;ON;
20/08/15;13:53:25;DELTALOADER:SCADASERVER02:Delta loading ended;ON;
20/08/15;13:53:28;DELTALOADER:SCADASERVER01:Delta loading was started;ON;
20/08/15;13:53:31;DELTALOADER:SCADASERVER01:Delta loading ended;ON;
20/08/15;13:53:40;TLGRT:SCADASERVER02:Error during archiving of measured values;ON;
20/08/15;13:53:47;TLGRT:SCADASERVER01:Error during archiving of measured values;ON;
20/08/15;13:54:46;PSH-MFO400-WTR-GRD: HOGE DRUK WATERGORDIJN 1 = IN SIMULATIE;ON;
20/08/15;13:54:50;PSH-MFO400-WTR-GRD: HOGE DRUK WATERGORDIJN 1 = IN ALARM;OFF;
20/08/15;13:54:50;PSH-MFO400-WTR-GRD: HOGE DRUK WATERGORDIJN 1 = BUITEN DIENST;ON;
20/08/15;13:54:52;PSH-MFO400-WTR-GRD: HOGE DRUK WATERGORDIJN 1 = IN SIMULATIE;OFF;
20/08/15;13:54:57;PSH-MFO400-WTR-GRD: HOGE DRUK WATERGORDIJN 1 = COMMENTAAR AAN;ON;
20/08/15;13:55:03;VPU003 : QSA90001A: PROBLEEM MET ZUURSTOFMETING, ZUURSTOFREGELING UITGESCHAKELD;ON;
20/08/15;13:55:14;VPU003 : QSA90001A: PROBLEEM MET ZUURSTOFMETING, ZUURSTOFREGELING UITGESCHAKELD;ACK;
20/08/15;13:55:32;GT-MFO400-003: GASDETECTIE MFO400 COMMENTAAR AAN;ON;
20/08/15;13:55:39;GT-MFO400-002: GASDETECTIE MFO400 COMMENTAAR AAN;ON;
20/08/15;13:55:48;GT-MFO400-001: GASDETECTIE MFO400 COMMENTAAR AAN;ON;
20/08/15;13:57:53;ORDER DATA LP4A ANT_T0050_04 CONTROLE OK;OFF;
20/08/15;13:57:53;ORDER DATA LP4A ANT_T0050_04 TIME-OUT BEVESTIGING OPERATOR;OFF;
20/08/15;13:58:17;VPU003 : QSA90001A: PROBLEEM MET ZUURSTOFMETING, ZUURSTOFREGELING UITGESCHAKELD;OFF;
20/08/15;13:58:43;ORDER DATA LP4A ANT_T0050_04 CONTROLE OK;ON;
20/08/15;13:58:52;ORDER DATA LP4A ANT_T0050_04 CONTROLE OK;OFF;
20/08/15;14:00:41;VPU003 : QSA90001A: PROBLEEM MET ZUURSTOFMETING, ZUURSTOFREGELING UITGESCHAKELD;ON;
20/08/15;14:00:56;VPU003 : QSA90001A: PROBLEEM MET ZUURSTOFMETING, ZUURSTOFREGELING UITGESCHAKELD;ACK;
20/08/15;14:00:59;VPU003 : QSA90001A: PROBLEEM MET ZUURSTOFMETING, ZUURSTOFREGELING UITGESCHAKELD;OFF;
20/08/15;14:02:46;XV-250-1-001: HOGE ZUIG AFSLUITER TANK 250-1 IN HAND;ON;
20/08/15;14:04:55;ORDER DATA LP7B ANT_T0125_04 CONTROLE OK;ON;
20/08/15;14:04:59;ORDER DATA LP7B ANT_T0125_04 CONTROLE OK;OFF;
20/08/15;14:05:18;ORDER DATA LP1B ANT_T0250_01 CONTROLE OK;ON;
20/08/15;14:05:31;ORDER DATA LP1B ANT_T0250_01 CONTROLE OK;OFF;
20/08/15;14:07:05;XV-VRU001-006: AFSLUITER UITLAAT HOOFD CONDENSORS 1 = AFSLUITER OPENEN IN HAND;ON;
20/08/15;14:07:17;ORDER DATA LP1B ANT_T0250_03 CONTROLE NOK;ON;
20/08/15;14:07:24;ORDER DATA LP1B ANT_T0250_03 CONTROLE NOK;OFF;
20/08/15;14:08:05;ORDER DATA LP7B ANT_T0100_16 CONTROLE OK;ON;
20/08/15;14:08:05;ORDER DATA LP1B ANT_T0250_01 CONTROLE OK;ON;
20/08/15;14:08:09;ORDER DATA LP7B ANT_T0100_16 CONTROLE OK;OFF;
20/08/15;14:08:14;ORDER DATA LP1B ANT_T0250_01 CONTROLE OK;OFF;
20/08/15;14:09:35;XV-3100-1-011: REGELKLEP DAMP NAAR VRU SABIC TANK 3100-1 IN HAND;ON;
20/08/15;14:09:50;Z-ND-PUT10-01: NOOD EN OOG DOUCHE TP10 LOCATIE ZUID BETREDINGSALARM IN ALARM;OFF;
20/08/15;14:10:33;XV-3100-1-011: REGELKLEP DAMP NAAR VRU SABIC TANK 3100-1 IN HAND;OFF;
20/08/15;14:11:00;ORDER DATA LP3A ANT_T0200_02 CONTROLE OK;ON;
20/08/15;14:11:03;ORDER DATA LP3A ANT_T0200_02 CONTROLE OK;OFF;
20/08/15;14:12:04;XV-250-1-001: HOGE ZUIG AFSLUITER TANK 250-1 IN HAND;OFF;
20/08/15;14:12:54;XV-3100-1-011: REGELKLEP DAMP NAAR VRU SABIC TANK 3100-1 IN HAND;ON;
20/08/15;14:13:21;XV-3100-1-011: REGELKLEP DAMP NAAR VRU SABIC TANK 3100-1 IN HAND;OFF;
20/08/15;14:20:12;XV-VRU001-004: AFSLUITER BYPASS HOOFD CONDENSORS 1 = AFSLUITER OPENEN BUITEN DIENST;ON;
20/08/15;14:20:24;XV-VRU001-004: AFSLUITER BYPASS HOOFD CONDENSORS 1 = AFSLUITER OPENEN COMMENTAAR AAN;ON;
20/08/15;14:23:56;XS-ND-POST11-001: NOODDOUCHE POST 11 BETREDINGSALARM;ON;
20/08/15;14:24:12;XS-ND-POST11-001: NOODDOUCHE POST 11 BETREDINGSALARM;ACK;
20/08/15;14:26:54;T250-1-EL1: LEVEL ENTIS TANK 250-1 LAAG ALARM;ON;
20/08/15;14:27:06;T250-1-EL1: LEVEL ENTIS TANK 250-1 LAAG ALARM;ACK;
20/08/15;14:27:56;XS-ND-POST11-001: NOODDOUCHE POST 11 BETREDINGSALARM;OFF;
20/08/15;14:28:07;PIT-3100-1-010: DRUKMETING DAMP NAAR VRU SABIC TANK 3100-1 HOOG ALARM;ON;
20/08/15;14:28:07;PIT-3100-1-010: DRUKMETING DAMP NAAR VRU SABIC TANK 3100-1 HOOG HOOG ALARM;ON;
20/08/15;14:28:21;PIT-3100-1-010: DRUKMETING DAMP NAAR VRU SABIC TANK 3100-1 HOOG HOOG ALARM;ACK;
20/08/15;14:28:24;PIT-3100-1-010: DRUKMETING DAMP NAAR VRU SABIC TANK 3100-1 HOOG ALARM;ACK;
20/08/15;14:28:33;PIT-3100-1-010: DRUKMETING DAMP NAAR VRU SABIC TANK 3100-1 HOOG ALARM;OFF;
20/08/15;14:28:33;PIT-3100-1-010: DRUKMETING DAMP NAAR VRU SABIC TANK 3100-1 HOOG HOOG ALARM;OFF;
20/08/15;14:28:36;PIT-3100-1-010: DRUKMETING DAMP NAAR VRU SABIC TANK 3100-1 HOOG ALARM;ON;
20/08/15;14:28:36;PIT-3100-1-010: DRUKMETING DAMP NAAR VRU SABIC TANK 3100-1 HOOG HOOG ALARM;ON;
20/08/15;14:28:41;PIT-3100-1-010: DRUKMETING DAMP NAAR VRU SABIC TANK 3100-1 HOOG HOOG ALARM;ACK;
20/08/15;14:28:44;PIT-3100-1-010: DRUKMETING DAMP NAAR VRU SABIC TANK 3100-1 HOOG ALARM;ACK;
20/08/15;14:31:39;PIT-3100-1-010: DRUKMETING DAMP NAAR VRU SABIC TANK 3100-1 HOOG ALARM;OFF;
20/08/15;14:31:39;PIT-3100-1-010: DRUKMETING DAMP NAAR VRU SABIC TANK 3100-1 HOOG HOOG ALARM;OFF;
20/08/15;14:37:50;XS-GW15-002: SCRUBBER GW15 STANDBY IN ALARM;ON;
20/08/15;14:38:04;XS-GW15-002: SCRUBBER GW15 STANDBY IN ALARM;ACK;
20/08/15;14:38:10;DELTALOADER:SCADASERVER02:Delta loading was started;ON;
20/08/15;14:38:18;XS-GW15-002: SCRUBBER GW15 STANDBY IN ALARM;OFF;
20/08/15;14:38:28;DELTALOADER:SCADASERVER02:Delta loading ended;ON;
20/08/15;14:38:40;DELTALOADER:SCADASERVER01:Delta loading was started;ON;
20/08/15;14:38:42;DELTALOADER:SCADASERVER01:Delta loading ended;ON;
20/08/15;14:39:58;T300-9-ET2: TEMPERATUUR GAS ENTIS TANK 300-9 MEETFOUT;ON;
20/08/15;14:40:11;T300-9-ET2: TEMPERATUUR GAS ENTIS TANK 300-9 MEETFOUT;ACK;
20/08/15;14:41:17;T300-9-ET2: TEMPERATUUR GAS ENTIS TANK 300-9 MEETFOUT;OFF;
20/08/15;14:45:05;XV-250-1-001: HOGE ZUIG AFSLUITER TANK 250-1 IN HAND;ON;
20/08/15;14:45:18;T300-9-ET2: TEMPERATUUR GAS ENTIS TANK 300-9 MEETFOUT;ON;
20/08/15;14:45:32;T300-9-ET2: TEMPERATUUR GAS ENTIS TANK 300-9 MEETFOUT;ACK;
20/08/15;14:45:49;ORDER DATA LP2A ANT_T0100_11 CONTROLE OK;ON;
20/08/15;14:45:53;ORDER DATA LP2A ANT_T0100_11 CONTROLE OK;OFF;
20/08/15;14:52:03;T300-9-ET2: TEMPERATUUR GAS ENTIS TANK 300-9 MEETFOUT;OFF;
20/08/15;14:52:16;ORDER DATA LP3A ANT_T0150_06 CONTROLE OK;ON;
20/08/15;14:52:18;ORDER DATA LP3A ANT_T0150_06 CONTROLE OK;OFF;
20/08/15;14:53:01;ORDER DATA LP3A ANT_T0150_06 CONTROLE OK;ON;
20/08/15;14:53:06;ORDER DATA LP3A ANT_T0150_06 CONTROLE OK;OFF;
20/08/15;14:53:23;T300-9-ET2: TEMPERATUUR GAS ENTIS TANK 300-9 MEETFOUT;ON;
20/08/15;14:53:34;T300-9-ET2: TEMPERATUUR GAS ENTIS TANK 300-9 MEETFOUT;ACK;
20/08/15;14:54:42;T300-9-EM1: MASSA ENTIS TANK 300-9 MEETFOUT;ON;
20/08/15;14:54:42;T300-9-ET1: TEMPERATUUR VLOEISTOF ENTIS TANK 300-9 MEETFOUT;ON;
20/08/15;14:54:52;T300-9-ET1: TEMPERATUUR VLOEISTOF ENTIS TANK 300-9 MEETFOUT;ACK;
20/08/15;14:54:53;T300-9-EM1: MASSA ENTIS TANK 300-9 MEETFOUT;ACK;
20/08/15;14:57:24;T300-9-EM1: MASSA ENTIS TANK 300-9 MEETFOUT;OFF;
20/08/15;14:57:24;T300-9-ET1: TEMPERATUUR VLOEISTOF ENTIS TANK 300-9 MEETFOUT;OFF;
20/08/15;14:57:24;T300-9-ET2: TEMPERATUUR GAS ENTIS TANK 300-9 MEETFOUT;OFF;
20/08/15;14:58:47;VRU STARTEN, DAMPVERWERKINGSAANVRAAG ACTIEF;ON;
20/08/15;14:58:53;VRU STARTEN, DAMPVERWERKINGSAANVRAAG ACTIEF;ACK;
20/08/15;15:02:04;XV-250-1-001: HOGE ZUIG AFSLUITER TANK 250-1 IN HAND;OFF;
20/08/15;15:05:27;XV-VRU001-008: AFSLUITER BYPASS NAVERBRANDER (MFO400) 1 = AFSLUITER OPENEN IN HAND;OFF;
20/08/15;15:05:32;XV-VRU001-006: AFSLUITER UITLAAT HOOFD CONDENSORS 1 = AFSLUITER OPENEN IN HAND;OFF;
20/08/15;15:06:49;T300-9-ET2: TEMPERATUUR GAS ENTIS TANK 300-9 MEETFOUT;ON;
20/08/15;15:07:03;T300-9-ET2: TEMPERATUUR GAS ENTIS TANK 300-9 MEETFOUT;ACK;
20/08/15;15:07:40;VRU STARTEN, DAMPVERWERKINGSAANVRAAG ACTIEF;OFF;
20/08/15;15:07:59;ORDER DATA LP5A ANT_T0075_21 CONTROLE OK;ON;
20/08/15;15:08:03;ORDER DATA LP5A ANT_T0075_21 CONTROLE OK;OFF;
20/08/15;15:10:33;LSH-TP20-001: NIVEAUSCHAKELAAR LSH REGENWATER TP20 IN ALARM;OFF;
20/08/15;15:17:56;ORDER DATA LP4A ANT_T0075_11 CONTROLE OK;ON;
20/08/15;15:17:58;ORDER DATA LP4A ANT_T0075_11 CONTROLE OK;OFF;
20/08/15;15:20:22;ORDER DATA LP3B ANT_T0075_07 CONTROLE OK;ON;
20/08/15;15:20:27;ORDER DATA LP3B ANT_T0075_07 CONTROLE OK;OFF;
20/08/15;15:25:47;ORDER DATA LP7A ANT_T0150_24 CONTROLE OK;ON;
20/08/15;15:25:51;ORDER DATA LP7A ANT_T0150_24 CONTROLE OK;OFF;
20/08/15;15:38:17;ORDER DATA LP2A ANT_T0100_11 CONTROLE OK;ON;
20/08/15;15:38:19;ORDER DATA LP2A ANT_T0100_11 CONTROLE OK;OFF;
20/08/15;15:45:59;ORDER DATA LP2A ANT_T0100_07 CONTROLE OK;ON;
20/08/15;15:46:01;ORDER DATA LP2A ANT_T0100_07 CONTROLE OK;OFF;
20/08/15;15:49:25;ORDER DATA LP2B ANT_T0150_20 CONTROLE OK;ON;
20/08/15;15:49:29;ORDER DATA LP2B ANT_T0150_20 CONTROLE OK;OFF;
20/08/15;15:49:45;ORDER DATA LP1B ANT_T0250_03 CONTROLE OK;ON;
20/08/15;15:49:54;ORDER DATA LP1B ANT_T0250_03 CONTROLE OK;OFF;
20/08/15;16:01:17;CF-HMI-LP1A-BOVEN-PLC07: COMMUNICATIEFOUT PLC07 EN HMI LP1A BOVEN IN SIMULATIE;ON;
20/08/15;16:01:31;CF-HMI-LP1A-BOVEN-PLC07: COMMUNICATIEFOUT PLC07 EN HMI LP1A BOVEN IN ALARM;ON;
20/08/15;16:01:43;CF-HMI-LP1A-BOVEN-PLC07: COMMUNICATIEFOUT PLC07 EN HMI LP1A BOVEN IN ALARM;ACK;
20/08/15;16:04:50;FT-250-5-AL-VAR: VARIATIE ALARM IN ALARM;ON;
20/08/15;16:04:58;FT-250-5-AL-VAR: VARIATIE ALARM IN ALARM;OFF;
20/08/15;16:05:02;FT-250-5-AL-VAR: VARIATIE ALARM IN ALARM;ACK;
20/08/15;16:05:16;FT-250-5-AL-VAR: VARIATIE ALARM IN SIMULATIE;ON;
20/08/15;16:07:12;ZS-LA21-001: ERC VOORALARM LAADARM LA21 IN ALARM;ON;
20/08/15;16:07:12;XS-LA21-002: FREEWHEEL LAADARM LA21 IN ALARM;ON;
20/08/15;16:07:12;XA-LA21-002: COMMON ALARM LAADARM LA21 IN ALARM;ON;
20/08/15;16:07:12;XS-LA21-005: ERC WAPENING LAADARM LA21  1 = GEWAPEND IN ALARM;ON;
20/08/15;16:07:13;ZS-LA26-001: ERC VOORALARM LAADARM LA26 IN ALARM;ON;
20/08/15;16:07:13;XS-LA26-002: FREEWHEEL LAADARM LA26 IN ALARM;ON;
20/08/15;16:07:13;XA-LA26-002: COMMON ALARM LAADARM LA26 IN ALARM;ON;
20/08/15;16:07:13;XS-LA26-005: ERC WAPENING LAADARM LA26  1 = GEWAPEND IN ALARM;ON;
20/08/15;16:07:25;XS-LA26-005: ERC WAPENING LAADARM LA26  1 = GEWAPEND IN ALARM;ACK;
20/08/15;16:07:26;XA-LA26-002: COMMON ALARM LAADARM LA26 IN ALARM;ACK;
20/08/15;16:07:29;XS-LA26-002: FREEWHEEL LAADARM LA26 IN ALARM;ACK;
20/08/15;16:07:29;ZS-LA26-001: ERC VOORALARM LAADARM LA26 IN ALARM;ACK;
20/08/15;16:07:31;XS-LA21-005: ERC WAPENING LAADARM LA21  1 = GEWAPEND IN ALARM;ACK;
20/08/15;16:07:34;XA-LA21-002: COMMON ALARM LAADARM LA21 IN ALARM;ACK;
20/08/15;16:07:36;XS-LA21-002: FREEWHEEL LAADARM LA21 IN ALARM;ACK;
20/08/15;16:07:36;ZS-LA21-001: ERC VOORALARM LAADARM LA21 IN ALARM;ACK;
20/08/15;16:16:58;PT-250-5-007: DRUKMETING LAADARM TANK 250-5 HOOG HOOG ALARM;ON;
20/08/15;16:16:58;PT-250-5-007: DRUKMETING LAADARM TANK 250-5 HOOG ALARM;ON;
20/08/15;16:17:06;PT-250-5-007: DRUKMETING LAADARM TANK 250-5 HOOG HOOG ALARM;OFF;
20/08/15;16:17:06;PT-250-5-007: DRUKMETING LAADARM TANK 250-5 HOOG ALARM;OFF;
20/08/15;16:17:09;PT-250-5-007: DRUKMETING LAADARM TANK 250-5 HOOG ALARM;ACK;
20/08/15;16:17:13;PT-250-5-007: DRUKMETING LAADARM TANK 250-5 HOOG HOOG ALARM;ACK;
20/08/15;16:25:19;ORDER DATA LP7B ANT_T0125_02 CONTROLE OK;ON;
20/08/15;16:25:25;ORDER DATA LP7B ANT_T0125_02 CONTROLE OK;OFF;
20/08/15;16:27:32;P529: PRODUCT POMP P529 IN ALARM;ON;
20/08/15;16:27:41;P529: PRODUCT POMP P529 IN ALARM;ACK;
20/08/15;16:27:50;P529: PRODUCT POMP P529 IN ALARM;OFF;
20/08/15;16:35:06;PT-150-11-002: DRUKMETING TANK 150-11 HOOG ALARM;OFF;
20/08/15;16:42:34;FT-250-5-AL-VAR: VARIATIE ALARM IN SIMULATIE;OFF;
20/08/15;16:45:06;FT-250-5-AL-INIT: INITIALISATIE ALARM IN ALARM;ON;
20/08/15;16:45:15;FT-250-5-AL-INIT: INITIALISATIE ALARM IN ALARM;ACK;
20/08/15;16:46:50;FT-250-5-AL-INIT: INITIALISATIE ALARM IN SIMULATIE;ON;
20/08/15;16:46:54;FT-250-5-AL-INIT: INITIALISATIE ALARM IN ALARM;OFF;
20/08/15;16:48:56;ZS-LA21-001: ERC VOORALARM LAADARM LA21 IN ALARM;OFF;
20/08/15;16:48:56;XA-LA21-002: COMMON ALARM LAADARM LA21 IN ALARM;OFF;
20/08/15;16:50:37;ZS-LA21-001: ERC VOORALARM LAADARM LA21 IN ALARM;ON;
20/08/15;16:50:49;ZS-LA21-001: ERC VOORALARM LAADARM LA21 IN ALARM;ACK;
20/08/15;16:53:26;ZS-LA21-001: ERC VOORALARM LAADARM LA21 IN ALARM;OFF;
20/08/15;16:57:31;XS-LA21-002: FREEWHEEL LAADARM LA21 IN ALARM;OFF;
20/08/15;17:00:54;XS-LA21-002: FREEWHEEL LAADARM LA21 IN ALARM;ON;
20/08/15;17:00:59;XS-LA21-002: FREEWHEEL LAADARM LA21 IN ALARM;ACK;
20/08/15;17:01:37;XS-LA21-002: FREEWHEEL LAADARM LA21 IN ALARM;OFF;
20/08/15;17:02:47;ZS-LA26-001: ERC VOORALARM LAADARM LA26 IN ALARM;OFF;
20/08/15;17:02:47;XS-LA26-002: FREEWHEEL LAADARM LA26 IN ALARM;OFF;
20/08/15;17:02:47;XA-LA26-002: COMMON ALARM LAADARM LA26 IN ALARM;OFF;
20/08/15;17:02:47;XS-LA26-005: ERC WAPENING LAADARM LA26  1 = GEWAPEND IN ALARM;OFF;
20/08/15;17:07:50;XS-LA21-002: FREEWHEEL LAADARM LA21 IN ALARM;ON;
20/08/15;17:08:04;XS-LA21-002: FREEWHEEL LAADARM LA21 IN ALARM;ACK;
20/08/15;17:10:02;XS-LA21-002: FREEWHEEL LAADARM LA21 IN ALARM;OFF;
20/08/15;17:12:21;XS-LA21-005: ERC WAPENING LAADARM LA21  1 = GEWAPEND IN ALARM;OFF;
20/08/15;17:23:51;ORDER DATA LP2B ANT_T0150_20 CONTROLE OK;ON;
20/08/15;17:24:33;ORDER DATA LP2B ANT_T0150_20 CONTROLE OK;OFF;
20/08/15;17:30:46;PT-250-5-007: DRUKMETING LAADARM TANK 250-5 HOOG ALARM;ON;
20/08/15;17:30:59;PT-250-5-007: DRUKMETING LAADARM TANK 250-5 HOOG ALARM;ACK;
20/08/15;17:31:03;PT-250-5-007: DRUKMETING LAADARM TANK 250-5 HOOG ALARM;OFF;
20/08/15;17:31:45;TP20 - SEGMENT19: EXPANSIE FUNCTIE FAALT;ON;
20/08/15;17:32:06;TP20 - SEGMENT19: EXPANSIE FUNCTIE FAALT;ACK;
20/08/15;17:38:12;TP20 - SEGMENT19: EXPANSIE FUNCTIE FAALT;OFF;
20/08/15;17:38:33;XV-528-008: AFSLUITER PRODUCT T420 NAAR L250-05 IN ALARM;ON;
20/08/15;17:38:59;XV-528-008: AFSLUITER PRODUCT T420 NAAR L250-05 IN ALARM;ACK;
20/08/15;17:39:06;XV-528-008: AFSLUITER PRODUCT T420 NAAR L250-05 IN ALARM;OFF;
20/08/15;17:42:55;CF-HMI-LP1A-BOVEN-PLC07: COMMUNICATIEFOUT PLC07 EN HMI LP1A BOVEN IN ALARM;OFF;
20/08/15;17:42:55;CF-HMI-LP1A-BOVEN-PLC07: COMMUNICATIEFOUT PLC07 EN HMI LP1A BOVEN IN SIMULATIE;OFF;
20/08/15;17:43:03;FT-250-5-AL-INIT: INITIALISATIE ALARM COMMENTAAR AAN;ON;
20/08/15;18:00:56;T2450-7: SABIC TANK STEIGER FUNCTIE GESTOPT DOOR STOPCONDITIE;ON;
20/08/15;18:01:02;PIT-P422-001: DRUKMETING VOOR POMP 422 HOOG HOOG ALARM;ON;
20/08/15;18:01:02;PIT-P422-001: DRUKMETING VOOR POMP 422 HOOG ALARM;ON;
20/08/15;18:01:04;T2450-7: SABIC TANK STEIGER FUNCTIE GESTOPT DOOR STOPCONDITIE;ACK;
20/08/15;18:01:13;PIT-P422-001: DRUKMETING VOOR POMP 422 HOOG ALARM;ACK;
20/08/15;18:01:15;PIT-P422-001: DRUKMETING VOOR POMP 422 HOOG HOOG ALARM;ACK;
20/08/15;18:01:19;PIT-P422-001: DRUKMETING VOOR POMP 422 HOOG HOOG ALARM;OFF;
20/08/15;18:01:19;PIT-P422-001: DRUKMETING VOOR POMP 422 HOOG ALARM;OFF;
20/08/15;18:01:51;T2450-7: SABIC TANK STEIGER FUNCTIE GESTOPT DOOR STOPCONDITIE;OFF;
20/08/15;18:04:14;XA-ST625CD-004-2: LAADARM 13 FREEWHEEL IN ALARM;ON;
20/08/15;18:04:27;XA-ST625CD-004-2: LAADARM 13 FREEWHEEL IN ALARM;ACK;
20/08/15;18:08:10;XA-ST625CD-004-2: LAADARM 13 FREEWHEEL IN ALARM;OFF;
20/08/15;18:42:24;XA-LP4B-004: AARDING 4 LAADPLAATS 4B IN ALARM;ON;
20/08/15;18:42:32;XA-LP4B-004: AARDING 4 LAADPLAATS 4B IN ALARM;ACK;
20/08/15;18:42:36;XA-LP4B-004: AARDING 4 LAADPLAATS 4B IN ALARM;OFF;
20/08/15;19:33:09;ORDER DATA LP1B ANT_T0250_03 CONTROLE OK;ON;
20/08/15;19:33:16;ORDER DATA LP1B ANT_T0250_03 CONTROLE OK;OFF;
20/08/15;19:39:59;XV-100-12-009: OVERVUL AFSLUITER TANK T100-12 IN HAND;ON;
20/08/15;20:10:45;XV-623-109: AFSLUITER STEIGER 623 IN HAND;ON;
20/08/15;20:10:49;XV-623-103: AFSLUITER PRODUCT TP20 L15-1 IN HAND;ON;
20/08/15;20:10:53;XV-623-107: AFSLUITER PRODUCT TRANSFER LIJN ST623/ST625A IN HAND;ON;
20/08/15;20:10:59;XV-625A-112: AFSLUITER PRODUCT NAAR ST625A IN HAND;ON;
20/08/15;20:11:08;XV-625A-111: AFSLUITER DAMPRETOUR NAAR ST625A IN HAND;ON;
20/08/15;20:11:12;XV-623-111: AFSLUITER DAMPRETOUR NAAR TP15 IN HAND;ON;
20/08/15;20:26:54;XV-100-12-009: OVERVUL AFSLUITER TANK T100-12 IN HAND;OFF;
20/08/15;20:48:18;TT-POST2-001: TEMPERATUURBEWAKING POST2 LAAGSPANNING HOOG ALARM;ON;
20/08/15;20:48:35;TT-POST2-001: TEMPERATUURBEWAKING POST2 LAAGSPANNING HOOG ALARM;ACK;
20/08/15;21:00:10;XS-LA26-002: FREEWHEEL LAADARM LA26 IN ALARM;ON;
20/08/15;21:00:18;XS-LA26-002: FREEWHEEL LAADARM LA26 IN ALARM;ACK;
20/08/15;21:09:21;T300-9-ET2: TEMPERATUUR GAS ENTIS TANK 300-9 MEETFOUT;OFF;
20/08/15;22:34:10;XS-LA17-002: LAADARM 17 FREEWHEEL IN ALARM;ON;
20/08/15;22:34:24;XS-LA17-002: LAADARM 17 FREEWHEEL IN ALARM;ACK;
20/08/15;22:40:16;XS-LA17-002: LAADARM 17 FREEWHEEL IN ALARM;OFF;
20/08/15;22:40:20;XS-LA17-002: LAADARM 17 FREEWHEEL IN ALARM;ON;
20/08/15;22:40:28;XS-LA17-002: LAADARM 17 FREEWHEEL IN ALARM;ACK;
20/08/15;22:40:34;XS-LA17-002: LAADARM 17 FREEWHEEL IN ALARM;OFF;
20/08/15;22:41:04;XS-LA17-002: LAADARM 17 FREEWHEEL IN ALARM;ON;
20/08/15;22:41:33;XS-LA17-002: LAADARM 17 FREEWHEEL IN ALARM;ACK;
20/08/15;22:42:36;XS-LA17-002: LAADARM 17 FREEWHEEL IN ALARM;OFF;
20/08/15;23:28:24;XS-LA26-002: FREEWHEEL LAADARM LA26 IN ALARM;OFF;
20/08/15;23:29:37;LSH-ADN-ST621B-001 : ADN ST621B OVERVULBEVEILIGING SCHIP;ON;
20/08/15;23:30:23;LSH-ADN-ST621B-001 : ADN ST621B OVERVULBEVEILIGING SCHIP;ACK;
20/08/15;23:30:27;ORDER DATA LP10B ANT_T0150_26 CONTROLE OK;ON;
20/08/15;23:30:29;LSH-ADN-ST621B-001 : ADN ST621B OVERVULBEVEILIGING SCHIP;OFF;
20/08/15;23:30:49;ORDER DATA LP10B ANT_T0150_26 CONTROLE OK;OFF;
20/08/15;23:33:39;XSH-L095-001: AARDING LAADPLAATS 095 IN ALARM;ON;
20/08/15;23:33:47;XSH-L095-001: AARDING LAADPLAATS 095 IN ALARM;ACK;
20/08/15;23:33:55;XSH-L095-001: AARDING LAADPLAATS 095 IN ALARM;OFF;
20/08/15;23:44:19;LSH-ADN-ST621B-001 : ADN ST621B OVERVULBEVEILIGING SCHIP;ON;
20/08/15;23:45:19;HERHALINGSALARM : ADN ST621B OVERVULBEVEILIGING SCHIP;ON;
20/08/15;23:45:29;HERHALINGSALARM : ADN ST621B OVERVULBEVEILIGING SCHIP;OFF;
20/08/15;23:45:32;HERHALINGSALARM : ADN ST621B OVERVULBEVEILIGING SCHIP;ACK;
20/08/15;23:45:33;LSH-ADN-ST621B-001 : ADN ST621B OVERVULBEVEILIGING SCHIP;ACK;
20/08/15;23:45:37;LSH-ADN-ST621B-001 : ADN ST621B OVERVULBEVEILIGING SCHIP;OFF;
20/08/15;23:52:49;TT-POST2-001: TEMPERATUURBEWAKING POST2 LAAGSPANNING HOOG ALARM;OFF;
21/08/15;00:04:07;CT-P307-002-AL-H: CONDUCTIVITEITS TRANSMITTER 002 HOOG ALARM;ON;
21/08/15;00:04:27;CT-P307-002-AL-H: CONDUCTIVITEITS TRANSMITTER 002 HOOG ALARM;ACK;
21/08/15;00:36:52;T1200-4-ET2: TEMPERATUUR GASFASE ENTIS TANK 1200-4 MEETFOUT;ON;
21/08/15;00:36:52;T1200-4-EL1: LEVEL ENTIS TANK 1200-4 MEETFOUT;ON;
21/08/15;00:36:52;T1200-4-ET1: TEMPERATUUR ENTIS TANK 1200-4 MEETFOUT;ON;
21/08/15;00:36:52;T1200-4-EQ1: FLOW ENTIS TANK 1200-4 MEETFOUT;ON;
21/08/15;00:36:52;T1200-4-EM1: MASSA ENTIS TANK 1200-4 MEETFOUT;ON;
21/08/15;00:36:52;T1200-4-ED1: DENSITY ENTIS TANK 1200-4 MEETFOUT;ON;
21/08/15;00:37:10;T1200-4-ED1: DENSITY ENTIS TANK 1200-4 MEETFOUT;ACK;
21/08/15;00:37:12;T1200-4-EM1: MASSA ENTIS TANK 1200-4 MEETFOUT;ACK;
21/08/15;00:37:13;T1200-4-EQ1: FLOW ENTIS TANK 1200-4 MEETFOUT;ACK;
21/08/15;00:37:17;T1200-4-ET2: TEMPERATUUR GASFASE ENTIS TANK 1200-4 MEETFOUT;OFF;
21/08/15;00:37:17;T1200-4-EL1: LEVEL ENTIS TANK 1200-4 MEETFOUT;OFF;
21/08/15;00:37:17;T1200-4-ET1: TEMPERATUUR ENTIS TANK 1200-4 MEETFOUT;OFF;
21/08/15;00:37:17;T1200-4-EQ1: FLOW ENTIS TANK 1200-4 MEETFOUT;OFF;
21/08/15;00:37:17;T1200-4-EM1: MASSA ENTIS TANK 1200-4 MEETFOUT;OFF;
21/08/15;00:37:17;T1200-4-ED1: DENSITY ENTIS TANK 1200-4 MEETFOUT;OFF;
21/08/15;00:37:19;T1200-4-ET1: TEMPERATUUR ENTIS TANK 1200-4 MEETFOUT;ACK;
21/08/15;00:37:21;T1200-4-EL1: LEVEL ENTIS TANK 1200-4 MEETFOUT;ACK;
21/08/15;00:37:22;T1200-4-ET2: TEMPERATUUR GASFASE ENTIS TANK 1200-4 MEETFOUT;ACK;
21/08/15;01:00:09;IT-TR-VA11-001: STROOMMETING TRACING VLOEISTOF AFSCHEIDER VA11 MEETFOUT;ON;
21/08/15;01:00:12;PIT-L071-001: DRUKMETING PRODUCT WAGONBELADING L071 HOOG HOOG ALARM;ON;
21/08/15;01:00:12;PIT-L071-001: DRUKMETING PRODUCT WAGONBELADING L071 HOOG ALARM;ON;
21/08/15;01:00:12;T1200-4: FUNCTIE WAGON LP4 GESTOPT DOOR STOPCONDITIE;ON;
21/08/15;01:00:27;T1200-4: FUNCTIE WAGON LP4 GESTOPT DOOR STOPCONDITIE;ACK;
21/08/15;01:00:31;PIT-L071-001: DRUKMETING PRODUCT WAGONBELADING L071 HOOG ALARM;ACK;
21/08/15;01:00:32;T1200-4: FUNCTIE WAGON LP4 GESTOPT DOOR STOPCONDITIE;OFF;
21/08/15;01:00:32;PIT-L071-001: DRUKMETING PRODUCT WAGONBELADING L071 HOOG HOOG ALARM;OFF;
21/08/15;01:00:32;PIT-L071-001: DRUKMETING PRODUCT WAGONBELADING L071 HOOG ALARM;OFF;
21/08/15;01:00:33;PIT-L071-001: DRUKMETING PRODUCT WAGONBELADING L071 HOOG HOOG ALARM;ACK;
21/08/15;01:00:38;IT-TR-VA11-001: STROOMMETING TRACING VLOEISTOF AFSCHEIDER VA11 MEETFOUT;ACK;
21/08/15;01:00:40;IT-TR-VA11-001: STROOMMETING TRACING VLOEISTOF AFSCHEIDER VA11 MEETFOUT;OFF;
21/08/15;01:06:38;PIT-GW15-001: DRUK DAMPRETOURLEIDING SCRUBBER GW15 LAAG ALARM;ON;
21/08/15;01:06:39;PIT-GW15-002: DRUK DAMPRETOUR SCHEEPSBELADING GW15 LAAG ALARM;ON;
21/08/15;01:07:23;PIT-GW15-002: DRUK DAMPRETOUR SCHEEPSBELADING GW15 LAAG ALARM;ACK;
21/08/15;01:07:29;PIT-GW15-001: DRUK DAMPRETOURLEIDING SCRUBBER GW15 LAAG ALARM;OFF;
21/08/15;01:07:29;PIT-GW15-002: DRUK DAMPRETOUR SCHEEPSBELADING GW15 LAAG ALARM;OFF;
21/08/15;01:07:32;PIT-GW15-001: DRUK DAMPRETOURLEIDING SCRUBBER GW15 LAAG ALARM;ACK;
21/08/15;02:51:28;LT-BW-T1-002: NIVEAUMETING BLUSWATERTANK 1 HOOG ALARM;ON;
21/08/15;02:52:15;LT-BW-T1-002: NIVEAUMETING BLUSWATERTANK 1 HOOG ALARM;ACK;
21/08/15;02:53:57;II-P102A-001: STROOMMETING POMP 102A LAAG ALARM;ON;
21/08/15;02:54:22;II-P102A-001: STROOMMETING POMP 102A LAAG ALARM;ACK;
21/08/15;03:18:47;S280-03-EP1: DRUK ENTIS SFEER 280-03 HOOG ALARM;ON;
21/08/15;03:19:12;S280-03-EP1: DRUK ENTIS SFEER 280-03 HOOG ALARM;ACK;
21/08/15;03:30:09;XA-P336-001: CONTROLLER DIESEL MOTOR BLUSWATER POMP 336 IN HAND IN ALARM;ON;
21/08/15;03:30:13;XA-P335-001: CONTROLLER DIESEL MOTOR BLUSWATER POMP 335 IN HAND IN ALARM;ON;
21/08/15;03:30:19;XA-P337-001: CONTROLLER DIESEL MOTOR BLUSWATER POMP 337 IN HAND IN ALARM;ON;
21/08/15;03:30:28;XA-P337-001: CONTROLLER DIESEL MOTOR BLUSWATER POMP 337 IN HAND IN ALARM;ACK;
21/08/15;03:30:32;XA-P335-001: CONTROLLER DIESEL MOTOR BLUSWATER POMP 335 IN HAND IN ALARM;ACK;
21/08/15;03:30:34;XA-P336-001: CONTROLLER DIESEL MOTOR BLUSWATER POMP 336 IN HAND IN ALARM;ACK;
21/08/15;03:31:50;S280-03-EP1: DRUK ENTIS SFEER 280-03 HOOG ALARM;OFF;
21/08/15;03:32:23;PT-BW-T1-001: DRUKMETING BLUSWATER LAAG ALARM;ON;
21/08/15;03:32:36;PT-BW-T1-001: DRUKMETING BLUSWATER LAAG LAAG ALARM;ON;
21/08/15;03:32:39;PT-BW-T1-001: DRUKMETING BLUSWATER LAAG LAAG ALARM;ACK;
21/08/15;03:32:41;PT-BW-T1-001: DRUKMETING BLUSWATER LAAG ALARM;ACK;
21/08/15;03:35:01;ORDER DATA LP10B ANT_T0150_26 CONTROLE OK;ON;
21/08/15;03:35:03;ORDER DATA LP10B ANT_T0150_26 CONTROLE OK;OFF;
21/08/15;03:43:15;LT-BW-T1-002: NIVEAUMETING BLUSWATERTANK 1 HOOG ALARM;OFF;
21/08/15;04:08:57;XA-ST625CD-004-2: LAADARM 13 FREEWHEEL IN ALARM;ON;
21/08/15;04:09:05;XA-ST625CD-004-2: LAADARM 13 FREEWHEEL IN ALARM;ACK;
21/08/15;04:11:51;XA-ST625CD-004-2: LAADARM 13 FREEWHEEL IN ALARM;OFF;
21/08/15;04:12:56;XV-MIN-001: DRIEWEG AFSLUITER LEIDING 1 IN ALARM;ON;
21/08/15;04:12:58;T2000-03: TANKPUT 5 INTERNE FUNCTIE GESTOPT DOOR STOPCONDITIE;ON;
21/08/15;04:13:00;T2000-03: TANKPUT 5 INTERNE FUNCTIE GESTOPT DOOR STOPCONDITIE;OFF;
21/08/15;04:13:09;T2000-03: TANKPUT 5 INTERNE FUNCTIE GESTOPT DOOR STOPCONDITIE;ACK;
21/08/15;04:13:14;XV-MIN-001: DRIEWEG AFSLUITER LEIDING 1 IN ALARM;ACK;
21/08/15;04:18:24;XV-2000-03-001: HOGE ZUIG AFSLUITER TANK 2000-03 IN HAND;ON;
21/08/15;04:23:50;XV-2000-03-001: HOGE ZUIG AFSLUITER TANK 2000-03 IN HAND;OFF;
21/08/15;04:28:23;XV-MIN-001: DRIEWEG AFSLUITER LEIDING 1 IN HAND;ON;
21/08/15;04:33:10;XV-MIN-001: DRIEWEG AFSLUITER LEIDING 1 IN ALARM;OFF;
21/08/15;04:36:52;S160-01-EL1: LEVEL ENTIS SFEER 160-01 HOOG ALARM;ON;
21/08/15;04:37:09;S160-01-EL1: LEVEL ENTIS SFEER 160-01 HOOG ALARM;ACK;
21/08/15;04:41:10;XV-MIN-001: DRIEWEG AFSLUITER LEIDING 1 IN ALARM;ON;
21/08/15;04:41:23;XV-MIN-001: DRIEWEG AFSLUITER LEIDING 1 IN ALARM;ACK;
21/08/15;04:55:02;XV-MIN-001: DRIEWEG AFSLUITER LEIDING 1 IN ALARM;OFF;
21/08/15;04:59:04;XV-MIN-001: DRIEWEG AFSLUITER LEIDING 1 IN ALARM;ON;
21/08/15;04:59:29;XV-MIN-001: DRIEWEG AFSLUITER LEIDING 1 IN ALARM;ACK;
21/08/15;05:07:52;S160-04-EL1: LEVEL ENTIS SFEER 160-04 LAAG ALARM;OFF;
21/08/15;05:34:21;PT-BW-T1-001: DRUKMETING BLUSWATER LAAG LAAG ALARM;OFF;
21/08/15;05:37:01;XA-P337-001: CONTROLLER DIESEL MOTOR BLUSWATER POMP 337 IN HAND IN ALARM;OFF;
21/08/15;05:37:05;XA-P336-001: CONTROLLER DIESEL MOTOR BLUSWATER POMP 336 IN HAND IN ALARM;OFF;
21/08/15;05:37:07;XA-P335-001: CONTROLLER DIESEL MOTOR BLUSWATER POMP 335 IN HAND IN ALARM;OFF;
21/08/15;05:40:19;PT-BW-T1-001: DRUKMETING BLUSWATER LAAG ALARM;OFF;
21/08/15;05:42:11;XV-MIN-001: DRIEWEG AFSLUITER LEIDING 1 IN ALARM;OFF;
21/08/15;05:47:43;XV-MIN-001: DRIEWEG AFSLUITER LEIDING 1 IN HAND;OFF;
21/08/15;06:31:10;IT-TR-VA11-001: STROOMMETING TRACING VLOEISTOF AFSCHEIDER VA11 MEETFOUT;ON;
21/08/15;06:31:28;IT-TR-VA11-001: STROOMMETING TRACING VLOEISTOF AFSCHEIDER VA11 MEETFOUT;ACK;
21/08/15;06:32:09;IT-TR-VA11-001: STROOMMETING TRACING VLOEISTOF AFSCHEIDER VA11 MEETFOUT;OFF;
21/08/15;06:34:09;LS-P222-001: LAAG NIVEAU ZUIG POMP 222 IN ALARM;ON;
21/08/15;06:34:14;PT-280-6-010: DRUK RAFF I NAAR EVONIK LAAG ALARM;ON;
21/08/15;06:34:14;PT-280-6-010: DRUK RAFF I NAAR EVONIK LAAG LAAG ALARM;ON;
21/08/15;06:34:31;LS-P221-001: LAAG NIVEAU ZUIG POMP 221 IN ALARM;ON;
21/08/15;06:34:34;LS-P221-001: LAAG NIVEAU ZUIG POMP 221 IN ALARM;ACK;
21/08/15;06:34:37;PT-280-6-010: DRUK RAFF I NAAR EVONIK LAAG LAAG ALARM;ACK;
21/08/15;06:34:40;PT-280-6-010: DRUK RAFF I NAAR EVONIK LAAG ALARM;ACK;
21/08/15;06:34:41;LS-P222-001: LAAG NIVEAU ZUIG POMP 222 IN ALARM;ACK;
21/08/15;06:34:43;LS-P221-001: LAAG NIVEAU ZUIG POMP 221 IN ALARM;OFF;
21/08/15;06:34:43;LS-P222-001: LAAG NIVEAU ZUIG POMP 222 IN ALARM;OFF;
21/08/15;06:35:36;PT-280-6-010: DRUK RAFF I NAAR EVONIK LAAG ALARM;OFF;
21/08/15;06:35:36;PT-280-6-010: DRUK RAFF I NAAR EVONIK LAAG LAAG ALARM;OFF;
21/08/15;06:40:13;HV-2450-1/2-DR-JET: HANDAFSLUITER DRAIN JET TANK 2450-1/2 IN SIMULATIE;ON;
21/08/15;06:40:21;HV-2450-1-DR: HANDAFSLUITER DRAIN JET TANK 2450-1 IN SIMULATIE;ON;
21/08/15;06:46:28;II-P102A-001: STROOMMETING POMP 102A LAAG ALARM;OFF;
21/08/15;06:46:33;HV-2450-1-DR: HANDAFSLUITER DRAIN JET TANK 2450-1 IN SIMULATIE;OFF;
21/08/15;06:46:39;HV-2450-1/2-DR-JET: HANDAFSLUITER DRAIN JET TANK 2450-1/2 IN SIMULATIE;OFF;
21/08/15;07:15:16;PIT-GW14-002: DRUK DAMPRETOUR COLLECTOR METHANOL LAAG ALARM;ON;
21/08/15;07:15:18;PIT-GW14-001: DRUK DAMPRETOURLEIDING SCRUBBER GW14 LAAG ALARM;ON;
21/08/15;07:15:30;PIT-GW14-001: DRUK DAMPRETOURLEIDING SCRUBBER GW14 LAAG ALARM;ACK;
21/08/15;07:15:31;PIT-GW14-002: DRUK DAMPRETOUR COLLECTOR METHANOL LAAG ALARM;ACK;
21/08/15;07:15:36;PIT-GW14-002: DRUK DAMPRETOUR COLLECTOR METHANOL LAAG ALARM;OFF;
21/08/15;07:15:36;PIT-GW14-001: DRUK DAMPRETOURLEIDING SCRUBBER GW14 LAAG ALARM;OFF;
21/08/15;07:43:48;XV-75-15-001: HOGE ZUIG AFSLUITER TANK T75-15 IN TERUGMELDINGSFOUT;ON;
21/08/15;07:43:54;XV-75-15-001: HOGE ZUIG AFSLUITER TANK T75-15 IN TERUGMELDINGSFOUT;ACK;
21/08/15;07:43:56;XV-75-15-001: HOGE ZUIG AFSLUITER TANK T75-15 IN TERUGMELDINGSFOUT;OFF;
21/08/15;08:11:36;ORDER DATA LP7A ANT_T0150_24 CONTROLE OK;ON;
21/08/15;08:11:48;ORDER DATA LP7A ANT_T0150_24 CONTROLE OK;OFF;
21/08/15;08:12:11;ORDER DATA LP3B ANT_T0150_01 CONTROLE OK;ON;
21/08/15;08:12:11;HV-L115-102: AFSLUITER PRODUCT VRACHTWAGENBELADING L115 IN ALARM;ON;
21/08/15;08:12:20;ORDER DATA LP2B ANT_T0200_08 CONTROLE OK;ON;
21/08/15;08:12:23;ORDER DATA LP3B ANT_T0150_01 CONTROLE OK;OFF;
21/08/15;08:12:25;HV-L115-102: AFSLUITER PRODUCT VRACHTWAGENBELADING L115 IN ALARM;ACK;
21/08/15;08:12:26;ORDER DATA LP2B ANT_T0200_08 CONTROLE OK;OFF;
21/08/15;08:12:30;HV-L115-102: AFSLUITER PRODUCT VRACHTWAGENBELADING L115 IN ALARM;OFF;
21/08/15;08:12:47;HV-L115-102: AFSLUITER PRODUCT VRACHTWAGENBELADING L115 IN ALARM;ON;
21/08/15;08:12:55;HV-L115-102: AFSLUITER PRODUCT VRACHTWAGENBELADING L115 IN ALARM;ACK;
21/08/15;08:12:58;HV-L115-102: AFSLUITER PRODUCT VRACHTWAGENBELADING L115 IN ALARM;OFF;
21/08/15;08:14:00;ORDER DATA LP2B ANT_T0150_17 CONTROLE OK;ON;
21/08/15;08:14:04;ORDER DATA LP2B ANT_T0150_17 CONTROLE OK;OFF;
21/08/15;08:14:32;ORDER DATA LP8A ANT_T0100_21 CONTROLE OK;ON;
21/08/15;08:14:36;ORDER DATA LP8A ANT_T0100_21 CONTROLE OK;OFF;
21/08/15;08:17:36;ORDER DATA LP1B ANT_T0250_01 CONTROLE OK;ON;
21/08/15;08:17:45;ORDER DATA LP1B ANT_T0250_01 CONTROLE OK;OFF;
21/08/15;08:21:40;ORDER DATA LP1A ANT_T0300_09 CONTROLE OK;ON;
21/08/15;08:21:44;ORDER DATA LP1A ANT_T0300_09 CONTROLE OK;OFF;
21/08/15;08:25:59;PT-250-1-007: DRUKMETING LAADARM TANK 250-1 HOOG HOOG ALARM;ON;
21/08/15;08:25:59;PT-250-1-007: DRUKMETING LAADARM TANK 250-1 HOOG ALARM;ON;
21/08/15;08:25:59;T250-1:  LAADPLAATS FUNCTIE GESTOPT DOOR STOPCONDITIE;ON;
21/08/15;08:26:18;T250-1:  LAADPLAATS FUNCTIE GESTOPT DOOR STOPCONDITIE;ACK;
21/08/15;08:26:24;T250-1:  LAADPLAATS FUNCTIE GESTOPT DOOR STOPCONDITIE;OFF;
21/08/15;08:26:25;PT-250-1-007: DRUKMETING LAADARM TANK 250-1 HOOG HOOG ALARM;OFF;
21/08/15;08:26:25;PT-250-1-007: DRUKMETING LAADARM TANK 250-1 HOOG ALARM;OFF;
21/08/15;08:26:32;PT-250-1-007: DRUKMETING LAADARM TANK 250-1 HOOG ALARM;ACK;
21/08/15;08:26:32;PT-250-1-007: DRUKMETING LAADARM TANK 250-1 HOOG HOOG ALARM;ACK;
21/08/15;08:27:56;ORDER DATA LP4A ANT_T0100_06 CONTROLE OK;ON;
21/08/15;08:27:59;ORDER DATA LP4A ANT_T0100_06 CONTROLE OK;OFF;
21/08/15;08:29:32;ORDER DATA LP3A ANT_T0150_06 CONTROLE OK;ON;
21/08/15;08:29:36;ORDER DATA LP3A ANT_T0150_06 CONTROLE OK;OFF;
21/08/15;08:34:21;ORDER DATA LP3A ANT_T0050_07 CONTROLE OK;ON;
21/08/15;08:34:24;ORDER DATA LP3A ANT_T0050_07 CONTROLE OK;OFF;
21/08/15;08:42:00;LSH-L115-001: OVERVULBEVEILIGING VRACHTWAGENBELADING L115;ON;
21/08/15;08:42:10;LSH-L115-001: OVERVULBEVEILIGING VRACHTWAGENBELADING L115;ACK;
21/08/15;08:43:12;LSH-L115-001: OVERVULBEVEILIGING VRACHTWAGENBELADING L115;OFF;
21/08/15;08:46:40;T250-1-EM1: MASSA ENTIS TANK 250-1 MEETFOUT;ON;
21/08/15;08:46:40;T250-1-ERA1: ROOM AVAILABLE ENTIS TANK 250-1 MEETFOUT;ON;
21/08/15;08:46:40;T250-1-ETOV1: TOTAL OBSERVED VOLUME ENTIS TANK 250-1 MEETFOUT;ON;
21/08/15;08:46:51;T250-1-ETOV1: TOTAL OBSERVED VOLUME ENTIS TANK 250-1 MEETFOUT;ACK;
21/08/15;08:46:53;T250-1-ERA1: ROOM AVAILABLE ENTIS TANK 250-1 MEETFOUT;ACK;
21/08/15;08:46:54;T250-1-EM1: MASSA ENTIS TANK 250-1 MEETFOUT;ACK;
21/08/15;08:47:12;T250-1-EQ1: FLOW ENTIS TANK 250-1 MEETFOUT;ON;
21/08/15;08:47:21;T250-1-EQ1: FLOW ENTIS TANK 250-1 MEETFOUT;ACK;
21/08/15;08:48:48;ORDER DATA LP4A ANT_T0100_06 CONTROLE OK;ON;
21/08/15;08:48:52;ORDER DATA LP4A ANT_T0100_06 CONTROLE OK;OFF;
21/08/15;08:50:23;ORDER DATA LP5A ANT_T0075_21 CONTROLE OK;ON;
21/08/15;08:50:25;ORDER DATA LP5A ANT_T0075_21 CONTROLE OK;OFF;
21/08/15;08:58:35;CT-P307-002-AL-H: CONDUCTIVITEITS TRANSMITTER 002 HOOG ALARM;OFF;
21/08/15;08:58:36;ORDER DATA LP2B ANT_T0200_08 CONTROLE OK;ON;
21/08/15;09:00:36;ORDER DATA LP2B ANT_T0200_08 TIME-OUT BEVESTIGING OPERATOR;ON;
21/08/15;09:10:51;ORDER DATA LP4A ANT_T0100_06 CONTROLE OK;ON;
21/08/15;09:11:06;ORDER DATA LP4A ANT_T0100_06 HANDBEDIENING;OFF;
21/08/15;09:11:06;ORDER DATA LP4A ANT_T0100_06 CONTROLE OK;OFF;
21/08/15;09:11:09;ORDER DATA LP4A ANT_T0100_06 HANDBEDIENING;ON;
21/08/15;09:11:59;XV-515-013: PRODUCT NAAR KOELGROEP IN HAND;ON;
21/08/15;09:12:22;XV-515-015: PRODUCT NAAR KOELGROEP KG03 IN HAND;ON;
21/08/15;09:12:47;XV-350-10-162: KOELGROEP KG02 NAAR S350-10 IN HAND;ON;
21/08/15;09:13:20;ORDER DATA LP7B ANT_T0125_04 CONTROLE OK;ON;
21/08/15;09:13:21;XV-350-10-007: MIN FLOW VAN P513/P514 IN HAND;ON;
21/08/15;09:13:24;ORDER DATA LP7B ANT_T0125_04 CONTROLE OK;OFF;
21/08/15;09:13:38;XV-350-10-155: 1_3-BUTADIENE KOELING IN HAND;ON;
21/08/15;09:13:43;CT-P307-001: CONDUCTIVITEIT VOOR INJECTIE VAN STADIS (VOOR POMP) HOOG HOOG ALARM;ON;
21/08/15;09:14:00;XV-350-10-007: MIN FLOW VAN P513/P514 IN HAND;OFF;
21/08/15;09:14:02;XV-350-10-155: 1_3-BUTADIENE KOELING IN HAND;OFF;
21/08/15;09:14:08;XV-350-10-162: KOELGROEP KG02 NAAR S350-10 IN HAND;OFF;
21/08/15;09:14:11;XV-515-015: PRODUCT NAAR KOELGROEP KG03 IN HAND;OFF;
21/08/15;09:14:12;CT-P307-001: CONDUCTIVITEIT VOOR INJECTIE VAN STADIS (VOOR POMP) HOOG HOOG ALARM;ACK;
21/08/15;09:14:14;ORDER DATA LP2A ANT_T0100_09 CONTROLE OK;ON;
21/08/15;09:14:14;XV-515-013: PRODUCT NAAR KOELGROEP IN HAND;OFF;
21/08/15;09:14:22;ORDER DATA LP2A ANT_T0100_09 CONTROLE OK;OFF;
21/08/15;09:14:23;ORDER DATA LP5A ANT_T0075_21 CONTROLE OK;ON;
21/08/15;09:14:28;ORDER DATA LP5A ANT_T0075_21 CONTROLE OK;OFF;
21/08/15;09:15:51;XS-GW14-002: SCRUBBER GW14 STANDBY IN ALARM;ON;
21/08/15;09:16:07;XS-GW14-002: SCRUBBER GW14 STANDBY IN ALARM;ACK;
21/08/15;09:16:18;XS-GW14-002: SCRUBBER GW14 STANDBY IN ALARM;OFF;
21/08/15;09:21:40;XV-75-15-001: HOGE ZUIG AFSLUITER TANK T75-15 IN TERUGMELDINGSFOUT;ON;
21/08/15;09:21:57;XV-75-15-001: HOGE ZUIG AFSLUITER TANK T75-15 IN TERUGMELDINGSFOUT;ACK;
21/08/15;09:21:58;XV-75-15-001: HOGE ZUIG AFSLUITER TANK T75-15 IN TERUGMELDINGSFOUT;OFF;
21/08/15;09:30:54;ORDER DATA LP9A ANT_T0075_12 CONTROLE OK;ON;
21/08/15;09:30:58;ORDER DATA LP9A ANT_T0075_12 CONTROLE OK;OFF;
21/08/15;09:34:56;ORDER DATA LP3B ANT_T0150_01 CONTROLE OK;ON;
21/08/15;09:35:00;ORDER DATA LP3B ANT_T0150_01 HANDBEDIENING;OFF;
21/08/15;09:35:00;ORDER DATA LP3B ANT_T0150_01 CONTROLE OK;OFF;
21/08/15;09:35:02;ORDER DATA LP3B ANT_T0150_01 HANDBEDIENING;ON;
21/08/15;09:35:52;CT-P307-001: CONDUCTIVITEIT VOOR INJECTIE VAN STADIS (VOOR POMP) HOOG HOOG ALARM;OFF;
21/08/15;09:39:48;DELTALOADER:SCADASERVER02:Delta loading was started;ON;
21/08/15;09:40:00;DELTALOADER:SCADASERVER02:Delta loading ended;ON;
21/08/15;09:40:05;DELTALOADER:SCADASERVER01:Delta loading was started;ON;
21/08/15;09:40:08;DELTALOADER:SCADASERVER01:Delta loading ended;ON;
21/08/15;09:42:00;T150-29-EM1: MASSA ENTIS TANK 150-29 MEETFOUT;ON;
21/08/15;09:42:00;T150-29-ERA1: ROOM AVAILABLE ENTIS TANK 150-29 MEETFOUT;ON;
21/08/15;09:42:00;T150-29-ETOV1: TOTAL OBSERVED VOLUME ENTIS TANK 150-29 MEETFOUT;ON;
21/08/15;09:42:14;T150-29-ETOV1: TOTAL OBSERVED VOLUME ENTIS TANK 150-29 MEETFOUT;ACK;
21/08/15;09:42:16;T150-29-EQ1: FLOW ENTIS TANK 150-29 MEETFOUT;ON;
21/08/15;09:42:16;T150-29-ERA1: ROOM AVAILABLE ENTIS TANK 150-29 MEETFOUT;ACK;
21/08/15;09:42:17;T150-29-EM1: MASSA ENTIS TANK 150-29 MEETFOUT;ACK;
21/08/15;09:42:23;T150-29-EQ1: FLOW ENTIS TANK 150-29 MEETFOUT;ACK;
21/08/15;09:45:32;ORDER DATA LP8A ANT_T0100_22 CONTROLE OK;ON;
21/08/15;09:46:12;ORDER DATA LP8A ANT_T0100_22 CONTROLE OK;OFF;
21/08/15;09:52:30;ORDER DATA LP7B ANT_T0125_01 CONTROLE OK;ON;
21/08/15;09:52:34;ORDER DATA LP7B ANT_T0125_01 CONTROLE OK;OFF;
21/08/15;09:55:12;XV-625CD-P1-001: AFSLUITER PIGKAMER 1 ST625C/D LEIDING 1 IN ALARM;ON;
21/08/15;09:55:36;XV-625CD-P1-001: AFSLUITER PIGKAMER 1 ST625C/D LEIDING 1 IN ALARM;ACK;
21/08/15;09:55:40;XV-625CD-P1-001: AFSLUITER PIGKAMER 1 ST625C/D LEIDING 1 IN ALARM;OFF;
21/08/15;09:55:56;XA-ST625CD-004-2: LAADARM 13 FREEWHEEL IN ALARM;ON;
21/08/15;09:56:03;XA-ST625CD-004-2: LAADARM 13 FREEWHEEL IN ALARM;ACK;
21/08/15;10:00:04;T150-29-EM1: MASSA ENTIS TANK 150-29 MEETFOUT;OFF;
21/08/15;10:00:04;T150-29-ERA1: ROOM AVAILABLE ENTIS TANK 150-29 MEETFOUT;OFF;
21/08/15;10:00:04;T150-29-ETOV1: TOTAL OBSERVED VOLUME ENTIS TANK 150-29 MEETFOUT;OFF;
21/08/15;10:01:15;T150-29-EQ1: FLOW ENTIS TANK 150-29 MEETFOUT;OFF;
21/08/15;10:02:30;XA-ST625CD-004-2: LAADARM 13 FREEWHEEL IN ALARM;OFF;
21/08/15;10:03:11;XV-627A-003: AFSLUITER PRODUCT NAAR LAADARM LA04 IN ALARM;ON;
21/08/15;10:03:18;XV-627A-003: AFSLUITER PRODUCT NAAR LAADARM LA04 IN ALARM;ACK;
21/08/15;10:06:08;ORDER DATA LP7B ANT_T0125_02 CONTROLE OK;ON;
21/08/15;10:06:12;ORDER DATA LP7B ANT_T0125_02 CONTROLE OK;OFF;
21/08/15;10:16:42;ORDER DATA LP2B ANT_T0200_08 CONTROLE OK;OFF;
21/08/15;10:16:42;ORDER DATA LP2B ANT_T0200_08 TIME-OUT BEVESTIGING OPERATOR;OFF;
21/08/15;10:16:46;ORDER DATA LP7A ANT_T0150_24 CONTROLE OK;ON;
21/08/15;10:16:49;XV-627A-003: AFSLUITER PRODUCT NAAR LAADARM LA04 IN ALARM;OFF;
21/08/15;10:17:00;ORDER DATA LP7A ANT_T0150_24 CONTROLE OK;OFF;
21/08/15;10:17:44;ORDER DATA LP2B ANT_T0150_17 CONTROLE OK;ON;
21/08/15;10:18:04;ORDER DATA LP2B ANT_T0150_17 CONTROLE OK;OFF;
21/08/15;10:19:02;DELTALOADER:SCADASERVER02:Delta loading was started;ON;
21/08/15;10:19:12;DELTALOADER:SCADASERVER02:Delta loading ended;ON;
21/08/15;10:19:14;DELTALOADER:SCADASERVER01:Delta loading was started;ON;
21/08/15;10:19:15;DELTALOADER:SCADASERVER01:Delta loading ended;ON;
21/08/15;10:24:56;ORDER DATA LP2B ANT_T0150_19 CONTROLE OK;ON;
21/08/15;10:25:12;ORDER DATA LP2B ANT_T0150_19 CONTROLE OK;OFF;
21/08/15;10:27:00;ORDER DATA LP8A ANT_T0100_21 CONTROLE OK;ON;
21/08/15;10:27:18;ORDER DATA LP8A ANT_T0100_21 CONTROLE OK;OFF;
21/08/15;10:34:25;ORDER DATA LP4A ANT_T0100_04 CONTROLE OK;OFF;
21/08/15;10:34:25;ORDER DATA LP4A ANT_T0100_04 TIME-OUT BEVESTIGING OPERATOR;OFF;
21/08/15;10:34:25;ORDER DATA LP4A ANT_T0100_04 MASTER RESET;OFF;
21/08/15;10:42:03;LSH-ADN-ST619-001 : ADN ST619 OVERVULBEVEILIGING SCHIP;ON;
21/08/15;10:42:27;LSH-ADN-ST619-001 : ADN ST619 OVERVULBEVEILIGING SCHIP;ACK;
21/08/15;10:42:29;LSH-ADN-ST619-001 : ADN ST619 OVERVULBEVEILIGING SCHIP;OFF;
21/08/15;10:42:38;ORDER DATA LP3A ANT_T0050_07 CONTROLE OK;ON;
21/08/15;10:42:42;ORDER DATA LP3A ANT_T0050_07 CONTROLE OK;OFF;
21/08/15;10:44:32;VRU STARTEN, DAMPVERWERKINGSAANVRAAG ACTIEF;ON;
21/08/15;10:44:35;VRU STARTEN, DAMPVERWERKINGSAANVRAAG ACTIEF;OFF;
21/08/15;10:44:41;VRU STARTEN, DAMPVERWERKINGSAANVRAAG ACTIEF;ACK;
21/08/15;10:44:41;DPIT-3100-1-011: VERSCHILDRUKMETING OVER FLAME ARRESTOR TANK 3100-1 HOOG ALARM;ON;
21/08/15;10:44:42;DPIT-3100-1-011: VERSCHILDRUKMETING OVER FLAME ARRESTOR TANK 3100-1 HOOG HOOG ALARM;ON;
21/08/15;10:44:42;VRU STARTEN, DAMPVERWERKINGSAANVRAAG ACTIEF;ON;
21/08/15;10:44:44;VRU: VRU FUNCTIE GESTOPT DOOR STOPCONDITIE;ON;
21/08/15;10:44:46;VRU: VRU FUNCTIE GESTOPT DOOR STOPCONDITIE;OFF;
21/08/15;10:44:49;VRU: VRU FUNCTIE GESTOPT DOOR STOPCONDITIE;ACK;
21/08/15;10:44:52;VRU STARTEN, DAMPVERWERKINGSAANVRAAG ACTIEF;ACK;
21/08/15;10:44:54;DPIT-3100-1-011: VERSCHILDRUKMETING OVER FLAME ARRESTOR TANK 3100-1 HOOG HOOG ALARM;ACK;
21/08/15;10:44:56;DPIT-3100-1-011: VERSCHILDRUKMETING OVER FLAME ARRESTOR TANK 3100-1 HOOG ALARM;ACK;
21/08/15;10:45:24;DPIT-3100-1-011: VERSCHILDRUKMETING OVER FLAME ARRESTOR TANK 3100-1 HOOG ALARM;OFF;
21/08/15;10:45:24;DPIT-3100-1-011: VERSCHILDRUKMETING OVER FLAME ARRESTOR TANK 3100-1 HOOG HOOG ALARM;OFF;
21/08/15;10:45:27;VRU STARTEN, DAMPVERWERKINGSAANVRAAG ACTIEF;OFF;
21/08/15;10:45:59;VERZAMELALARM UNIT A IN ALARM;ON;
21/08/15;10:46:10;VRU STARTEN, DAMPVERWERKINGSAANVRAAG ACTIEF;ON;
21/08/15;10:46:14;FT-103: FLOWMETING INLAAT VRU HOOG HOOG ALARM;ON;
21/08/15;10:46:14;FT-103: FLOWMETING INLAAT VRU HOOG ALARM;ON;
21/08/15;10:46:19;FT-103: FLOWMETING INLAAT VRU HOOG ALARM;ACK;
21/08/15;10:46:23;FT-103: FLOWMETING INLAAT VRU HOOG HOOG ALARM;ACK;
21/08/15;10:46:26;VRU STARTEN, DAMPVERWERKINGSAANVRAAG ACTIEF;ACK;
21/08/15;10:46:28;VERZAMELALARM UNIT A IN ALARM;ACK;
21/08/15;10:46:31;FT-103: FLOWMETING INLAAT VRU HOOG HOOG ALARM;OFF;
21/08/15;10:46:31;FT-103: FLOWMETING INLAAT VRU HOOG ALARM;OFF;
21/08/15;10:46:45;VERZAMELALARM UNIT A IN ALARM;OFF;
21/08/15;10:50:49;ORDER DATA LP5A ANT_T0075_21 CONTROLE NOK;ON;
21/08/15;10:51:08;ORDER DATA LP5A ANT_T0075_21 CONTROLE NOK;OFF;
21/08/15;10:51:38;ORDER DATA LP5A ANT_T0075_21 CONTROLE NOK;ON;
21/08/15;10:51:49;ORDER DATA LP5A ANT_T0075_21 CONTROLE NOK;OFF;
21/08/15;10:52:22;ORDER DATA LP5A ANT_T0075_21 CONTROLE OK;ON;
21/08/15;10:52:26;ORDER DATA LP5A ANT_T0075_21 CONTROLE OK;OFF;
21/08/15;10:58:52;ORDER DATA LP1B ANT_T0200_15 CONTROLE OK;ON;
21/08/15;10:58:57;ORDER DATA LP1B ANT_T0200_15 CONTROLE OK;OFF;
21/08/15;11:05:34;ORDER DATA LP2A ANT_T0100_11 CONTROLE OK;ON;
21/08/15;11:05:40;ORDER DATA LP2A ANT_T0100_11 CONTROLE OK;OFF;
21/08/15;11:06:47;XV-625A-112: AFSLUITER PRODUCT NAAR ST625A IN ALARM;ON;
21/08/15;11:06:59;XV-625A-112: AFSLUITER PRODUCT NAAR ST625A IN SIMULATIE;ON;
21/08/15;11:07:01;XV-625A-112: AFSLUITER PRODUCT NAAR ST625A IN ALARM;ACK;
21/08/15;11:07:03;XV-625A-112: AFSLUITER PRODUCT NAAR ST625A IN ALARM;OFF;
21/08/15;11:07:41;VRU STARTEN, DAMPVERWERKINGSAANVRAAG ACTIEF;OFF;
21/08/15;11:08:40;VRU STARTEN, DAMPVERWERKINGSAANVRAAG ACTIEF;ON;
21/08/15;11:08:50;XV-625A-112: AFSLUITER PRODUCT NAAR ST625A IN SIMULATIE;OFF;
21/08/15;11:09:01;VRU STARTEN, DAMPVERWERKINGSAANVRAAG ACTIEF;ACK;
21/08/15;11:16:00;ORDER DATA LP7B ANT_T0125_01 CONTROLE OK;ON;
21/08/15;11:16:04;ORDER DATA LP7B ANT_T0125_01 CONTROLE OK;OFF;
21/08/15;11:16:08;ORDER DATA LP2A ANT_T0150_22 CONTROLE OK;ON;
21/08/15;11:16:14;ORDER DATA LP2A ANT_T0150_22 CONTROLE OK;OFF;
21/08/15;11:18:28;VRU STARTEN, DAMPVERWERKINGSAANVRAAG ACTIEF;OFF;
21/08/15;11:20:51;VRU STARTEN, DAMPVERWERKINGSAANVRAAG ACTIEF;ON;
21/08/15;11:21:02;VRU STARTEN, DAMPVERWERKINGSAANVRAAG ACTIEF;ACK;
21/08/15;11:22:26;VRU STARTEN, DAMPVERWERKINGSAANVRAAG ACTIEF;OFF;
21/08/15;11:23:05;VRU STARTEN, DAMPVERWERKINGSAANVRAAG ACTIEF;ON;
21/08/15;11:23:10;VRU STARTEN, DAMPVERWERKINGSAANVRAAG ACTIEF;ACK;
21/08/15;11:23:32;VRU STARTEN, DAMPVERWERKINGSAANVRAAG ACTIEF;OFF;
21/08/15;11:28:56;VRU STARTEN, DAMPVERWERKINGSAANVRAAG ACTIEF;ON;
21/08/15;11:29:00;VRU STARTEN, DAMPVERWERKINGSAANVRAAG ACTIEF;ACK;
21/08/15;11:37:58;ORDER DATA LP9A ANT_T0075_12 CONTROLE OK;ON;
21/08/15;11:38:04;ORDER DATA LP9A ANT_T0075_12 CONTROLE OK;OFF;
21/08/15;11:38:38;DELTALOADER:SCADASERVER02:Delta loading was started;ON;
21/08/15;11:38:50;DELTALOADER:SCADASERVER02:Delta loading ended;ON;
21/08/15;11:38:51;DELTALOADER:SCADASERVER01:Delta loading was started;ON;
21/08/15;11:38:53;DELTALOADER:SCADASERVER01:Delta loading ended;ON;
21/08/15;11:39:24;ORDER DATA LP3B ANT_T0050_01 CONTROLE OK;ON;
21/08/15;11:39:44;ORDER DATA LP3B ANT_T0050_01 CONTROLE OK;OFF;
21/08/15;11:40:18;ORDER DATA LP4A ANT_T0100_04 CONTROLE OK;ON;
21/08/15;11:40:22;ORDER DATA LP4A ANT_T0100_04 CONTROLE OK;OFF;
21/08/15;11:45:11;FT-250-4-AL-INIT: INITIALISATIE ALARM IN ALARM;ON;
21/08/15;11:45:34;FT-250-4-AL-INIT: INITIALISATIE ALARM IN ALARM;ACK;
21/08/15;11:46:06;ORDER DATA LP7A ANT_T0100_17 CONTROLE OK;ON;
21/08/15;11:46:18;ORDER DATA LP7A ANT_T0100_17 CONTROLE OK;OFF;
21/08/15;11:47:17;EA-148: GASDETECTIE 1 PROPYLEENTRANSFER KANT INEOS IN ALARM;OFF;
21/08/15;11:51:42;VRU STARTEN, DAMPVERWERKINGSAANVRAAG ACTIEF;OFF;
21/08/15;11:56:19;PT-150-11-002: DRUKMETING TANK 150-11 HOOG ALARM;ON;
21/08/15;11:56:31;PT-150-11-002: DRUKMETING TANK 150-11 HOOG ALARM;ACK;
21/08/15;11:58:39;LSH-L071-010: NIVEAUSCHAKELAAR WAGONBELADING L071 IN ALARM;ON;
21/08/15;11:58:39;T1200-4: FUNCTIE WAGON LP4 GESTOPT DOOR STOPCONDITIE;ON;
21/08/15;11:58:49;T1200-4: FUNCTIE WAGON LP4 GESTOPT DOOR STOPCONDITIE;ACK;
21/08/15;11:58:52;LSH-L071-010: NIVEAUSCHAKELAAR WAGONBELADING L071 IN ALARM;ACK;
21/08/15;11:58:52;ORDER DATA LP1A ANT_T0300_09 HANDBEDIENING;ON;
21/08/15;11:58:57;LSH-L071-010: NIVEAUSCHAKELAAR WAGONBELADING L071 IN ALARM;OFF;
21/08/15;11:58:57;T1200-4: FUNCTIE WAGON LP4 GESTOPT DOOR STOPCONDITIE;OFF;
21/08/15;11:59:11;ORDER DATA LP1A ANT_T0300_09 HANDBEDIENING;OFF;
21/08/15;12:00:08;TT-POST2-001: TEMPERATUURBEWAKING POST2 LAAGSPANNING HOOG ALARM;ON;
21/08/15;12:00:28;TT-POST2-001: TEMPERATUURBEWAKING POST2 LAAGSPANNING HOOG ALARM;ACK;
21/08/15;12:00:56;LS-515-004: NIVEAUSCHAKELAAR ZUIG POMP P515 IN ALARM;ON;
21/08/15;12:01:07;LS-515-004: NIVEAUSCHAKELAAR ZUIG POMP P515 IN ALARM;ACK;
21/08/15;12:01:09;LS-515-004: NIVEAUSCHAKELAAR ZUIG POMP P515 IN ALARM;OFF;
21/08/15;12:01:47;LS-515-004: NIVEAUSCHAKELAAR ZUIG POMP P515 IN ALARM;ON;
21/08/15;12:01:52;LS-515-004: NIVEAUSCHAKELAAR ZUIG POMP P515 IN ALARM;ACK;
21/08/15;12:01:58;LS-515-004: NIVEAUSCHAKELAAR ZUIG POMP P515 IN ALARM;OFF;
21/08/15;12:02:32;LS-515-004: NIVEAUSCHAKELAAR ZUIG POMP P515 IN ALARM;ON;
21/08/15;12:02:35;LS-515-004: NIVEAUSCHAKELAAR ZUIG POMP P515 IN ALARM;ACK;
21/08/15;12:02:38;LS-515-004: NIVEAUSCHAKELAAR ZUIG POMP P515 IN ALARM;OFF;
21/08/15;12:04:57;PT-BW-T1-001: DRUKMETING BLUSWATER LAAG ALARM;ON;
21/08/15;12:05:11;PT-BW-T1-001: DRUKMETING BLUSWATER LAAG ALARM;ACK;
21/08/15;12:05:26;PT-BW-T1-001: DRUKMETING BLUSWATER LAAG ALARM;OFF;
21/08/15;12:08:52;VRU STARTEN, DAMPVERWERKINGSAANVRAAG ACTIEF;ON;
21/08/15;12:09:03;VRU STARTEN, DAMPVERWERKINGSAANVRAAG ACTIEF;ACK;
21/08/15;12:11:11;XV-VRU001-004: AFSLUITER BYPASS HOOFD CONDENSORS 1 = AFSLUITER OPENEN BUITEN DIENST;OFF;
21/08/15;12:11:14;XV-VRU001-004: AFSLUITER BYPASS HOOFD CONDENSORS 1 = AFSLUITER OPENEN IN HAND;ON;
21/08/15;12:12:43;XV-VRU001-004: AFSLUITER BYPASS HOOFD CONDENSORS 1 = AFSLUITER OPENEN BUITEN DIENST;ON;
21/08/15;12:12:45;XV-VRU001-004: AFSLUITER BYPASS HOOFD CONDENSORS 1 = AFSLUITER OPENEN IN HAND;OFF;
21/08/15;12:15:55;XV-VRU001-008: AFSLUITER BYPASS NAVERBRANDER (MFO400) 1 = AFSLUITER OPENEN IN HAND;ON;
21/08/15;12:16:11;XV-VRU001-008: AFSLUITER BYPASS NAVERBRANDER (MFO400) 1 = AFSLUITER OPENEN IN HAND;OFF;
21/08/15;12:20:26;ORDER DATA LP1A ANT_T0300_09 CONTROLE OK;ON;
21/08/15;12:20:34;ORDER DATA LP1A ANT_T0300_09 CONTROLE OK;OFF;
21/08/15;12:23:22;VRU STARTEN, DAMPVERWERKINGSAANVRAAG ACTIEF;OFF;
21/08/15;12:23:53;XV-VRU001-004: AFSLUITER BYPASS HOOFD CONDENSORS 1 = AFSLUITER OPENEN BUITEN DIENST;OFF;
21/08/15;12:23:56;XV-VRU001-004: AFSLUITER BYPASS HOOFD CONDENSORS 1 = AFSLUITER OPENEN IN HAND;ON;
21/08/15;12:24:12;XV-VRU001-006: AFSLUITER UITLAAT HOOFD CONDENSORS 1 = AFSLUITER OPENEN COMMENTAAR AAN;ON;
21/08/15;12:24:30;XV-VRU001-006: AFSLUITER UITLAAT HOOFD CONDENSORS 1 = AFSLUITER OPENEN IN HAND;ON;
21/08/15;12:24:37;XV-VRU001-008: AFSLUITER BYPASS NAVERBRANDER (MFO400) 1 = AFSLUITER OPENEN IN HAND;ON;
21/08/15;12:24:42;XV-VRU001-008: AFSLUITER BYPASS NAVERBRANDER (MFO400) 1 = AFSLUITER OPENEN IN HAND;OFF;
21/08/15;12:24:42;XV-VRU001-008: AFSLUITER BYPASS NAVERBRANDER (MFO400) 1 = AFSLUITER OPENEN BUITEN DIENST;ON;
21/08/15;12:25:52;VRU STARTEN, DAMPVERWERKINGSAANVRAAG ACTIEF;ON;
21/08/15;12:26:01;VRU STARTEN, DAMPVERWERKINGSAANVRAAG ACTIEF;ACK;
21/08/15;12:30:19;XV-VRU001-008: AFSLUITER BYPASS NAVERBRANDER (MFO400) 1 = AFSLUITER OPENEN IN ALARM;ON;
21/08/15;12:30:28;XV-VRU001-008: AFSLUITER BYPASS NAVERBRANDER (MFO400) 1 = AFSLUITER OPENEN IN ALARM;ACK;
21/08/15;12:30:35;XV-VRU001-008: AFSLUITER BYPASS NAVERBRANDER (MFO400) 1 = AFSLUITER OPENEN IN SIMULATIE;ON;
21/08/15;12:30:37;XV-VRU001-008: AFSLUITER BYPASS NAVERBRANDER (MFO400) 1 = AFSLUITER OPENEN IN ALARM;OFF;
21/08/15;12:30:40;VRU STARTEN, DAMPVERWERKINGSAANVRAAG ACTIEF;OFF;
21/08/15;12:30:42;VRU STARTEN, DAMPVERWERKINGSAANVRAAG ACTIEF;ON;
21/08/15;12:30:44;XV-VRU001-008: AFSLUITER BYPASS NAVERBRANDER (MFO400) 1 = AFSLUITER OPENEN IN ALARM;ON;
21/08/15;12:30:44;VRU: VRU FUNCTIE GESTOPT DOOR STOPCONDITIE;ON;
21/08/15;12:30:47;VRU: VRU FUNCTIE GESTOPT DOOR STOPCONDITIE;OFF;
21/08/15;12:30:47;VRU: VRU FUNCTIE GESTOPT DOOR STOPCONDITIE;ACK;
21/08/15;12:30:51;XV-VRU001-008: AFSLUITER BYPASS NAVERBRANDER (MFO400) 1 = AFSLUITER OPENEN IN ALARM;ACK;
21/08/15;12:30:55;XV-VRU001-008: AFSLUITER BYPASS NAVERBRANDER (MFO400) 1 = AFSLUITER OPENEN BUITEN DIENST;OFF;
21/08/15;12:31:00;XV-VRU001-008: AFSLUITER BYPASS NAVERBRANDER (MFO400) 1 = AFSLUITER OPENEN IN HAND;ON;
21/08/15;12:31:03;VRU STARTEN, DAMPVERWERKINGSAANVRAAG ACTIEF;ACK;
21/08/15;12:31:04;XV-VRU001-008: AFSLUITER BYPASS NAVERBRANDER (MFO400) 1 = AFSLUITER OPENEN IN ALARM;OFF;
21/08/15;12:31:07;VRU STARTEN, DAMPVERWERKINGSAANVRAAG ACTIEF;OFF;
21/08/15;12:31:13;XV-VRU001-008: AFSLUITER BYPASS NAVERBRANDER (MFO400) 1 = AFSLUITER OPENEN IN SIMULATIE;OFF;
21/08/15;12:55:00;ORDER DATA LP2A ANT_T0100_11 CONTROLE OK;ON;
21/08/15;12:55:06;ORDER DATA LP2A ANT_T0100_11 CONTROLE OK;OFF;
21/08/15;12:58:32;ORDER DATA LP4A ANT_T0050_04 CONTROLE OK;ON;
21/08/15;12:58:36;ORDER DATA LP4A ANT_T0050_04 CONTROLE OK;OFF;
21/08/15;12:59:02;ORDER DATA LP7A ANT_T0100_17 CONTROLE OK;ON;
21/08/15;12:59:04;ORDER DATA LP7A ANT_T0100_17 CONTROLE OK;OFF;
21/08/15;13:04:44;T300-9-ET2: TEMPERATUUR GAS ENTIS TANK 300-9 MEETFOUT;ON;
21/08/15;13:05:06;T300-9-ET2: TEMPERATUUR GAS ENTIS TANK 300-9 MEETFOUT;ACK;
21/08/15;13:06:04;T300-9-ET2: TEMPERATUUR GAS ENTIS TANK 300-9 MEETFOUT;OFF;
21/08/15;13:06:26;ORDER DATA LP2A ANT_T0100_08 CONTROLE OK;ON;
21/08/15;13:06:34;ORDER DATA LP2A ANT_T0100_08 CONTROLE OK;OFF;
21/08/15;13:08:26;VRU STARTEN, DAMPVERWERKINGSAANVRAAG ACTIEF;ON;
21/08/15;13:08:31;FT-103: FLOWMETING INLAAT VRU HOOG HOOG ALARM;ON;
21/08/15;13:08:31;FT-103: FLOWMETING INLAAT VRU HOOG ALARM;ON;
21/08/15;13:08:35;FT-103: FLOWMETING INLAAT VRU HOOG ALARM;ACK;
21/08/15;13:08:36;FT-103: FLOWMETING INLAAT VRU HOOG HOOG ALARM;ACK;
21/08/15;13:08:37;VRU STARTEN, DAMPVERWERKINGSAANVRAAG ACTIEF;ACK;
21/08/15;13:09:19;FT-103: FLOWMETING INLAAT VRU HOOG HOOG ALARM;OFF;
21/08/15;13:09:19;FT-103: FLOWMETING INLAAT VRU HOOG ALARM;OFF;
21/08/15;13:11:16;XV-VRU001-004: AFSLUITER BYPASS HOOFD CONDENSORS 1 = AFSLUITER OPENEN IN HAND;OFF;
21/08/15;13:11:21;XV-VRU001-006: AFSLUITER UITLAAT HOOFD CONDENSORS 1 = AFSLUITER OPENEN IN HAND;OFF;
21/08/15;13:11:25;XV-VRU001-008: AFSLUITER BYPASS NAVERBRANDER (MFO400) 1 = AFSLUITER OPENEN IN HAND;OFF;
21/08/15;13:14:29;ORDER DATA LP5A ANT_T0075_21 CONTROLE OK;ON;
21/08/15;13:14:36;ORDER DATA LP5A ANT_T0075_21 CONTROLE OK;OFF;
21/08/15;13:15:30;XV-VRU001-008: AFSLUITER BYPASS NAVERBRANDER (MFO400) 1 = AFSLUITER OPENEN IN ALARM;ON;
21/08/15;13:15:38;XV-VRU001-006: AFSLUITER UITLAAT HOOFD CONDENSORS 1 = AFSLUITER OPENEN IN ALARM;ON;
