  digraph ppmg {
rankdir=LR;
  18 [label="^"];
  18 -> 19 [label="1"];
  19 [label="XV101"];
  19 -> 20 [label="1"];
  20 [label="XV103"];
  20 -> 21 [label="1"];
  21 [label="T1"];
  21 -> 22 [label="1"];
  22 [label="XV304"];
  22 -> 23 [label="1"];
  23 [label="XV103"];
  23 -> 24 [label="1"];
  24 [label="T1"];
  24 -> 25 [label="1"];
  25 [label="XV304"];
  25 -> 26 [label="1"];
  26 [label="XV101"];
}

