Statistieken omtrent het herkennen van component ID's in alarmen,,,
,,,
Case 6: GEDEELTELIJKE COMPONENT ID's – ALLE ALARMEN,,,
Aantal alarmen,,,22000
Aantal alarmen waarin minstens 1 component wordt herkend,,,8010
,,,
Overzicht: Per component type,,,
"Component type
","# Gevonden
","# Gevonden 
/ Totaal gevonden (%)","# Gevonden 
/ Totaal alarmen (%)"
ALLE,8010,100.00%,36.41%
P,6383,79.69%,29.01%
ANT,3855,48.13%,17.52%
ST,1538,19.20%,6.99%
62x (steiger),1457,18.19%,6.62%
HV,112,1.40%,0.51%
ZST,77,0.96%,0.35%
K,23,0.29%,0.10%
Collector,0,0.00%,0.00%
Mineraalleiding,0,0.00%,0.00%
Tankleiding,0,0.00%,0.00%
XV,0,0.00%,0.00%
,,,
Overzicht: Per component ID,,,
"Component ID
","# Gevonden
","# Gevonden 
/ Totaal gevonden (%)","# Gevonden 
/ Totaal alarmen (%)"
ALLE,8010,100.00%,36.41%
P1,1577,19.69%,7.17%
P3,1181,14.74%,5.37%
P2,1174,14.66%,5.34%
P7,793,9.90%,3.60%
P4,667,8.33%,3.03%
625A,289,3.61%,1.31%
ST625A,289,3.61%,1.31%
625C,278,3.47%,1.26%
ST621A,278,3.47%,1.26%
ST625C,278,3.47%,1.26%
623,265,3.31%,1.20%
621B,192,2.40%,0.87%
ST621B,192,2.40%,0.87%
627A,164,2.05%,0.75%
ANT_T0125_04,163,2.03%,0.74%
ST623,147,1.84%,0.67%
ANT_T0075_21,145,1.81%,0.66%
P150,135,1.69%,0.61%
ANT_T0300_09,131,1.64%,0.60%
625B,129,1.61%,0.59%
ST625B,129,1.61%,0.59%
ANT_T0150_17,128,1.60%,0.58%
ANT_T0200_08,119,1.49%,0.54%
ANT_T0250_01,115,1.44%,0.52%
ANT_T0100_11,113,1.41%,0.51%
ANT_T0050_07,110,1.37%,0.50%
ANT_T0150_01,109,1.36%,0.50%
ANT_T0075_12,108,1.35%,0.49%
ANT_T0125_01,108,1.35%,0.49%
ANT_T0100_17,106,1.32%,0.48%
ANT_T0200_17,105,1.31%,0.48%
ANT_T0100_04,95,1.19%,0.43%
ANT_T0150_24,93,1.16%,0.42%
ANT_T0150_19,92,1.15%,0.42%
ANT_T0300_03,89,1.11%,0.40%
ANT_T0250_03,88,1.10%,0.40%
P307,88,1.10%,0.40%
627B,83,1.04%,0.38%
ANT_T0100_06,81,1.01%,0.37%
ANT_T0075_07,74,0.92%,0.34%
ANT_T0100_09,74,0.92%,0.34%
ANT_T0150_06,73,0.91%,0.33%
P336,70,0.87%,0.32%
ANT_T0200_10,66,0.82%,0.30%
ST619,65,0.81%,0.30%
ZST1,63,0.79%,0.29%
ANT_T0150_29,62,0.77%,0.28%
ANT_T0300_06,62,0.77%,0.28%
ST613,57,0.71%,0.26%
ANT_T0100_16,56,0.70%,0.25%
P335,54,0.67%,0.25%
ANT_T0100_08,51,0.64%,0.23%
ANT_T0100_21,49,0.61%,0.22%
ANT_T0125_02,48,0.60%,0.22%
ANT_T0150_25,48,0.60%,0.22%
P337,48,0.60%,0.22%
P423,47,0.59%,0.21%
ANT_T0200_13,46,0.57%,0.21%
ANT_T0300_10,46,0.57%,0.21%
625E,45,0.56%,0.20%
ANT_T0150_20,45,0.56%,0.20%
ST625E,45,0.56%,0.20%
ANT_T0075_15,43,0.54%,0.20%
ANT_T0200_02,42,0.52%,0.19%
ANT_T0075_13,41,0.51%,0.19%
ANT_T0150_22,39,0.49%,0.18%
ANT_T0200_01,38,0.47%,0.17%
P305,38,0.47%,0.17%
ANT_T0050_04,36,0.45%,0.16%
ANT_T0075_19,36,0.45%,0.16%
P411,36,0.45%,0.16%
P6,34,0.42%,0.15%
ANT_T0150_04,33,0.41%,0.15%
ANT_T0075_08,32,0.40%,0.15%
ANT_T0300_05,32,0.40%,0.15%
ANT_T0075_11,31,0.39%,0.14%
ANT_T0300_07,30,0.37%,0.14%
P232,29,0.36%,0.13%
ST615,28,0.35%,0.13%
P408,27,0.34%,0.12%
ANT_T0050_02,26,0.32%,0.12%
ANT_T0200_11,26,0.32%,0.12%
ANT_T0075_09,25,0.31%,0.11%
K4,23,0.29%,0.10%
ANT_T0150_23,22,0.27%,0.10%
ANT_T0300_08,22,0.27%,0.10%
P101B,22,0.27%,0.10%
ANT_T0150_15,21,0.26%,0.10%
P221,21,0.26%,0.10%
ANT_T0200_04,20,0.25%,0.09%
ANT_T0250_02,20,0.25%,0.09%
P303,20,0.25%,0.09%
P304,20,0.25%,0.09%
ANT_T0050_03,18,0.22%,0.08%
ANT_T0200_18,18,0.22%,0.08%
P348,18,0.22%,0.08%
P425,18,0.22%,0.08%
ST617,18,0.22%,0.08%
ANT_T0150_03,15,0.19%,0.07%
HV_A_BYPASS,15,0.19%,0.07%
P222,15,0.19%,0.07%
ANT_T0075_10,14,0.17%,0.06%
ANT_T0100_19,14,0.17%,0.06%
ANT_T0100_22,14,0.17%,0.06%
ANT_T0250_05,14,0.17%,0.06%
ZST2,14,0.17%,0.06%
HV_2450_1_D,13,0.16%,0.06%
P252,13,0.16%,0.06%
625D,12,0.15%,0.05%
ANT_T0200_19,12,0.15%,0.05%
HV_LA13_E,12,0.15%,0.05%
P361,12,0.15%,0.05%
P424,12,0.15%,0.05%
ST625D,12,0.15%,0.05%
ANT_T0100_18,11,0.14%,0.05%
ANT_T0150_26,11,0.14%,0.05%
ANT_T0150_28,11,0.14%,0.05%
ANT_T0200_15,11,0.14%,0.05%
P301,11,0.14%,0.05%
ANT_T0050_09,10,0.12%,0.05%
ANT_T0100_23,10,0.12%,0.05%
ANT_T0150_30,10,0.12%,0.05%
HV_LA10_B,10,0.12%,0.05%
ANT_T0100_07,9,0.11%,0.04%
ANT_T0150_05,9,0.11%,0.04%
ANT_T0150_10,9,0.11%,0.04%
HV_LA13_D,9,0.11%,0.04%
HV_LDG8_D,9,0.11%,0.04%
P346,9,0.11%,0.04%
P362,9,0.11%,0.04%
ANT_T0050_10,8,0.10%,0.04%
HV_C_BYPASS,8,0.10%,0.04%
HV_LDG9_A,8,0.10%,0.04%
P109B,8,0.10%,0.04%
ANT_T0100_05,7,0.09%,0.03%
ANT_T0100_10,7,0.09%,0.03%
HV_B_BYPASS,7,0.09%,0.03%
ANT_T0100_14,6,0.07%,0.03%
ANT_T0100_24,6,0.07%,0.03%
ANT_T0150_11,6,0.07%,0.03%
ANT_T0150_16,6,0.07%,0.03%
ANT_T0150_18,6,0.07%,0.03%
HV_D_BYPASS,6,0.07%,0.03%
HV_LA10_A,6,0.07%,0.03%
P230,6,0.07%,0.03%
P251,6,0.07%,0.03%
P264,6,0.07%,0.03%
P268,6,0.07%,0.03%
P270,6,0.07%,0.03%
P272,6,0.07%,0.03%
P278,6,0.07%,0.03%
P279,6,0.07%,0.03%
P300,6,0.07%,0.03%
P308,6,0.07%,0.03%
P360,6,0.07%,0.03%
P363,6,0.07%,0.03%
P364,6,0.07%,0.03%
P422,6,0.07%,0.03%
ANT_T0100_12,5,0.06%,0.02%
ANT_T0125_03,5,0.06%,0.02%
ANT_T0150_12,5,0.06%,0.02%
ANT_T0200_16,5,0.06%,0.02%
ANT_T0300_04,5,0.06%,0.02%
HV_LDG9_B,5,0.06%,0.02%
ANT_T0050_05,4,0.05%,0.02%
ANT_T0200_12,4,0.05%,0.02%
ANT_T0200_14,4,0.05%,0.02%
ANT_T0250_04,4,0.05%,0.02%
P288,4,0.05%,0.02%
P309,4,0.05%,0.02%
P410,4,0.05%,0.02%
P450,4,0.05%,0.02%
ANT_T0150_02,3,0.04%,0.01%
P102A,3,0.04%,0.01%
P145,3,0.04%,0.01%
P162,3,0.04%,0.01%
P172,3,0.04%,0.01%
P259,3,0.04%,0.01%
P260,3,0.04%,0.01%
P261,3,0.04%,0.01%
P262,3,0.04%,0.01%
P263,3,0.04%,0.01%
P265,3,0.04%,0.01%
P266,3,0.04%,0.01%
P267,3,0.04%,0.01%
P269,3,0.04%,0.01%
P271,3,0.04%,0.01%
P273,3,0.04%,0.01%
P274,3,0.04%,0.01%
P275,3,0.04%,0.01%
P276,3,0.04%,0.01%
P277,3,0.04%,0.01%
P338,3,0.04%,0.01%
P401,3,0.04%,0.01%
P402,3,0.04%,0.01%
P426,3,0.04%,0.01%
ANT_T0050_06,2,0.02%,0.01%
ANT_T0050_08,2,0.02%,0.01%
ANT_T0100_03,2,0.02%,0.01%
ANT_T0100_13,2,0.02%,0.01%
ANT_T0100_15,2,0.02%,0.01%
ANT_T0100_20,2,0.02%,0.01%
ANT_T0200_03,2,0.02%,0.01%
ANT_T0300_01,2,0.02%,0.01%
ANT_T0300_02,2,0.02%,0.01%
HV_E_BYPASS,2,0.02%,0.01%
HV_LDG6_E,2,0.02%,0.01%
P120,2,0.02%,0.01%
P225,2,0.02%,0.01%
P302,2,0.02%,0.01%
P435,2,0.02%,0.01%
ANT_T0075_14,1,0.01%,0.005%
ANT_T0075_16,1,0.01%,0.005%
ANT_T0075_17,1,0.01%,0.005%
ANT_T0075_20,1,0.01%,0.005%
ANT_T0150_13,1,0.01%,0.005%
ANT_T0150_14,1,0.01%,0.005%
ANT_T0150_21,1,0.01%,0.005%
ANT_T0200_09,1,0.01%,0.005%
