Statistieken omtrent het herkennen van component ID's in alarmen,,,
,,,
Case 5: GEDEELTELIJKE COMPONENT ID's - UNIEKE ALARMEN,,,
Aantal unieke alarmen,,,2730
Aantal unieke alarmen waarin minstens 1 component wordt herkend,,,858
,,,
Overzicht: Per component type,,,
"Component type
","# Gevonden
","# Gevonden 
/ Totaal gevonden (%)","# Gevonden 
/ Totaal alarmen (%)"
ALLE,858,100.00%,31.43%
P,739,86.13%,27.07%
ANT,305,35.55%,11.17%
62x (steiger),170,19.81%,6.23%
ST,148,17.25%,5.42%
HV,20,2.33%,0.73%
K,8,0.93%,0.29%
ZST,8,0.93%,0.29%
Collector,0,0.00%,0.00%
Mineraalleiding,0,0.00%,0.00%
Tankleiding,0,0.00%,0.00%
XV,0,0.00%,0.00%
,,,
Overzicht: Per component ID,,,
"Component ID
","# Gevonden
","# Gevonden 
/ Totaal gevonden (%)","# Gevonden 
/ Totaal alarmen (%)"
ALLE,858,100.00%,31.43%
P1,187,21.79%,6.85%
P2,138,16.08%,5.05%
P3,109,12.70%,3.99%
P4,97,11.31%,3.55%
623,56,6.53%,2.05%
P7,55,6.41%,2.01%
625A,23,2.68%,0.84%
P150,23,2.68%,0.84%
ST625A,23,2.68%,0.84%
625B,22,2.56%,0.81%
ST625B,22,2.56%,0.81%
ST623,19,2.21%,0.70%
625C,18,2.10%,0.66%
627A,18,2.10%,0.66%
ST625C,18,2.10%,0.66%
627B,13,1.52%,0.48%
ST619,13,1.52%,0.48%
P423,11,1.28%,0.40%
ST621A,11,1.28%,0.40%
ST615,9,1.05%,0.33%
621B,8,0.93%,0.29%
625E,8,0.93%,0.29%
K4,8,0.93%,0.29%
P307,8,0.93%,0.29%
ST621B,8,0.93%,0.29%
ST625E,8,0.93%,0.29%
ST613,7,0.82%,0.26%
ANT_T0050_04,6,0.70%,0.22%
ANT_T0075_13,6,0.70%,0.22%
ANT_T0100_09,6,0.70%,0.22%
ANT_T0125_04,6,0.70%,0.22%
ANT_T0200_08,6,0.70%,0.22%
ANT_T0250_01,6,0.70%,0.22%
P305,6,0.70%,0.22%
ST617,6,0.70%,0.22%
ZST1,6,0.70%,0.22%
ANT_T0050_07,5,0.58%,0.18%
ANT_T0075_12,5,0.58%,0.18%
ANT_T0075_21,5,0.58%,0.18%
ANT_T0100_04,5,0.58%,0.18%
ANT_T0150_17,5,0.58%,0.18%
ANT_T0200_01,5,0.58%,0.18%
ANT_T0200_10,5,0.58%,0.18%
ANT_T0200_17,5,0.58%,0.18%
ANT_T0250_03,5,0.58%,0.18%
P252,5,0.58%,0.18%
625D,4,0.47%,0.15%
ANT_T0050_03,4,0.47%,0.15%
ANT_T0075_07,4,0.47%,0.15%
ANT_T0075_19,4,0.47%,0.15%
ANT_T0100_08,4,0.47%,0.15%
ANT_T0100_11,4,0.47%,0.15%
ANT_T0100_16,4,0.47%,0.15%
ANT_T0100_17,4,0.47%,0.15%
ANT_T0125_01,4,0.47%,0.15%
ANT_T0125_02,4,0.47%,0.15%
ANT_T0150_01,4,0.47%,0.15%
ANT_T0150_05,4,0.47%,0.15%
ANT_T0150_15,4,0.47%,0.15%
ANT_T0150_24,4,0.47%,0.15%
ANT_T0150_25,4,0.47%,0.15%
ANT_T0300_06,4,0.47%,0.15%
ANT_T0300_09,4,0.47%,0.15%
ANT_T0300_10,4,0.47%,0.15%
P303,4,0.47%,0.15%
P425,4,0.47%,0.15%
ST625D,4,0.47%,0.15%
ANT_T0050_02,3,0.35%,0.11%
ANT_T0075_09,3,0.35%,0.11%
ANT_T0100_05,3,0.35%,0.11%
ANT_T0100_06,3,0.35%,0.11%
ANT_T0100_14,3,0.35%,0.11%
ANT_T0100_19,3,0.35%,0.11%
ANT_T0100_21,3,0.35%,0.11%
ANT_T0100_23,3,0.35%,0.11%
ANT_T0100_24,3,0.35%,0.11%
ANT_T0125_03,3,0.35%,0.11%
ANT_T0150_04,3,0.35%,0.11%
ANT_T0150_06,3,0.35%,0.11%
ANT_T0150_10,3,0.35%,0.11%
ANT_T0150_11,3,0.35%,0.11%
ANT_T0150_16,3,0.35%,0.11%
ANT_T0150_18,3,0.35%,0.11%
ANT_T0150_19,3,0.35%,0.11%
ANT_T0150_20,3,0.35%,0.11%
ANT_T0150_22,3,0.35%,0.11%
ANT_T0150_28,3,0.35%,0.11%
ANT_T0150_29,3,0.35%,0.11%
ANT_T0200_11,3,0.35%,0.11%
ANT_T0200_13,3,0.35%,0.11%
ANT_T0200_15,3,0.35%,0.11%
ANT_T0250_02,3,0.35%,0.11%
ANT_T0300_03,3,0.35%,0.11%
ANT_T0300_07,3,0.35%,0.11%
ANT_T0300_08,3,0.35%,0.11%
P109B,3,0.35%,0.11%
P162,3,0.35%,0.11%
P304,3,0.35%,0.11%
P336,3,0.35%,0.11%
P348,3,0.35%,0.11%
ANT_T0050_05,2,0.23%,0.07%
ANT_T0050_09,2,0.23%,0.07%
ANT_T0075_08,2,0.23%,0.07%
ANT_T0075_10,2,0.23%,0.07%
ANT_T0075_11,2,0.23%,0.07%
ANT_T0075_15,2,0.23%,0.07%
ANT_T0100_07,2,0.23%,0.07%
ANT_T0100_10,2,0.23%,0.07%
ANT_T0100_12,2,0.23%,0.07%
ANT_T0100_18,2,0.23%,0.07%
ANT_T0100_22,2,0.23%,0.07%
ANT_T0150_03,2,0.23%,0.07%
ANT_T0150_12,2,0.23%,0.07%
ANT_T0150_23,2,0.23%,0.07%
ANT_T0150_26,2,0.23%,0.07%
ANT_T0150_30,2,0.23%,0.07%
ANT_T0200_02,2,0.23%,0.07%
ANT_T0200_04,2,0.23%,0.07%
ANT_T0200_12,2,0.23%,0.07%
ANT_T0200_14,2,0.23%,0.07%
ANT_T0200_16,2,0.23%,0.07%
ANT_T0200_18,2,0.23%,0.07%
ANT_T0200_19,2,0.23%,0.07%
ANT_T0250_05,2,0.23%,0.07%
ANT_T0300_04,2,0.23%,0.07%
ANT_T0300_05,2,0.23%,0.07%
HV_2450_1_D,2,0.23%,0.07%
HV_C_BYPASS,2,0.23%,0.07%
HV_LA10_B,2,0.23%,0.07%
HV_LDG8_D,2,0.23%,0.07%
HV_LDG9_A,2,0.23%,0.07%
HV_LDG9_B,2,0.23%,0.07%
P101B,2,0.23%,0.07%
P221,2,0.23%,0.07%
P230,2,0.23%,0.07%
P232,2,0.23%,0.07%
P251,2,0.23%,0.07%
P264,2,0.23%,0.07%
P268,2,0.23%,0.07%
P270,2,0.23%,0.07%
P272,2,0.23%,0.07%
P278,2,0.23%,0.07%
P279,2,0.23%,0.07%
P288,2,0.23%,0.07%
P301,2,0.23%,0.07%
P309,2,0.23%,0.07%
P410,2,0.23%,0.07%
P411,2,0.23%,0.07%
P422,2,0.23%,0.07%
P424,2,0.23%,0.07%
P435,2,0.23%,0.07%
ZST2,2,0.23%,0.07%
ANT_T0050_06,1,0.12%,0.04%
ANT_T0050_08,1,0.12%,0.04%
ANT_T0050_10,1,0.12%,0.04%
ANT_T0075_14,1,0.12%,0.04%
ANT_T0075_16,1,0.12%,0.04%
ANT_T0075_17,1,0.12%,0.04%
ANT_T0075_20,1,0.12%,0.04%
ANT_T0100_03,1,0.12%,0.04%
ANT_T0100_13,1,0.12%,0.04%
ANT_T0100_15,1,0.12%,0.04%
ANT_T0100_20,1,0.12%,0.04%
ANT_T0150_02,1,0.12%,0.04%
ANT_T0150_13,1,0.12%,0.04%
ANT_T0150_14,1,0.12%,0.04%
ANT_T0150_21,1,0.12%,0.04%
ANT_T0200_03,1,0.12%,0.04%
ANT_T0200_09,1,0.12%,0.04%
ANT_T0250_04,1,0.12%,0.04%
ANT_T0300_01,1,0.12%,0.04%
ANT_T0300_02,1,0.12%,0.04%
HV_A_BYPASS,1,0.12%,0.04%
HV_B_BYPASS,1,0.12%,0.04%
HV_D_BYPASS,1,0.12%,0.04%
HV_E_BYPASS,1,0.12%,0.04%
HV_LA10_A,1,0.12%,0.04%
HV_LA13_D,1,0.12%,0.04%
HV_LA13_E,1,0.12%,0.04%
HV_LDG6_E,1,0.12%,0.04%
P102A,1,0.12%,0.04%
P120,1,0.12%,0.04%
P145,1,0.12%,0.04%
P172,1,0.12%,0.04%
P222,1,0.12%,0.04%
P225,1,0.12%,0.04%
P259,1,0.12%,0.04%
P260,1,0.12%,0.04%
P261,1,0.12%,0.04%
P262,1,0.12%,0.04%
P263,1,0.12%,0.04%
P265,1,0.12%,0.04%
P266,1,0.12%,0.04%
P267,1,0.12%,0.04%
P269,1,0.12%,0.04%
P271,1,0.12%,0.04%
P273,1,0.12%,0.04%
P274,1,0.12%,0.04%
P275,1,0.12%,0.04%
P276,1,0.12%,0.04%
P277,1,0.12%,0.04%
P300,1,0.12%,0.04%
P302,1,0.12%,0.04%
P308,1,0.12%,0.04%
P335,1,0.12%,0.04%
P337,1,0.12%,0.04%
P338,1,0.12%,0.04%
P346,1,0.12%,0.04%
P360,1,0.12%,0.04%
P361,1,0.12%,0.04%
P362,1,0.12%,0.04%
P363,1,0.12%,0.04%
P364,1,0.12%,0.04%
P401,1,0.12%,0.04%
P402,1,0.12%,0.04%
P408,1,0.12%,0.04%
P426,1,0.12%,0.04%
P450,1,0.12%,0.04%
P6,1,0.12%,0.04%
