Statistieken omtrent het herkennen van component ID's in alarmen,,,
,,,
Case 2: EXACTE COMPONENT ID's – ALLE ALARMEN,,,
Aantal alarmen,,,22000
Aantal alarmen waarin minstens 1 component wordt herkend,,,5597
,,,
Overzicht: Per component type,,,
"Component type
","# Gevonden
","# Gevonden 
/ Totaal gevonden (%)","# Gevonden 
/ Totaal alarmen (%)"
ALLE,5597,100.00%,25.44%
ANT,3855,68.88%,17.52%
ST,1226,21.90%,5.57%
P,245,4.38%,1.11%
HV,99,1.77%,0.45%
ZST,77,1.38%,0.35%
62x (steiger),75,1.34%,0.34%
K,20,0.36%,0.09%
Collector,0,0.00%,0.00%
Mineraalleiding,0,0.00%,0.00%
Tankleiding,0,0.00%,0.00%
XV,0,0.00%,0.00%
,,,
Overzicht: Per component ID,,,
"Component ID
","# Gevonden
","# Gevonden 
/ Totaal gevonden (%)","# Gevonden 
/ Totaal alarmen (%)"
ALLE,5597,100.00%,25.44%
ST621A,278,4.97%,1.26%
ST625A,271,4.84%,1.23%
ST621B,192,3.43%,0.87%
ANT_T0125_04,163,2.91%,0.74%
ANT_T0075_21,145,2.59%,0.66%
ST623,143,2.55%,0.65%
ANT_T0300_09,131,2.34%,0.60%
ANT_T0150_17,128,2.29%,0.58%
ANT_T0200_08,119,2.13%,0.54%
ANT_T0250_01,115,2.05%,0.52%
ANT_T0100_11,113,2.02%,0.51%
ANT_T0050_07,110,1.97%,0.50%
ANT_T0150_01,109,1.95%,0.50%
ANT_T0075_12,108,1.93%,0.49%
ANT_T0125_01,108,1.93%,0.49%
ANT_T0100_17,106,1.89%,0.48%
ANT_T0200_17,105,1.88%,0.48%
ANT_T0100_04,95,1.70%,0.43%
ANT_T0150_24,93,1.66%,0.42%
ANT_T0150_19,92,1.64%,0.42%
ANT_T0300_03,89,1.59%,0.40%
ANT_T0250_03,88,1.57%,0.40%
ANT_T0100_06,81,1.45%,0.37%
ANT_T0075_07,74,1.32%,0.34%
ANT_T0100_09,74,1.32%,0.34%
ANT_T0150_06,73,1.30%,0.33%
623,67,1.20%,0.30%
ANT_T0200_10,66,1.18%,0.30%
ST619,65,1.16%,0.30%
ZST1,63,1.13%,0.29%
ANT_T0150_29,62,1.11%,0.28%
ANT_T0300_06,62,1.11%,0.28%
ST625B,60,1.07%,0.27%
ST613,57,1.02%,0.26%
ST625C,57,1.02%,0.26%
ANT_T0100_16,56,1.00%,0.25%
ANT_T0100_08,51,0.91%,0.23%
ANT_T0100_21,49,0.88%,0.22%
ANT_T0125_02,48,0.86%,0.22%
ANT_T0150_25,48,0.86%,0.22%
ANT_T0200_13,46,0.82%,0.21%
ANT_T0300_10,46,0.82%,0.21%
ANT_T0150_20,45,0.80%,0.20%
ST625E,45,0.80%,0.20%
ANT_T0075_15,43,0.77%,0.20%
ANT_T0200_02,42,0.75%,0.19%
ANT_T0075_13,41,0.73%,0.19%
ANT_T0150_22,39,0.70%,0.18%
ANT_T0200_01,38,0.68%,0.17%
ANT_T0050_04,36,0.64%,0.16%
ANT_T0075_19,36,0.64%,0.16%
P411,36,0.64%,0.16%
ANT_T0150_04,33,0.59%,0.15%
ANT_T0075_08,32,0.57%,0.15%
ANT_T0300_05,32,0.57%,0.15%
ANT_T0075_11,31,0.55%,0.14%
ANT_T0300_07,30,0.54%,0.14%
P232,29,0.52%,0.13%
ST615,28,0.50%,0.13%
ANT_T0050_02,26,0.46%,0.12%
ANT_T0200_11,26,0.46%,0.12%
ANT_T0075_09,25,0.45%,0.11%
ANT_T0150_23,22,0.39%,0.10%
ANT_T0300_08,22,0.39%,0.10%
ANT_T0150_15,21,0.38%,0.10%
ANT_T0200_04,20,0.36%,0.09%
ANT_T0250_02,20,0.36%,0.09%
K4,20,0.36%,0.09%
ANT_T0050_03,18,0.32%,0.08%
ANT_T0200_18,18,0.32%,0.08%
ST617,18,0.32%,0.08%
P423,17,0.30%,0.08%
ANT_T0150_03,15,0.27%,0.07%
HV_A_BYPASS,15,0.27%,0.07%
ANT_T0075_10,14,0.25%,0.06%
ANT_T0100_19,14,0.25%,0.06%
ANT_T0100_22,14,0.25%,0.06%
ANT_T0250_05,14,0.25%,0.06%
ZST2,14,0.25%,0.06%
ANT_T0200_19,12,0.21%,0.05%
HV_LA13_E,12,0.21%,0.05%
P361,12,0.21%,0.05%
ST625D,12,0.21%,0.05%
ANT_T0100_18,11,0.20%,0.05%
ANT_T0150_26,11,0.20%,0.05%
ANT_T0150_28,11,0.20%,0.05%
ANT_T0200_15,11,0.20%,0.05%
ANT_T0050_09,10,0.18%,0.05%
ANT_T0100_23,10,0.18%,0.05%
ANT_T0150_30,10,0.18%,0.05%
HV_LA10_B,10,0.18%,0.05%
ANT_T0100_07,9,0.16%,0.04%
ANT_T0150_05,9,0.16%,0.04%
ANT_T0150_10,9,0.16%,0.04%
HV_LA13_D,9,0.16%,0.04%
HV_LDG8_D,9,0.16%,0.04%
P362,9,0.16%,0.04%
ANT_T0050_10,8,0.14%,0.04%
HV_C_BYPASS,8,0.14%,0.04%
HV_LDG9_A,8,0.14%,0.04%
P109B,8,0.14%,0.04%
ANT_T0100_05,7,0.13%,0.03%
ANT_T0100_10,7,0.13%,0.03%
HV_B_BYPASS,7,0.13%,0.03%
ANT_T0100_14,6,0.11%,0.03%
ANT_T0100_24,6,0.11%,0.03%
ANT_T0150_11,6,0.11%,0.03%
ANT_T0150_16,6,0.11%,0.03%
ANT_T0150_18,6,0.11%,0.03%
HV_D_BYPASS,6,0.11%,0.03%
HV_LA10_A,6,0.11%,0.03%
P221,6,0.11%,0.03%
P251,6,0.11%,0.03%
P264,6,0.11%,0.03%
P268,6,0.11%,0.03%
P270,6,0.11%,0.03%
P272,6,0.11%,0.03%
P278,6,0.11%,0.03%
P279,6,0.11%,0.03%
P304,6,0.11%,0.03%
P360,6,0.11%,0.03%
P363,6,0.11%,0.03%
P364,6,0.11%,0.03%
627B,5,0.09%,0.02%
ANT_T0100_12,5,0.09%,0.02%
ANT_T0125_03,5,0.09%,0.02%
ANT_T0150_12,5,0.09%,0.02%
ANT_T0200_16,5,0.09%,0.02%
ANT_T0300_04,5,0.09%,0.02%
HV_LDG9_B,5,0.09%,0.02%
ANT_T0050_05,4,0.07%,0.02%
ANT_T0200_12,4,0.07%,0.02%
ANT_T0200_14,4,0.07%,0.02%
ANT_T0250_04,4,0.07%,0.02%
627A,3,0.05%,0.01%
ANT_T0150_02,3,0.05%,0.01%
P1,3,0.05%,0.01%
P259,3,0.05%,0.01%
P260,3,0.05%,0.01%
P261,3,0.05%,0.01%
P262,3,0.05%,0.01%
P263,3,0.05%,0.01%
P265,3,0.05%,0.01%
P266,3,0.05%,0.01%
P267,3,0.05%,0.01%
P269,3,0.05%,0.01%
P271,3,0.05%,0.01%
P273,3,0.05%,0.01%
P274,3,0.05%,0.01%
P275,3,0.05%,0.01%
P276,3,0.05%,0.01%
P277,3,0.05%,0.01%
P348,3,0.05%,0.01%
P402,3,0.05%,0.01%
ANT_T0050_06,2,0.04%,0.01%
ANT_T0050_08,2,0.04%,0.01%
ANT_T0100_03,2,0.04%,0.01%
ANT_T0100_13,2,0.04%,0.01%
ANT_T0100_15,2,0.04%,0.01%
ANT_T0100_20,2,0.04%,0.01%
ANT_T0200_03,2,0.04%,0.01%
ANT_T0300_01,2,0.04%,0.01%
ANT_T0300_02,2,0.04%,0.01%
HV_E_BYPASS,2,0.04%,0.01%
HV_LDG6_E,2,0.04%,0.01%
P225,2,0.04%,0.01%
P307,2,0.04%,0.01%
P435,2,0.04%,0.01%
ANT_T0075_14,1,0.02%,0.005%
ANT_T0075_16,1,0.02%,0.005%
ANT_T0075_17,1,0.02%,0.005%
ANT_T0075_20,1,0.02%,0.005%
ANT_T0150_13,1,0.02%,0.005%
ANT_T0150_14,1,0.02%,0.005%
ANT_T0150_21,1,0.02%,0.005%
ANT_T0200_09,1,0.02%,0.005%
P288,1,0.02%,0.005%
P410,1,0.02%,0.005%
