0FB7D170-C67A-49FC-817C-041E6761732F,2015-12-14 12:34:57.3440000,1,FT_300_9_AL_VAR: VARIATIE ALARM IN ALARM ON,
0FB7D170-C67A-49FC-817C-041E6761732F,2015-12-14 12:35:12.0870000,2,FT_300_9_AL_VAR: VARIATIE ALARM IN ALARM OFF,
54BED34A-EFAC-4A05-A0A7-89D6D0E37009,2015-12-14 14:27:33.9310000,1,XV_250_1_001: HOGE ZUIG AFSLUITER TANK 250_1 IN HAND ON,
E722C249-4F00-4F82-943A-5A0ED6F91FA8,2015-12-14 14:27:39.9530000,1,XV_250_1_002: LAGE ZUIG AFSLUITER TANK 250_1 IN HAND ON,
82BE03FA-A797-4F8C-884F-5D729428ED45,2015-12-14 14:27:45.4870000,1,XV_250_1_003: INLAAT AFSLUITER TANK 250_1 IN HAND ON,
58CE4DFB-0B97-4D86-B5EA-11D3E630786B,2015-12-14 14:27:56.4160000,1,XV_250_1_001: HOGE ZUIG AFSLUITER TANK 250_1 IN ALARM ON,
A5EEB46A-DBCC-4796-A3C9-05E87D0A8571,2015-12-14 14:28:02.9910000,1,XV_250_1_002: LAGE ZUIG AFSLUITER TANK 250_1 IN ALARM ON,
58CE4DFB-0B97-4D86-B5EA-11D3E630786B,2015-12-14 14:28:17.1230000,2,XV_250_1_001: HOGE ZUIG AFSLUITER TANK 250_1 IN ALARM OFF,
6A56440E-7878-48DF-A3D4-558F62D5E0D2,2015-12-14 14:28:17.1230000,1,XV_250_1_003: INLAAT AFSLUITER TANK 250_1 IN ALARM ON,
A5EEB46A-DBCC-4796-A3C9-05E87D0A8571,2015-12-14 14:28:19.1240000,2,XV_250_1_002: LAGE ZUIG AFSLUITER TANK 250_1 IN ALARM OFF,
82BE03FA-A797-4F8C-884F-5D729428ED45,2015-12-14 14:28:39.9350000,2,XV_250_1_003: INLAAT AFSLUITER TANK 250_1 IN HAND OFF,
54BED34A-EFAC-4A05-A0A7-89D6D0E37009,2015-12-14 14:28:42.7280000,2,XV_250_1_001: HOGE ZUIG AFSLUITER TANK 250_1 IN HAND OFF,
E722C249-4F00-4F82-943A-5A0ED6F91FA8,2015-12-14 14:28:44.4510000,2,XV_250_1_002: LAGE ZUIG AFSLUITER TANK 250_1 IN HAND OFF,
6A56440E-7878-48DF-A3D4-558F62D5E0D2,2015-12-14 14:28:51.0180000,2,XV_250_1_003: INLAAT AFSLUITER TANK 250_1 IN ALARM OFF,
0FB7D170-C67A-49FC-817C-041E6761732F,2015-12-14 14:49:03.4610000,1,FT_300_9_AL_VAR: VARIATIE ALARM IN ALARM ON,
0FB7D170-C67A-49FC-817C-041E6761732F,2015-12-14 14:49:10.8630000,2,FT_300_9_AL_VAR: VARIATIE ALARM IN ALARM OFF,
6F0451E2-FC23-44C4-84A9-0379AA84C468,2015-12-15 08:24:39.0610000,1,XV_250_1_045: AFSLUITER STEIGER 623 IN HAND ON,
54BED34A-EFAC-4A05-A0A7-89D6D0E37009,2015-12-15 08:24:45.5790000,1,XV_250_1_001: HOGE ZUIG AFSLUITER TANK 250_1 IN HAND ON,
83024293-F3A0-4D50-A725-136435EC54F7,2015-12-15 08:24:53.8170000,1,XV_250_1_010: AFSLUITER STEIGER 623 IN HAND ON,
F271022E-6F36-4CB5-86DB-80641690BECF,2015-12-15 09:17:40.7580000,1,XV_250_1_007: AFSLUITER PRODUCT TANK 250_1 IN HAND ON,
D344C55D-12D3-41B4-B0DD-3D5839B51025,2015-12-15 10:01:57.4010000,1,XV_250_1_036: AFSLUITER LAADARM TANK 250_1 IN HAND ON,
3B4FC14D-141E-401C-B415-D72FDE8DAF73,2015-12-15 12:44:37.1410000,1,TT_250_1_004: TEMPERATUURMETING PRODUCT TANK 250_1 MEETFOUT ON,
5E250A1A-4FF3-481D-8C1A-7CED2E5F5AC5,2015-12-15 12:44:38.3140000,1,TT_250_1_004: TEMPERATUURMETING PRODUCT TANK 250_1 HOOG HOOG ALARM ON,
6DB48FD6-51DE-4DEF-A0C0-A8E776C9EC50,2015-12-15 12:44:38.3140000,1,TT_250_1_004: TEMPERATUURMETING PRODUCT TANK 250_1 HOOG ALARM ON,
AC573BB2-7499-400F-A663-5894D283745F,2015-12-16 12:57:44.8770000,1,TT_300_8_004: TEMPERATUURMETING PRODUCT TANK 300_8 HOOG ALARM ON,
3309176F-422D-444E-A602-51A0EDDEB633,2015-12-16 12:57:45.7360000,1,TT_300_8_004: TEMPERATUURMETING PRODUCT TANK 300_8 HOOG HOOG ALARM ON,
3309176F-422D-444E-A602-51A0EDDEB633,2015-12-16 12:58:50.1170000,2,TT_300_8_004: TEMPERATUURMETING PRODUCT TANK 300_8 HOOG HOOG ALARM OFF,
AC573BB2-7499-400F-A663-5894D283745F,2015-12-16 12:58:50.1170000,2,TT_300_8_004: TEMPERATUURMETING PRODUCT TANK 300_8 HOOG ALARM OFF,
3309176F-422D-444E-A602-51A0EDDEB633,2015-12-16 12:59:21.8560000,1,TT_300_8_004: TEMPERATUURMETING PRODUCT TANK 300_8 HOOG HOOG ALARM ON,
AC573BB2-7499-400F-A663-5894D283745F,2015-12-16 12:59:21.8560000,1,TT_300_8_004: TEMPERATUURMETING PRODUCT TANK 300_8 HOOG ALARM ON,
3309176F-422D-444E-A602-51A0EDDEB633,2015-12-16 12:59:36.0930000,2,TT_300_8_004: TEMPERATUURMETING PRODUCT TANK 300_8 HOOG HOOG ALARM OFF,
AC573BB2-7499-400F-A663-5894D283745F,2015-12-16 12:59:40.0930000,2,TT_300_8_004: TEMPERATUURMETING PRODUCT TANK 300_8 HOOG ALARM OFF,
3309176F-422D-444E-A602-51A0EDDEB633,2015-12-16 13:01:02.3290000,1,TT_300_8_004: TEMPERATUURMETING PRODUCT TANK 300_8 HOOG HOOG ALARM ON,
AC573BB2-7499-400F-A663-5894D283745F,2015-12-16 13:01:02.3290000,1,TT_300_8_004: TEMPERATUURMETING PRODUCT TANK 300_8 HOOG ALARM ON,
3309176F-422D-444E-A602-51A0EDDEB633,2015-12-16 13:01:28.5350000,2,TT_300_8_004: TEMPERATUURMETING PRODUCT TANK 300_8 HOOG HOOG ALARM OFF,
3309176F-422D-444E-A602-51A0EDDEB633,2015-12-16 13:01:30.7190000,1,TT_300_8_004: TEMPERATUURMETING PRODUCT TANK 300_8 HOOG HOOG ALARM ON,
9B6D42A8-6C0E-46BD-BE8E-74AEDA2FC890,2015-12-16 19:19:43.1770000,2,TT_300_8_004: TEMPERATUURMETING PRODUCT TANK 300_8 HOOG HOOG ALARM OFF,
9ED4FB84-8B6F-478A-9F78-BE2CAFEAE7DD,2015-12-16 19:19:43.1770000,2,TT_300_8_004: TEMPERATUURMETING PRODUCT TANK 300_8 HOOG ALARM OFF,
9ED4FB84-8B6F-478A-9F78-BE2CAFEAE7DD,2015-12-16 19:51:44.8000000,1,TT_300_8_004: TEMPERATUURMETING PRODUCT TANK 300_8 HOOG ALARM ON,
9B6D42A8-6C0E-46BD-BE8E-74AEDA2FC890,2015-12-16 19:51:46.9580000,1,TT_300_8_004: TEMPERATUURMETING PRODUCT TANK 300_8 HOOG HOOG ALARM ON,
9B6D42A8-6C0E-46BD-BE8E-74AEDA2FC890,2015-12-16 19:52:10.9960000,2,TT_300_8_004: TEMPERATUURMETING PRODUCT TANK 300_8 HOOG HOOG ALARM OFF,
9ED4FB84-8B6F-478A-9F78-BE2CAFEAE7DD,2015-12-16 19:52:15.3610000,2,TT_300_8_004: TEMPERATUURMETING PRODUCT TANK 300_8 HOOG ALARM OFF,
9ED4FB84-8B6F-478A-9F78-BE2CAFEAE7DD,2015-12-16 19:54:17.7300000,1,TT_300_8_004: TEMPERATUURMETING PRODUCT TANK 300_8 HOOG ALARM ON,
9ED4FB84-8B6F-478A-9F78-BE2CAFEAE7DD,2015-12-16 19:54:33.0160000,2,TT_300_8_004: TEMPERATUURMETING PRODUCT TANK 300_8 HOOG ALARM OFF,
9ED4FB84-8B6F-478A-9F78-BE2CAFEAE7DD,2015-12-16 19:55:47.3180000,1,TT_300_8_004: TEMPERATUURMETING PRODUCT TANK 300_8 HOOG ALARM ON,
9B6D42A8-6C0E-46BD-BE8E-74AEDA2FC890,2015-12-16 19:56:40.9240000,1,TT_300_8_004: TEMPERATUURMETING PRODUCT TANK 300_8 HOOG HOOG ALARM ON,
9B6D42A8-6C0E-46BD-BE8E-74AEDA2FC890,2015-12-16 19:57:13.6900000,2,TT_300_8_004: TEMPERATUURMETING PRODUCT TANK 300_8 HOOG HOOG ALARM OFF,
9B6D42A8-6C0E-46BD-BE8E-74AEDA2FC890,2015-12-16 19:57:39.4730000,1,TT_300_8_004: TEMPERATUURMETING PRODUCT TANK 300_8 HOOG HOOG ALARM ON,
9B6D42A8-6C0E-46BD-BE8E-74AEDA2FC890,2015-12-16 19:58:06.2880000,2,TT_300_8_004: TEMPERATUURMETING PRODUCT TANK 300_8 HOOG HOOG ALARM OFF,
9B6D42A8-6C0E-46BD-BE8E-74AEDA2FC890,2015-12-16 19:58:08.4640000,1,TT_300_8_004: TEMPERATUURMETING PRODUCT TANK 300_8 HOOG HOOG ALARM ON,
9B6D42A8-6C0E-46BD-BE8E-74AEDA2FC890,2015-12-16 19:58:25.9410000,2,TT_300_8_004: TEMPERATUURMETING PRODUCT TANK 300_8 HOOG HOOG ALARM OFF,
9ED4FB84-8B6F-478A-9F78-BE2CAFEAE7DD,2015-12-16 19:58:25.9410000,2,TT_300_8_004: TEMPERATUURMETING PRODUCT TANK 300_8 HOOG ALARM OFF,
9ED4FB84-8B6F-478A-9F78-BE2CAFEAE7DD,2015-12-16 19:58:52.3380000,1,TT_300_8_004: TEMPERATUURMETING PRODUCT TANK 300_8 HOOG ALARM ON,
9ED4FB84-8B6F-478A-9F78-BE2CAFEAE7DD,2015-12-16 19:59:01.0740000,2,TT_300_8_004: TEMPERATUURMETING PRODUCT TANK 300_8 HOOG ALARM OFF,
9ED4FB84-8B6F-478A-9F78-BE2CAFEAE7DD,2015-12-16 19:59:06.5950000,1,TT_300_8_004: TEMPERATUURMETING PRODUCT TANK 300_8 HOOG ALARM ON,
9ED4FB84-8B6F-478A-9F78-BE2CAFEAE7DD,2015-12-16 19:59:15.3280000,2,TT_300_8_004: TEMPERATUURMETING PRODUCT TANK 300_8 HOOG ALARM OFF,
9ED4FB84-8B6F-478A-9F78-BE2CAFEAE7DD,2015-12-16 19:59:21.8640000,1,TT_300_8_004: TEMPERATUURMETING PRODUCT TANK 300_8 HOOG ALARM ON,
9ED4FB84-8B6F-478A-9F78-BE2CAFEAE7DD,2015-12-16 19:59:30.6160000,2,TT_300_8_004: TEMPERATUURMETING PRODUCT TANK 300_8 HOOG ALARM OFF,
9B6D42A8-6C0E-46BD-BE8E-74AEDA2FC890,2015-12-16 21:07:35.9640000,1,TT_300_8_004: TEMPERATUURMETING PRODUCT TANK 300_8 HOOG HOOG ALARM ON,
9ED4FB84-8B6F-478A-9F78-BE2CAFEAE7DD,2015-12-16 21:07:35.9640000,1,TT_300_8_004: TEMPERATUURMETING PRODUCT TANK 300_8 HOOG ALARM ON,
C2982E9A-9659-4988-8411-B2A694FA9D76,2015-12-16 21:09:12.0360000,1,TT_300_8_004: TEMPERATUURMETING PRODUCT TANK 300_8 IN SIMULATIE ON,
9B6D42A8-6C0E-46BD-BE8E-74AEDA2FC890,2015-12-16 21:09:36.0600000,2,TT_300_8_004: TEMPERATUURMETING PRODUCT TANK 300_8 HOOG HOOG ALARM OFF,
9ED4FB84-8B6F-478A-9F78-BE2CAFEAE7DD,2015-12-16 21:09:36.0600000,2,TT_300_8_004: TEMPERATUURMETING PRODUCT TANK 300_8 HOOG ALARM OFF,
C2982E9A-9659-4988-8411-B2A694FA9D76,2015-12-16 21:43:04.4350000,2,TT_300_8_004: TEMPERATUURMETING PRODUCT TANK 300_8 IN SIMULATIE OFF,
9B6D42A8-6C0E-46BD-BE8E-74AEDA2FC890,2015-12-16 21:43:04.4350000,1,TT_300_8_004: TEMPERATUURMETING PRODUCT TANK 300_8 HOOG HOOG ALARM ON,
9ED4FB84-8B6F-478A-9F78-BE2CAFEAE7DD,2015-12-16 21:43:04.4350000,1,TT_300_8_004: TEMPERATUURMETING PRODUCT TANK 300_8 HOOG ALARM ON,
F50FEB6F-1CCD-4BD6-A654-C9DAA0467354,2015-12-16 21:43:04.4350000,1,TT_300_8_004: TEMPERATUURMETING PRODUCT TANK 300_8 MEETFOUT ON,
F50FEB6F-1CCD-4BD6-A654-C9DAA0467354,2015-12-17 09:56:02.6690000,2,TT_300_8_004: TEMPERATUURMETING PRODUCT TANK 300_8 MEETFOUT OFF,
F50FEB6F-1CCD-4BD6-A654-C9DAA0467354,2015-12-17 09:56:04.8430000,1,TT_300_8_004: TEMPERATUURMETING PRODUCT TANK 300_8 MEETFOUT ON,
F50FEB6F-1CCD-4BD6-A654-C9DAA0467354,2015-12-17 10:14:13.6170000,2,TT_300_8_004: TEMPERATUURMETING PRODUCT TANK 300_8 MEETFOUT OFF,
F50FEB6F-1CCD-4BD6-A654-C9DAA0467354,2015-12-17 10:14:23.5900000,1,TT_300_8_004: TEMPERATUURMETING PRODUCT TANK 300_8 MEETFOUT ON,
F50FEB6F-1CCD-4BD6-A654-C9DAA0467354,2015-12-17 10:15:11.6340000,2,TT_300_8_004: TEMPERATUURMETING PRODUCT TANK 300_8 MEETFOUT OFF,
9B6D42A8-6C0E-46BD-BE8E-74AEDA2FC890,2015-12-17 10:15:12.5870000,2,TT_300_8_004: TEMPERATUURMETING PRODUCT TANK 300_8 HOOG HOOG ALARM OFF,
9ED4FB84-8B6F-478A-9F78-BE2CAFEAE7DD,2015-12-17 10:15:12.5870000,2,TT_300_8_004: TEMPERATUURMETING PRODUCT TANK 300_8 HOOG ALARM OFF,
83785C3E-25DB-4E64-B92D-C29FC928AE8D,2015-12-17 10:24:36.1310000,2,TT_250_1_004: TEMPERATUURMETING PRODUCT TANK 250_1 MEETFOUT OFF,
53524B74-79C7-4E65-B2C2-550EBE242C32,2015-12-17 10:39:12.6100000,2,TT_250_1_004: TEMPERATUURMETING PRODUCT TANK 250_1 HOOG HOOG ALARM OFF,
7D7D27D8-6154-4B52-9763-37A8607A7FE3,2015-12-17 10:39:12.6100000,2,TT_250_1_004: TEMPERATUURMETING PRODUCT TANK 250_1 HOOG ALARM OFF,
218DD39F-0BF1-4F60-8F9D-2607282A900E,2015-12-17 15:06:21.4840000,1,FT_300_8_AL_VAR: VARIATIE ALARM IN ALARM ON,
218DD39F-0BF1-4F60-8F9D-2607282A900E,2015-12-17 15:06:30.8200000,2,FT_300_8_AL_VAR: VARIATIE ALARM IN ALARM OFF,
6238138A-4071-4F7A-98EC-A3FA65A9E729,2015-12-18 08:15:57.7280000,2,XV_250_1_045: AFSLUITER STEIGER 623 IN HAND OFF,
28089EEA-03C5-4289-B086-15DF41AB8E15,2015-12-18 08:16:01.7220000,2,XV_250_1_010: AFSLUITER STEIGER 623 IN HAND OFF,
42780061-4C7D-4369-A6B0-5B4B7FF16BA7,2015-12-18 08:16:06.9200000,2,XV_250_1_036: AFSLUITER LAADARM TANK 250_1 IN HAND OFF,
B0ACC39E-F7A1-4B59-8021-349586A3CB5D,2015-12-18 08:16:11.9300000,2,XV_250_1_007: AFSLUITER PRODUCT TANK 250_1 IN HAND OFF,
9263A40F-5627-49AD-B17F-1142771D144E,2015-12-18 08:16:15.9170000,2,XV_250_1_001: HOGE ZUIG AFSLUITER TANK 250_1 IN HAND OFF,
A1CC4594-4CE7-4B69-8FD7-51A294F3136D,2015-12-18 22:26:08.0350000,1,FT_300_5_AL_VAR: VARIATIE ALARM IN ALARM ON,
A1CC4594-4CE7-4B69-8FD7-51A294F3136D,2015-12-18 22:26:24.0950000,2,FT_300_5_AL_VAR: VARIATIE ALARM IN ALARM OFF,
A1CC4594-4CE7-4B69-8FD7-51A294F3136D,2015-12-18 23:24:59.9280000,1,FT_300_5_AL_VAR: VARIATIE ALARM IN ALARM ON,
A1CC4594-4CE7-4B69-8FD7-51A294F3136D,2015-12-18 23:25:09.3160000,2,FT_300_5_AL_VAR: VARIATIE ALARM IN ALARM OFF,
B0ACC39E-F7A1-4B59-8021-349586A3CB5D,2015-12-21 07:39:29.0250000,1,XV_250_1_007: AFSLUITER PRODUCT TANK 250_1 IN HAND ON,
42780061-4C7D-4369-A6B0-5B4B7FF16BA7,2015-12-21 07:40:05.0210000,1,XV_250_1_036: AFSLUITER LAADARM TANK 250_1 IN HAND ON,
28089EEA-03C5-4289-B086-15DF41AB8E15,2015-12-21 07:40:25.0310000,1,XV_250_1_010: AFSLUITER STEIGER 623 IN HAND ON,
28089EEA-03C5-4289-B086-15DF41AB8E15,2015-12-21 09:11:59.0640000,2,XV_250_1_010: AFSLUITER STEIGER 623 IN HAND OFF,
B0ACC39E-F7A1-4B59-8021-349586A3CB5D,2015-12-21 09:12:02.2530000,2,XV_250_1_007: AFSLUITER PRODUCT TANK 250_1 IN HAND OFF,
42780061-4C7D-4369-A6B0-5B4B7FF16BA7,2015-12-21 09:12:07.0580000,2,XV_250_1_036: AFSLUITER LAADARM TANK 250_1 IN HAND OFF,
571AADE7-6505-4356-B07C-2A98DA776C5C,2015-12-21 14:49:18.1360000,1,STP_LA_300_8_031: LOKALE STOP LAADARM (ONDER) TANK 300_8 IN ALARM ON,
571AADE7-6505-4356-B07C-2A98DA776C5C,2015-12-21 14:49:33.9000000,2,STP_LA_300_8_031: LOKALE STOP LAADARM (ONDER) TANK 300_8 IN ALARM OFF,
218DD39F-0BF1-4F60-8F9D-2607282A900E,2015-12-21 14:58:48.3060000,1,FT_300_8_AL_VAR: VARIATIE ALARM IN ALARM ON,
218DD39F-0BF1-4F60-8F9D-2607282A900E,2015-12-21 14:59:01.1690000,2,FT_300_8_AL_VAR: VARIATIE ALARM IN ALARM OFF,
218DD39F-0BF1-4F60-8F9D-2607282A900E,2015-12-21 15:05:41.7690000,1,FT_300_8_AL_VAR: VARIATIE ALARM IN ALARM ON,
218DD39F-0BF1-4F60-8F9D-2607282A900E,2015-12-21 15:06:02.9600000,2,FT_300_8_AL_VAR: VARIATIE ALARM IN ALARM OFF,
218DD39F-0BF1-4F60-8F9D-2607282A900E,2015-12-21 15:21:56.3850000,1,FT_300_8_AL_VAR: VARIATIE ALARM IN ALARM ON,
218DD39F-0BF1-4F60-8F9D-2607282A900E,2015-12-21 15:22:12.3860000,2,FT_300_8_AL_VAR: VARIATIE ALARM IN ALARM OFF,
218DD39F-0BF1-4F60-8F9D-2607282A900E,2015-12-21 15:28:42.7750000,1,FT_300_8_AL_VAR: VARIATIE ALARM IN ALARM ON,
218DD39F-0BF1-4F60-8F9D-2607282A900E,2015-12-21 15:28:58.9910000,2,FT_300_8_AL_VAR: VARIATIE ALARM IN ALARM OFF,
218DD39F-0BF1-4F60-8F9D-2607282A900E,2015-12-21 15:35:46.7720000,1,FT_300_8_AL_VAR: VARIATIE ALARM IN ALARM ON,
218DD39F-0BF1-4F60-8F9D-2607282A900E,2015-12-21 15:36:00.0940000,2,FT_300_8_AL_VAR: VARIATIE ALARM IN ALARM OFF,
218DD39F-0BF1-4F60-8F9D-2607282A900E,2015-12-21 15:42:30.0940000,1,FT_300_8_AL_VAR: VARIATIE ALARM IN ALARM ON,
218DD39F-0BF1-4F60-8F9D-2607282A900E,2015-12-21 15:42:40.0940000,2,FT_300_8_AL_VAR: VARIATIE ALARM IN ALARM OFF,
218DD39F-0BF1-4F60-8F9D-2607282A900E,2015-12-21 16:04:07.9120000,1,FT_300_8_AL_VAR: VARIATIE ALARM IN ALARM ON,
218DD39F-0BF1-4F60-8F9D-2607282A900E,2015-12-21 16:04:43.9100000,2,FT_300_8_AL_VAR: VARIATIE ALARM IN ALARM OFF,
B16CAB58-72BD-4B8D-9728-148BA21A6181,2015-12-22 08:26:03.8080000,1,FT_300_9_AL_VAR: VARIATIE ALARM IN ALARM ON,
B16CAB58-72BD-4B8D-9728-148BA21A6181,2015-12-22 08:26:23.3790000,2,FT_300_9_AL_VAR: VARIATIE ALARM IN ALARM OFF,
A1CC4594-4CE7-4B69-8FD7-51A294F3136D,2015-12-22 18:30:01.5470000,1,FT_300_5_AL_VAR: VARIATIE ALARM IN ALARM ON,
A1CC4594-4CE7-4B69-8FD7-51A294F3136D,2015-12-22 18:30:12.4640000,2,FT_300_5_AL_VAR: VARIATIE ALARM IN ALARM OFF,
A1CC4594-4CE7-4B69-8FD7-51A294F3136D,2015-12-22 19:30:16.1600000,1,FT_300_5_AL_VAR: VARIATIE ALARM IN ALARM ON,
A1CC4594-4CE7-4B69-8FD7-51A294F3136D,2015-12-22 19:30:37.9940000,2,FT_300_5_AL_VAR: VARIATIE ALARM IN ALARM OFF,
C42E489A-5DA4-439B-A6E7-96B7B84F28DA,2015-12-23 07:29:53.5270000,1,FT_250_2_AL_VAR: VARIATIE ALARM IN ALARM ON,
C42E489A-5DA4-439B-A6E7-96B7B84F28DA,2015-12-23 07:30:24.8050000,2,FT_250_2_AL_VAR: VARIATIE ALARM IN ALARM OFF,
218DD39F-0BF1-4F60-8F9D-2607282A900E,2015-12-28 07:40:41.8530000,1,FT_300_8_AL_VAR: VARIATIE ALARM IN ALARM ON,
218DD39F-0BF1-4F60-8F9D-2607282A900E,2015-12-28 07:40:56.6410000,2,FT_300_8_AL_VAR: VARIATIE ALARM IN ALARM OFF,
218DD39F-0BF1-4F60-8F9D-2607282A900E,2015-12-28 07:48:08.6500000,1,FT_300_8_AL_VAR: VARIATIE ALARM IN ALARM ON,
218DD39F-0BF1-4F60-8F9D-2607282A900E,2015-12-28 07:48:24.8690000,2,FT_300_8_AL_VAR: VARIATIE ALARM IN ALARM OFF,
218DD39F-0BF1-4F60-8F9D-2607282A900E,2015-12-28 08:13:17.8630000,1,FT_300_8_AL_VAR: VARIATIE ALARM IN ALARM ON,
218DD39F-0BF1-4F60-8F9D-2607282A900E,2015-12-28 08:13:32.2410000,2,FT_300_8_AL_VAR: VARIATIE ALARM IN ALARM OFF,
B16CAB58-72BD-4B8D-9728-148BA21A6181,2015-12-28 13:19:34.6360000,1,FT_300_9_AL_VAR: VARIATIE ALARM IN ALARM ON,
B16CAB58-72BD-4B8D-9728-148BA21A6181,2015-12-28 13:19:56.5580000,2,FT_300_9_AL_VAR: VARIATIE ALARM IN ALARM OFF,
A1CC4594-4CE7-4B69-8FD7-51A294F3136D,2015-12-29 03:36:59.3140000,1,FT_300_5_AL_VAR: VARIATIE ALARM IN ALARM ON,
A1CC4594-4CE7-4B69-8FD7-51A294F3136D,2015-12-29 03:37:15.3160000,2,FT_300_5_AL_VAR: VARIATIE ALARM IN ALARM OFF,
7947F5DA-C5B4-4F9F-9E10-8E4C6729A45A,2015-12-29 07:27:58.4940000,1,FT_250_1_AL_VAR: VARIATIE ALARM IN SIMULATIE ON,
7947F5DA-C5B4-4F9F-9E10-8E4C6729A45A,2015-12-29 07:31:02.0900000,2,FT_250_1_AL_VAR: VARIATIE ALARM IN SIMULATIE OFF,
06501683-118A-4F4B-840A-2AF1BE549D0B,2015-12-29 07:56:26.1310000,1,FT_250_1_AL_VAR: VARIATIE ALARM IN ALARM ON,
06501683-118A-4F4B-840A-2AF1BE549D0B,2015-12-29 07:56:36.1310000,2,FT_250_1_AL_VAR: VARIATIE ALARM IN ALARM OFF,
B16CAB58-72BD-4B8D-9728-148BA21A6181,2015-12-30 13:55:57.6960000,1,FT_300_9_AL_VAR: VARIATIE ALARM IN ALARM ON,
B16CAB58-72BD-4B8D-9728-148BA21A6181,2015-12-30 13:56:19.5310000,2,FT_300_9_AL_VAR: VARIATIE ALARM IN ALARM OFF,
06501683-118A-4F4B-840A-2AF1BE549D0B,2015-12-30 15:09:04.5950000,1,FT_250_1_AL_VAR: VARIATIE ALARM IN ALARM ON,
06501683-118A-4F4B-840A-2AF1BE549D0B,2015-12-30 15:09:17.7300000,2,FT_250_1_AL_VAR: VARIATIE ALARM IN ALARM OFF,
06501683-118A-4F4B-840A-2AF1BE549D0B,2015-12-31 09:41:02.7330000,1,FT_250_1_AL_VAR: VARIATIE ALARM IN ALARM ON,
06501683-118A-4F4B-840A-2AF1BE549D0B,2015-12-31 09:41:14.7030000,2,FT_250_1_AL_VAR: VARIATIE ALARM IN ALARM OFF,
8CCA03D1-EAD1-4216-BBE9-4DCD1EDBEE9C,2016-01-01 13:17:43.7800000,1,XV_250_1_045: AFSLUITER STEIGER 623 IN ALARM ON,
8CCA03D1-EAD1-4216-BBE9-4DCD1EDBEE9C,2016-01-01 13:17:58.3770000,2,XV_250_1_045: AFSLUITER STEIGER 623 IN ALARM OFF,
A1CC4594-4CE7-4B69-8FD7-51A294F3136D,2015-11-16 22:15:17.8010000,1,FT_300_5_AL_VAR: VARIATIE ALARM IN ALARM ON,
A1CC4594-4CE7-4B69-8FD7-51A294F3136D,2015-11-16 22:15:34.5100000,2,FT_300_5_AL_VAR: VARIATIE ALARM IN ALARM OFF,
D60C95BC-22DB-407F-A896-DBB796519FDC,2015-11-16 22:49:26.5190000,1,FT_250_3_AL_INIT: INITIALISATIE ALARM IN ALARM ON,
8D4D273E-81D8-4D39-B3A1-DDB7AE18CCFA,2015-11-16 22:49:26.5190000,1,FT_250_3_AL_VAR: VARIATIE ALARM IN ALARM ON,
D60C95BC-22DB-407F-A896-DBB796519FDC,2015-11-16 22:49:34.8060000,2,FT_250_3_AL_INIT: INITIALISATIE ALARM IN ALARM OFF,
8D4D273E-81D8-4D39-B3A1-DDB7AE18CCFA,2015-11-16 22:49:34.8060000,2,FT_250_3_AL_VAR: VARIATIE ALARM IN ALARM OFF,
D33966D3-B73E-4ACF-AAB3-193210742066,2015-11-19 08:15:59.1790000,1,FT_250_3_AL_INIT: INITIALISATIE ALARM IN ALARM ON,
C9F9161E-3BF4-4E40-84E7-A4815990A6D2,2015-11-19 08:15:59.1790000,1,FT_250_3_AL_VAR: VARIATIE ALARM IN ALARM ON,
D33966D3-B73E-4ACF-AAB3-193210742066,2015-11-19 08:16:11.1580000,2,FT_250_3_AL_INIT: INITIALISATIE ALARM IN ALARM OFF,
C9F9161E-3BF4-4E40-84E7-A4815990A6D2,2015-11-19 08:16:11.1580000,2,FT_250_3_AL_VAR: VARIATIE ALARM IN ALARM OFF,
9F5F8B2B-FA30-4122-BED5-2C9504557371,2015-11-20 09:10:00.5280000,1,XV_300_4_010: AFSLUITER STEIGER 623 IN HAND ON,
CA757A2E-08BD-4861-B242-3430D22EFE92,2015-11-20 10:16:39.5360000,1,TT_300_4_004: TEMPERATUURMETING PRODUCT TANK 300_4 MEETFOUT ON,
F9C32327-39C4-48E2-B12E-95DE3D3EBCA5,2015-11-20 10:16:39.5360000,1,PT_300_4_007: DRUKMETING LAADARM TANK 300_4 MEETFOUT ON,
62EFB83D-EBF5-4D81-9C64-116618C22B79,2015-11-20 10:16:39.5360000,1,TT_300_5_004: TEMPERATUURMETING PRODUCT TANK 300_5 MEETFOUT ON,
8DD53B3E-2318-44F7-8D9D-BB323570426D,2015-11-20 10:16:39.5360000,1,PT_300_5_007: DRUKMETING LAADARM TANK 300_5 MEETFOUT ON,
3B4FC14D-141E-401C-B415-D72FDE8DAF73,2015-11-20 10:16:39.5360000,1,TT_250_1_004: TEMPERATUURMETING PRODUCT TANK 250_1 MEETFOUT ON,
0C65235F-25B3-4A8F-B5C7-DD23F57CB32E,2015-11-20 10:16:39.5360000,1,TT_250_2_004: TEMPERATUURMETING PRODUCT TANK 250_2 MEETFOUT ON,
FB909180-8D63-475D-80BC-A091217295D7,2015-11-20 10:16:39.5360000,1,TT_250_3_004: TEMPERATUURMETING PRODUCT TANK 250_3 MEETFOUT ON,
1864928C-BE60-4FC3-B68B-C5FE86D1A964,2015-11-20 10:16:39.6280000,1,XV_300_4_006: AFSLUITER PRODUCT TANK 300_4 IN ALARM ON,
894BBAB8-ADAE-47C8-8CA1-18732A4B0841,2015-11-20 10:16:39.5480000,1,XV_300_5_006: AFSLUITER PRODUCT TANK 300_5 IN ALARM ON,
7349B0DD-3AA7-4B0B-AF8D-A1790483AB58,2015-11-20 10:16:39.6430000,1,TT_300_8_004: TEMPERATUURMETING PRODUCT TANK 300_8 MEETFOUT ON,
44A46CFF-A69D-437D-848E-812842704BF2,2015-11-20 10:16:39.6430000,1,TT_300_9_004: TEMPERATUURMETING PRODUCT TANK 300_9 MEETFOUT ON,
25F773CC-9D09-4AF0-AA0D-A4C874D05560,2015-11-20 10:16:39.6430000,1,PT_300_9_007: DRUKMETING LAADARM TANK 300_9 MEETFOUT ON,
7E4A22D2-CE52-44F8-A25D-B34BCAAC8CB1,2015-11-20 10:16:39.6430000,1,TT_300_10_004: TEMPERATUURMETING PRODUCT TANK 30010 MEETFOUT ON,
FAE58C04-5847-4CEB-8C2F-BC1C55CF1E1F,2015-11-20 10:16:39.6430000,1,PT_300_10_007: DRUKMETING LAADARM TANK 300_10 MEETFOUT ON,
4C3DD6FC-266B-4BE0-B038-E4797B2C1A3F,2015-11-20 10:16:40.4350000,1,XV_250_3_010: AFSLUITER STEIGER 623 IN ALARM ON,
60489EBD-B001-4F18-BA31-EA2AB2642AC4,2015-11-20 10:16:40.4360000,1,XV_300_10_010: AFSLUITER STEIGER 623 IN ALARM ON,
9A69A480-A0C7-46BA-B9B6-BD4AA52C3D05,2015-11-20 10:16:42.4370000,1,XV_300_9_010: AFSLUITER STEIGER 623 IN ALARM ON,
90E44945-A222-41FE-9659-288C03645871,2015-11-20 10:16:43.4380000,1,XV_300_8_010: AFSLUITER STEIGER 623 IN ALARM ON,
9FD6690A-94EE-45C6-8341-33C6AF96C8BB,2015-11-20 10:16:43.5430000,1,XV_250_2_010: AFSLUITER STEIGER 623 IN ALARM ON,
579CB275-907E-449A-973D-D58107FF57A2,2015-11-20 10:16:44.3930000,1,XV_250_1_010: AFSLUITER STEIGER 623 IN ALARM ON,
B7B6BAEA-7EC5-43A0-9F4D-CF3081A6EE84,2015-11-20 10:17:00.5340000,1,PT_300_5_007: DRUKMETING LAADARM TANK 300_5 HOOG HOOG ALARM ON,
FD8348FF-CFFE-4ABD-94BD-C35F0BB2A91D,2015-11-20 10:17:00.5340000,1,PT_300_5_007: DRUKMETING LAADARM TANK 300_5 HOOG ALARM ON,
CA757A2E-08BD-4861-B242-3430D22EFE92,2015-11-20 11:03:07.4440000,2,TT_300_4_004: TEMPERATUURMETING PRODUCT TANK 300_4 MEETFOUT OFF,
F9C32327-39C4-48E2-B12E-95DE3D3EBCA5,2015-11-20 11:03:07.4440000,2,PT_300_4_007: DRUKMETING LAADARM TANK 300_4 MEETFOUT OFF,
62EFB83D-EBF5-4D81-9C64-116618C22B79,2015-11-20 11:03:07.4440000,2,TT_300_5_004: TEMPERATUURMETING PRODUCT TANK 300_5 MEETFOUT OFF,
8DD53B3E-2318-44F7-8D9D-BB323570426D,2015-11-20 11:03:07.4440000,2,PT_300_5_007: DRUKMETING LAADARM TANK 300_5 MEETFOUT OFF,
1864928C-BE60-4FC3-B68B-C5FE86D1A964,2015-11-20 11:03:08.5440000,2,XV_300_4_006: AFSLUITER PRODUCT TANK 300_4 IN ALARM OFF,
894BBAB8-ADAE-47C8-8CA1-18732A4B0841,2015-11-20 11:03:08.5440000,2,XV_300_5_006: AFSLUITER PRODUCT TANK 300_5 IN ALARM OFF,
7349B0DD-3AA7-4B0B-AF8D-A1790483AB58,2015-11-20 11:03:08.6640000,2,TT_300_8_004: TEMPERATUURMETING PRODUCT TANK 300_8 MEETFOUT OFF,
44A46CFF-A69D-437D-848E-812842704BF2,2015-11-20 11:03:08.6640000,2,TT_300_9_004: TEMPERATUURMETING PRODUCT TANK 300_9 MEETFOUT OFF,
25F773CC-9D09-4AF0-AA0D-A4C874D05560,2015-11-20 11:03:08.6650000,2,PT_300_9_007: DRUKMETING LAADARM TANK 300_9 MEETFOUT OFF,
7E4A22D2-CE52-44F8-A25D-B34BCAAC8CB1,2015-11-20 11:03:08.6650000,2,TT_300_10_004: TEMPERATUURMETING PRODUCT TANK 30010 MEETFOUT OFF,
FAE58C04-5847-4CEB-8C2F-BC1C55CF1E1F,2015-11-20 11:03:08.6650000,2,PT_300_10_007: DRUKMETING LAADARM TANK 300_10 MEETFOUT OFF,
3B4FC14D-141E-401C-B415-D72FDE8DAF73,2015-11-20 11:03:08.7420000,2,TT_250_1_004: TEMPERATUURMETING PRODUCT TANK 250_1 MEETFOUT OFF,
0C65235F-25B3-4A8F-B5C7-DD23F57CB32E,2015-11-20 11:03:08.7420000,2,TT_250_2_004: TEMPERATUURMETING PRODUCT TANK 250_2 MEETFOUT OFF,
FB909180-8D63-475D-80BC-A091217295D7,2015-11-20 11:03:08.7420000,2,TT_250_3_004: TEMPERATUURMETING PRODUCT TANK 250_3 MEETFOUT OFF,
579CB275-907E-449A-973D-D58107FF57A2,2015-11-20 11:03:11.5430000,2,XV_250_1_010: AFSLUITER STEIGER 623 IN ALARM OFF,
90E44945-A222-41FE-9659-288C03645871,2015-11-20 11:03:11.6480000,2,XV_300_8_010: AFSLUITER STEIGER 623 IN ALARM OFF,
9FD6690A-94EE-45C6-8341-33C6AF96C8BB,2015-11-20 11:03:14.5430000,2,XV_250_2_010: AFSLUITER STEIGER 623 IN ALARM OFF,
4C3DD6FC-266B-4BE0-B038-E4797B2C1A3F,2015-11-20 11:03:14.6460000,2,XV_250_3_010: AFSLUITER STEIGER 623 IN ALARM OFF,
9A69A480-A0C7-46BA-B9B6-BD4AA52C3D05,2015-11-20 11:03:16.6480000,2,XV_300_9_010: AFSLUITER STEIGER 623 IN ALARM OFF,
60489EBD-B001-4F18-BA31-EA2AB2642AC4,2015-11-20 11:03:19.6480000,2,XV_300_10_010: AFSLUITER STEIGER 623 IN ALARM OFF,
B7B6BAEA-7EC5-43A0-9F4D-CF3081A6EE84,2015-11-20 11:10:31.4750000,2,PT_300_5_007: DRUKMETING LAADARM TANK 300_5 HOOG HOOG ALARM OFF,
FD8348FF-CFFE-4ABD-94BD-C35F0BB2A91D,2015-11-20 11:10:31.4750000,2,PT_300_5_007: DRUKMETING LAADARM TANK 300_5 HOOG ALARM OFF,
B7B6BAEA-7EC5-43A0-9F4D-CF3081A6EE84,2015-11-20 14:39:33.6290000,1,PT_300_5_007: DRUKMETING LAADARM TANK 300_5 HOOG HOOG ALARM ON,
FD8348FF-CFFE-4ABD-94BD-C35F0BB2A91D,2015-11-20 14:39:33.6290000,1,PT_300_5_007: DRUKMETING LAADARM TANK 300_5 HOOG ALARM ON,
B7B6BAEA-7EC5-43A0-9F4D-CF3081A6EE84,2015-11-20 14:39:40.1800000,2,PT_300_5_007: DRUKMETING LAADARM TANK 300_5 HOOG HOOG ALARM OFF,
FD8348FF-CFFE-4ABD-94BD-C35F0BB2A91D,2015-11-20 14:39:40.1800000,2,PT_300_5_007: DRUKMETING LAADARM TANK 300_5 HOOG ALARM OFF,
3283C182-94DD-4064-AC69-0CF8B0F0A064,2015-11-24 13:14:51.4230000,1,PT_250_1_007: DRUKMETING LAADARM TANK 250_1 HOOG HOOG ALARM ON,
5754F02A-B251-480A-80BB-E237BBC8741D,2015-11-24 13:14:51.4230000,1,PT_250_1_007: DRUKMETING LAADARM TANK 250_1 HOOG ALARM ON,
3283C182-94DD-4064-AC69-0CF8B0F0A064,2015-11-24 13:15:10.7340000,2,PT_250_1_007: DRUKMETING LAADARM TANK 250_1 HOOG HOOG ALARM OFF,
5754F02A-B251-480A-80BB-E237BBC8741D,2015-11-24 13:15:10.7340000,2,PT_250_1_007: DRUKMETING LAADARM TANK 250_1 HOOG ALARM OFF,
87ACA8E6-A14B-4C61-86EA-43654B96ED15,2015-11-26 09:39:39.6070000,1,FT_300_5_AL_VAR: VARIATIE ALARM IN ALARM ON,
87ACA8E6-A14B-4C61-86EA-43654B96ED15,2015-11-26 09:39:46.1420000,2,FT_300_5_AL_VAR: VARIATIE ALARM IN ALARM OFF,
87ACA8E6-A14B-4C61-86EA-43654B96ED15,2015-11-26 09:47:30.3330000,1,FT_300_5_AL_VAR: VARIATIE ALARM IN ALARM ON,
87ACA8E6-A14B-4C61-86EA-43654B96ED15,2015-11-26 09:51:42.6320000,2,FT_300_5_AL_VAR: VARIATIE ALARM IN ALARM OFF,
CDC90C16-963C-4730-9578-2777CE3E2BC1,2015-11-26 10:02:08.0970000,1,FT_250_1_AL_VAR: VARIATIE ALARM IN ALARM ON,
CDC90C16-963C-4730-9578-2777CE3E2BC1,2015-11-26 10:02:14.4940000,2,FT_250_1_AL_VAR: VARIATIE ALARM IN ALARM OFF,
F77FF924-180E-4166-974E-7654A262075A,2015-11-26 10:06:38.0420000,1,XV_300_5_003: INLAAT AFSLUITER TANK 300_5 IN HAND ON,
F77FF924-180E-4166-974E-7654A262075A,2015-11-26 10:07:20.9790000,2,XV_300_5_003: INLAAT AFSLUITER TANK 300_5 IN HAND OFF,
F77FF924-180E-4166-974E-7654A262075A,2015-11-26 10:08:39.2910000,1,XV_300_5_003: INLAAT AFSLUITER TANK 300_5 IN HAND ON,
F77FF924-180E-4166-974E-7654A262075A,2015-11-26 10:09:52.4750000,2,XV_300_5_003: INLAAT AFSLUITER TANK 300_5 IN HAND OFF,
B16CAB58-72BD-4B8D-9728-148BA21A6181,2015-11-30 07:46:39.1370000,1,FT_300_9_AL_VAR: VARIATIE ALARM IN ALARM ON,
B16CAB58-72BD-4B8D-9728-148BA21A6181,2015-11-30 07:46:52.2450000,2,FT_300_9_AL_VAR: VARIATIE ALARM IN ALARM OFF,
A1CC4594-4CE7-4B69-8FD7-51A294F3136D,2015-11-30 21:40:45.9030000,1,FT_300_5_AL_VAR: VARIATIE ALARM IN ALARM ON,
A1CC4594-4CE7-4B69-8FD7-51A294F3136D,2015-11-30 21:40:50.2800000,2,FT_300_5_AL_VAR: VARIATIE ALARM IN ALARM OFF,
6EC395CB-9EE3-4923-8707-46D9EED75CD4,2015-12-01 21:53:01.5970000,1,TT_300_9_004: TEMPERATUURMETING PRODUCT TANK 300_9 MEETFOUT ON,
59C260B5-3DF1-4523-A661-3F6F4A96C846,2015-12-01 21:53:01.5970000,1,PT_300_9_007: DRUKMETING LAADARM TANK 300_9 MEETFOUT ON,
965652CE-75AE-4CCE-A53E-77FE519E131D,2015-12-01 21:53:01.5980000,1,TT_300_10_004: TEMPERATUURMETING PRODUCT TANK 30010 MEETFOUT ON,
39866C18-1583-4D2C-B042-9244B473B137,2015-12-01 21:53:01.5980000,1,PT_300_10_007: DRUKMETING LAADARM TANK 300_10 MEETFOUT ON,
CD14C818-53F3-4919-B0F3-2EA15E374AA7,2015-12-01 21:53:01.2010000,1,XV_300_4_006: AFSLUITER PRODUCT TANK 300_4 IN ALARM ON,
29A82FB0-784C-4E3A-9DDD-379DD6BD463C,2015-12-01 21:53:01.2010000,1,XV_300_5_006: AFSLUITER PRODUCT TANK 300_5 IN ALARM ON,
EBE7D73B-212B-4AEF-94CB-17E188B7F245,2015-12-01 21:53:01.7370000,1,TT_300_4_004: TEMPERATUURMETING PRODUCT TANK 300_4 MEETFOUT ON,
E5369206-0760-423A-B33E-450D1D7D193E,2015-12-01 21:53:01.7370000,1,PT_300_4_007: DRUKMETING LAADARM TANK 300_4 MEETFOUT ON,
960CCC6F-54BA-4CB1-B22C-0F13517FBA6B,2015-12-01 21:53:01.7370000,1,TT_300_5_004: TEMPERATUURMETING PRODUCT TANK 300_5 MEETFOUT ON,
3672A530-89A9-4B3D-89AF-13DF7B63CDA6,2015-12-01 21:53:01.7370000,1,PT_300_5_007: DRUKMETING LAADARM TANK 300_5 MEETFOUT ON,
83785C3E-25DB-4E64-B92D-C29FC928AE8D,2015-12-01 21:53:01.7370000,1,TT_250_1_004: TEMPERATUURMETING PRODUCT TANK 250_1 MEETFOUT ON,
5BD31B54-9971-495A-947B-2D3AFAF46A87,2015-12-01 21:53:01.7380000,1,TT_250_2_004: TEMPERATUURMETING PRODUCT TANK 250_2 MEETFOUT ON,
7AAEB3D6-E5F7-417F-9B75-AD1C944AFBBA,2015-12-01 21:53:01.7440000,1,TT_250_3_004: TEMPERATUURMETING PRODUCT TANK 250_3 MEETFOUT ON,
F50FEB6F-1CCD-4BD6-A654-C9DAA0467354,2015-12-01 21:53:01.7450000,1,TT_300_8_004: TEMPERATUURMETING PRODUCT TANK 300_8 MEETFOUT ON,
B07C9368-5E9F-427D-9D27-9FEBE0B16190,2015-12-01 21:53:03.3840000,1,XV_250_3_010: AFSLUITER STEIGER 623 IN ALARM ON,
E1891ECB-C813-43C1-ACE8-B4159A5B0774,2015-12-01 21:53:03.3920000,1,XV_300_10_010: AFSLUITER STEIGER 623 IN ALARM ON,
9E9CDE49-5CE8-4C66-8375-6DC0BB3CA45D,2015-12-01 21:53:05.4630000,1,XV_300_5_010: AFSLUITER STEIGER 623 IN ALARM ON,
5C384610-30E0-4AB2-B690-9302C44CAC07,2015-12-01 21:53:05.5680000,1,XV_300_8_010: AFSLUITER STEIGER 623 IN ALARM ON,
AC43A37A-6BD9-45E7-A70A-4C9DC94AD8DD,2015-12-01 21:53:05.5690000,1,XV_300_9_010: AFSLUITER STEIGER 623 IN ALARM ON,
98E3F881-2480-4DEB-A480-93AB3DA8CE9D,2015-12-01 21:53:05.5620000,1,XV_250_2_010: AFSLUITER STEIGER 623 IN ALARM ON,
EBE7D73B-212B-4AEF-94CB-17E188B7F245,2015-12-01 23:07:54.2120000,2,TT_300_4_004: TEMPERATUURMETING PRODUCT TANK 300_4 MEETFOUT OFF,
E5369206-0760-423A-B33E-450D1D7D193E,2015-12-01 23:07:54.2120000,2,PT_300_4_007: DRUKMETING LAADARM TANK 300_4 MEETFOUT OFF,
960CCC6F-54BA-4CB1-B22C-0F13517FBA6B,2015-12-01 23:07:54.2120000,2,TT_300_5_004: TEMPERATUURMETING PRODUCT TANK 300_5 MEETFOUT OFF,
3672A530-89A9-4B3D-89AF-13DF7B63CDA6,2015-12-01 23:07:54.2120000,2,PT_300_5_007: DRUKMETING LAADARM TANK 300_5 MEETFOUT OFF,
59C260B5-3DF1-4523-A661-3F6F4A96C846,2015-12-01 23:07:54.2190000,2,PT_300_9_007: DRUKMETING LAADARM TANK 300_9 MEETFOUT OFF,
39866C18-1583-4D2C-B042-9244B473B137,2015-12-01 23:07:54.2260000,2,PT_300_10_007: DRUKMETING LAADARM TANK 300_10 MEETFOUT OFF,
CD14C818-53F3-4919-B0F3-2EA15E374AA7,2015-12-01 23:07:55.8650000,2,XV_300_4_006: AFSLUITER PRODUCT TANK 300_4 IN ALARM OFF,
29A82FB0-784C-4E3A-9DDD-379DD6BD463C,2015-12-01 23:07:55.8650000,2,XV_300_5_006: AFSLUITER PRODUCT TANK 300_5 IN ALARM OFF,
83785C3E-25DB-4E64-B92D-C29FC928AE8D,2015-12-01 23:07:56.3950000,2,TT_250_1_004: TEMPERATUURMETING PRODUCT TANK 250_1 MEETFOUT OFF,
5BD31B54-9971-495A-947B-2D3AFAF46A87,2015-12-01 23:07:56.3950000,2,TT_250_2_004: TEMPERATUURMETING PRODUCT TANK 250_2 MEETFOUT OFF,
7AAEB3D6-E5F7-417F-9B75-AD1C944AFBBA,2015-12-01 23:07:56.4030000,2,TT_250_3_004: TEMPERATUURMETING PRODUCT TANK 250_3 MEETFOUT OFF,
F50FEB6F-1CCD-4BD6-A654-C9DAA0467354,2015-12-01 23:07:56.4030000,2,TT_300_8_004: TEMPERATUURMETING PRODUCT TANK 300_8 MEETFOUT OFF,
6EC395CB-9EE3-4923-8707-46D9EED75CD4,2015-12-01 23:07:56.4040000,2,TT_300_9_004: TEMPERATUURMETING PRODUCT TANK 300_9 MEETFOUT OFF,
965652CE-75AE-4CCE-A53E-77FE519E131D,2015-12-01 23:07:56.4170000,2,TT_300_10_004: TEMPERATUURMETING PRODUCT TANK 30010 MEETFOUT OFF,
5C384610-30E0-4AB2-B690-9302C44CAC07,2015-12-01 23:07:58.0790000,2,XV_300_8_010: AFSLUITER STEIGER 623 IN ALARM OFF,
0D9A8AFE-D5F4-4879-B81F-9AA9923D7D8C,2015-12-01 23:07:59.0520000,1,TT_250_2_004: TEMPERATUURMETING PRODUCT TANK 250_2 HOOG HOOG ALARM ON,
E3279726-349F-4222-998F-2CFB96C9FBD3,2015-12-01 23:07:59.0520000,1,TT_250_2_004: TEMPERATUURMETING PRODUCT TANK 250_2 HOOG ALARM ON,
9E9CDE49-5CE8-4C66-8375-6DC0BB3CA45D,2015-12-01 23:08:00.2380000,2,XV_300_5_010: AFSLUITER STEIGER 623 IN ALARM OFF,
98E3F881-2480-4DEB-A480-93AB3DA8CE9D,2015-12-01 23:08:02.4150000,2,XV_250_2_010: AFSLUITER STEIGER 623 IN ALARM OFF,
B07C9368-5E9F-427D-9D27-9FEBE0B16190,2015-12-01 23:08:02.4150000,2,XV_250_3_010: AFSLUITER STEIGER 623 IN ALARM OFF,
AC43A37A-6BD9-45E7-A70A-4C9DC94AD8DD,2015-12-01 23:08:04.9470000,2,XV_300_9_010: AFSLUITER STEIGER 623 IN ALARM OFF,
E1891ECB-C813-43C1-ACE8-B4159A5B0774,2015-12-01 23:08:06.9510000,2,XV_300_10_010: AFSLUITER STEIGER 623 IN ALARM OFF,
0D9A8AFE-D5F4-4879-B81F-9AA9923D7D8C,2015-12-01 23:08:13.8490000,2,TT_250_2_004: TEMPERATUURMETING PRODUCT TANK 250_2 HOOG HOOG ALARM OFF,
E3279726-349F-4222-998F-2CFB96C9FBD3,2015-12-01 23:08:13.8490000,2,TT_250_2_004: TEMPERATUURMETING PRODUCT TANK 250_2 HOOG ALARM OFF,
CD14C818-53F3-4919-B0F3-2EA15E374AA7,2015-12-02 00:21:32.0720000,1,XV_300_4_006: AFSLUITER PRODUCT TANK 300_4 IN ALARM ON,
29A82FB0-784C-4E3A-9DDD-379DD6BD463C,2015-12-02 00:21:32.0730000,1,XV_300_5_006: AFSLUITER PRODUCT TANK 300_5 IN ALARM ON,
B07C9368-5E9F-427D-9D27-9FEBE0B16190,2015-12-02 00:21:32.0730000,1,XV_250_3_010: AFSLUITER STEIGER 623 IN ALARM ON,
EBE7D73B-212B-4AEF-94CB-17E188B7F245,2015-12-02 00:21:33.6300000,1,TT_300_4_004: TEMPERATUURMETING PRODUCT TANK 300_4 MEETFOUT ON,
E5369206-0760-423A-B33E-450D1D7D193E,2015-12-02 00:21:33.6300000,1,PT_300_4_007: DRUKMETING LAADARM TANK 300_4 MEETFOUT ON,
960CCC6F-54BA-4CB1-B22C-0F13517FBA6B,2015-12-02 00:21:33.6300000,1,TT_300_5_004: TEMPERATUURMETING PRODUCT TANK 300_5 MEETFOUT ON,
3672A530-89A9-4B3D-89AF-13DF7B63CDA6,2015-12-02 00:21:33.6300000,1,PT_300_5_007: DRUKMETING LAADARM TANK 300_5 MEETFOUT ON,
83785C3E-25DB-4E64-B92D-C29FC928AE8D,2015-12-02 00:21:33.6300000,1,TT_250_1_004: TEMPERATUURMETING PRODUCT TANK 250_1 MEETFOUT ON,
5BD31B54-9971-495A-947B-2D3AFAF46A87,2015-12-02 00:21:33.6300000,1,TT_250_2_004: TEMPERATUURMETING PRODUCT TANK 250_2 MEETFOUT ON,
7AAEB3D6-E5F7-417F-9B75-AD1C944AFBBA,2015-12-02 00:21:33.5250000,1,TT_250_3_004: TEMPERATUURMETING PRODUCT TANK 250_3 MEETFOUT ON,
F50FEB6F-1CCD-4BD6-A654-C9DAA0467354,2015-12-02 00:21:33.5250000,1,TT_300_8_004: TEMPERATUURMETING PRODUCT TANK 300_8 MEETFOUT ON,
6EC395CB-9EE3-4923-8707-46D9EED75CD4,2015-12-02 00:21:33.5270000,1,TT_300_9_004: TEMPERATUURMETING PRODUCT TANK 300_9 MEETFOUT ON,
59C260B5-3DF1-4523-A661-3F6F4A96C846,2015-12-02 00:21:33.5270000,1,PT_300_9_007: DRUKMETING LAADARM TANK 300_9 MEETFOUT ON,
965652CE-75AE-4CCE-A53E-77FE519E131D,2015-12-02 00:21:33.5270000,1,TT_300_10_004: TEMPERATUURMETING PRODUCT TANK 30010 MEETFOUT ON,
39866C18-1583-4D2C-B042-9244B473B137,2015-12-02 00:21:33.5270000,1,PT_300_10_007: DRUKMETING LAADARM TANK 300_10 MEETFOUT ON,
E1891ECB-C813-43C1-ACE8-B4159A5B0774,2015-12-02 00:21:34.2820000,1,XV_300_10_010: AFSLUITER STEIGER 623 IN ALARM ON,
5C384610-30E0-4AB2-B690-9302C44CAC07,2015-12-02 00:21:37.5100000,1,XV_300_8_010: AFSLUITER STEIGER 623 IN ALARM ON,
AC43A37A-6BD9-45E7-A70A-4C9DC94AD8DD,2015-12-02 00:21:37.5100000,1,XV_300_9_010: AFSLUITER STEIGER 623 IN ALARM ON,
9E9CDE49-5CE8-4C66-8375-6DC0BB3CA45D,2015-12-02 00:21:37.4190000,1,XV_300_5_010: AFSLUITER STEIGER 623 IN ALARM ON,
98E3F881-2480-4DEB-A480-93AB3DA8CE9D,2015-12-02 00:21:37.4190000,1,XV_250_2_010: AFSLUITER STEIGER 623 IN ALARM ON,
CD14C818-53F3-4919-B0F3-2EA15E374AA7,2015-12-02 00:44:38.9610000,2,XV_300_4_006: AFSLUITER PRODUCT TANK 300_4 IN ALARM OFF,
EBE7D73B-212B-4AEF-94CB-17E188B7F245,2015-12-02 00:44:39.4960000,2,TT_300_4_004: TEMPERATUURMETING PRODUCT TANK 300_4 MEETFOUT OFF,
E5369206-0760-423A-B33E-450D1D7D193E,2015-12-02 00:44:39.4960000,2,PT_300_4_007: DRUKMETING LAADARM TANK 300_4 MEETFOUT OFF,
5C384610-30E0-4AB2-B690-9302C44CAC07,2015-12-02 00:44:58.6310000,2,XV_300_8_010: AFSLUITER STEIGER 623 IN ALARM OFF,
F50FEB6F-1CCD-4BD6-A654-C9DAA0467354,2015-12-02 00:44:59.1590000,2,TT_300_8_004: TEMPERATUURMETING PRODUCT TANK 300_8 MEETFOUT OFF,
83785C3E-25DB-4E64-B92D-C29FC928AE8D,2015-12-02 00:46:31.6360000,2,TT_250_1_004: TEMPERATUURMETING PRODUCT TANK 250_1 MEETFOUT OFF,
5BD31B54-9971-495A-947B-2D3AFAF46A87,2015-12-02 04:30:13.1720000,2,TT_250_2_004: TEMPERATUURMETING PRODUCT TANK 250_2 MEETFOUT OFF,
98E3F881-2480-4DEB-A480-93AB3DA8CE9D,2015-12-02 04:30:13.2980000,2,XV_250_2_010: AFSLUITER STEIGER 623 IN ALARM OFF,
6EC395CB-9EE3-4923-8707-46D9EED75CD4,2015-12-02 04:30:40.0480000,2,TT_300_9_004: TEMPERATUURMETING PRODUCT TANK 300_9 MEETFOUT OFF,
59C260B5-3DF1-4523-A661-3F6F4A96C846,2015-12-02 04:30:40.0480000,2,PT_300_9_007: DRUKMETING LAADARM TANK 300_9 MEETFOUT OFF,
AC43A37A-6BD9-45E7-A70A-4C9DC94AD8DD,2015-12-02 04:30:41.7710000,2,XV_300_9_010: AFSLUITER STEIGER 623 IN ALARM OFF,
E1891ECB-C813-43C1-ACE8-B4159A5B0774,2015-12-02 04:30:43.8750000,2,XV_300_10_010: AFSLUITER STEIGER 623 IN ALARM OFF,
965652CE-75AE-4CCE-A53E-77FE519E131D,2015-12-02 04:30:44.2980000,2,TT_300_10_004: TEMPERATUURMETING PRODUCT TANK 30010 MEETFOUT OFF,
39866C18-1583-4D2C-B042-9244B473B137,2015-12-02 04:30:44.2980000,2,PT_300_10_007: DRUKMETING LAADARM TANK 300_10 MEETFOUT OFF,
B07C9368-5E9F-427D-9D27-9FEBE0B16190,2015-12-02 04:30:53.8770000,2,XV_250_3_010: AFSLUITER STEIGER 623 IN ALARM OFF,
7AAEB3D6-E5F7-417F-9B75-AD1C944AFBBA,2015-12-02 04:30:53.1550000,2,TT_250_3_004: TEMPERATUURMETING PRODUCT TANK 250_3 MEETFOUT OFF,
960CCC6F-54BA-4CB1-B22C-0F13517FBA6B,2015-12-02 04:31:23.7200000,2,TT_300_5_004: TEMPERATUURMETING PRODUCT TANK 300_5 MEETFOUT OFF,
3672A530-89A9-4B3D-89AF-13DF7B63CDA6,2015-12-02 04:31:23.7200000,2,PT_300_5_007: DRUKMETING LAADARM TANK 300_5 MEETFOUT OFF,
29A82FB0-784C-4E3A-9DDD-379DD6BD463C,2015-12-02 04:31:25.5720000,2,XV_300_5_006: AFSLUITER PRODUCT TANK 300_5 IN ALARM OFF,
9E9CDE49-5CE8-4C66-8375-6DC0BB3CA45D,2015-12-02 04:31:25.5720000,2,XV_300_5_010: AFSLUITER STEIGER 623 IN ALARM OFF,
C42E489A-5DA4-439B-A6E7-96B7B84F28DA,2015-12-02 12:56:43.4410000,1,FT_250_2_AL_VAR: VARIATIE ALARM IN ALARM ON,
C42E489A-5DA4-439B-A6E7-96B7B84F28DA,2015-12-02 12:56:54.3550000,2,FT_250_2_AL_VAR: VARIATIE ALARM IN ALARM OFF,
9263A40F-5627-49AD-B17F-1142771D144E,2015-12-03 07:55:01.2020000,1,XV_250_1_001: HOGE ZUIG AFSLUITER TANK 250_1 IN HAND ON,
065C77AC-C1E7-43CE-ACF8-474B31313F03,2015-12-03 07:55:10.1230000,1,XV_250_1_002: LAGE ZUIG AFSLUITER TANK 250_1 IN HAND ON,
B0ACC39E-F7A1-4B59-8021-349586A3CB5D,2015-12-03 07:56:56.9500000,1,XV_250_1_007: AFSLUITER PRODUCT TANK 250_1 IN HAND ON,
42780061-4C7D-4369-A6B0-5B4B7FF16BA7,2015-12-03 08:30:46.4100000,1,XV_250_1_036: AFSLUITER LAADARM TANK 250_1 IN HAND ON,
42780061-4C7D-4369-A6B0-5B4B7FF16BA7,2015-12-03 08:32:31.2770000,2,XV_250_1_036: AFSLUITER LAADARM TANK 250_1 IN HAND OFF,
9263A40F-5627-49AD-B17F-1142771D144E,2015-12-03 08:32:33.5020000,2,XV_250_1_001: HOGE ZUIG AFSLUITER TANK 250_1 IN HAND OFF,
065C77AC-C1E7-43CE-ACF8-474B31313F03,2015-12-03 08:32:33.5020000,2,XV_250_1_002: LAGE ZUIG AFSLUITER TANK 250_1 IN HAND OFF,
B0ACC39E-F7A1-4B59-8021-349586A3CB5D,2015-12-03 08:32:36.8530000,2,XV_250_1_007: AFSLUITER PRODUCT TANK 250_1 IN HAND OFF,
3F349691-9ABA-4565-9F84-92A2A03FCE1E,2015-12-03 09:29:50.5850000,1,XV_250_3_006: AFSLUITER PRODUCT TANK 250_3 IN ALARM ON,
3F349691-9ABA-4565-9F84-92A2A03FCE1E,2015-12-03 09:30:11.8440000,2,XV_250_3_006: AFSLUITER PRODUCT TANK 250_3 IN ALARM OFF,
3F349691-9ABA-4565-9F84-92A2A03FCE1E,2015-12-03 09:31:07.0440000,1,XV_250_3_006: AFSLUITER PRODUCT TANK 250_3 IN ALARM ON,
3F349691-9ABA-4565-9F84-92A2A03FCE1E,2015-12-03 09:31:20.1580000,2,XV_250_3_006: AFSLUITER PRODUCT TANK 250_3 IN ALARM OFF,
70C2AEED-6E2A-4404-B007-34D915714D1C,2015-12-03 09:32:23.5150000,1,XV_250_3_006: AFSLUITER PRODUCT TANK 250_3 IN SIMULATIE ON,
70C2AEED-6E2A-4404-B007-34D915714D1C,2015-12-03 09:32:38.8010000,2,XV_250_3_006: AFSLUITER PRODUCT TANK 250_3 IN SIMULATIE OFF,
3F349691-9ABA-4565-9F84-92A2A03FCE1E,2015-12-03 09:32:38.8010000,1,XV_250_3_006: AFSLUITER PRODUCT TANK 250_3 IN ALARM ON,
3F349691-9ABA-4565-9F84-92A2A03FCE1E,2015-12-03 09:32:47.5450000,2,XV_250_3_006: AFSLUITER PRODUCT TANK 250_3 IN ALARM OFF,
C596B2EB-9D1C-42CF-B149-828F97F5633E,2015-12-04 09:37:39.0220000,2,XV_300_4_010: AFSLUITER STEIGER 623 IN HAND OFF,
B16CAB58-72BD-4B8D-9728-148BA21A6181,2015-12-04 12:55:01.0580000,1,FT_300_9_AL_VAR: VARIATIE ALARM IN ALARM ON,
B16CAB58-72BD-4B8D-9728-148BA21A6181,2015-12-04 12:55:16.3520000,2,FT_300_9_AL_VAR: VARIATIE ALARM IN ALARM OFF,
B16CAB58-72BD-4B8D-9728-148BA21A6181,2015-12-08 07:25:12.4320000,1,FT_300_9_AL_VAR: VARIATIE ALARM IN ALARM ON,
B16CAB58-72BD-4B8D-9728-148BA21A6181,2015-12-08 07:25:27.7410000,2,FT_300_9_AL_VAR: VARIATIE ALARM IN ALARM OFF,
C42E489A-5DA4-439B-A6E7-96B7B84F28DA,2015-12-08 10:04:44.1110000,1,FT_250_2_AL_VAR: VARIATIE ALARM IN ALARM ON,
C42E489A-5DA4-439B-A6E7-96B7B84F28DA,2015-12-08 10:04:49.9020000,2,FT_250_2_AL_VAR: VARIATIE ALARM IN ALARM OFF,
A1CC4594-4CE7-4B69-8FD7-51A294F3136D,2015-12-08 10:32:00.9520000,1,FT_300_5_AL_VAR: VARIATIE ALARM IN ALARM ON,
A1CC4594-4CE7-4B69-8FD7-51A294F3136D,2015-12-08 10:32:03.8950000,2,FT_300_5_AL_VAR: VARIATIE ALARM IN ALARM OFF,
B16CAB58-72BD-4B8D-9728-148BA21A6181,2015-12-10 10:20:24.2150000,1,FT_300_9_AL_VAR: VARIATIE ALARM IN ALARM ON,
B16CAB58-72BD-4B8D-9728-148BA21A6181,2015-12-10 10:20:41.3500000,2,FT_300_9_AL_VAR: VARIATIE ALARM IN ALARM OFF,
F271022E-6F36-4CB5-86DB-80641690BECF,2015-12-11 10:02:26.9770000,1,XV_250_1_007: AFSLUITER PRODUCT TANK 250_1 IN HAND ON,
83024293-F3A0-4D50-A725-136435EC54F7,2015-12-11 10:02:34.2870000,1,XV_250_1_010: AFSLUITER STEIGER 623 IN HAND ON,
6F0451E2-FC23-44C4-84A9-0379AA84C468,2015-12-11 10:03:34.7480000,1,XV_250_1_045: AFSLUITER STEIGER 623 IN HAND ON,
82BE03FA-A797-4F8C-884F-5D729428ED45,2015-12-11 10:16:00.3610000,1,XV_250_1_003: INLAAT AFSLUITER TANK 250_1 IN HAND ON,
54BED34A-EFAC-4A05-A0A7-89D6D0E37009,2015-12-11 10:16:06.3350000,1,XV_250_1_001: HOGE ZUIG AFSLUITER TANK 250_1 IN HAND ON,
54BED34A-EFAC-4A05-A0A7-89D6D0E37009,2015-12-11 10:16:08.1080000,2,XV_250_1_001: HOGE ZUIG AFSLUITER TANK 250_1 IN HAND OFF,
54BED34A-EFAC-4A05-A0A7-89D6D0E37009,2015-12-11 10:16:16.1560000,1,XV_250_1_001: HOGE ZUIG AFSLUITER TANK 250_1 IN HAND ON,
E722C249-4F00-4F82-943A-5A0ED6F91FA8,2015-12-11 10:16:24.1570000,1,XV_250_1_002: LAGE ZUIG AFSLUITER TANK 250_1 IN HAND ON,
D344C55D-12D3-41B4-B0DD-3D5839B51025,2015-12-11 10:38:20.1850000,1,XV_250_1_036: AFSLUITER LAADARM TANK 250_1 IN HAND ON,
D344C55D-12D3-41B4-B0DD-3D5839B51025,2015-12-11 13:50:47.6960000,2,XV_250_1_036: AFSLUITER LAADARM TANK 250_1 IN HAND OFF,
547659CC-39FE-4EF9-8161-2868B625DC8C,2015-12-11 13:50:58.6170000,1,XV_250_1_030: AFSLUITER LAADARM TANK 250_1 IN HAND ON,
547659CC-39FE-4EF9-8161-2868B625DC8C,2015-12-11 13:53:24.9720000,2,XV_250_1_030: AFSLUITER LAADARM TANK 250_1 IN HAND OFF,
D344C55D-12D3-41B4-B0DD-3D5839B51025,2015-12-11 13:53:26.9930000,1,XV_250_1_036: AFSLUITER LAADARM TANK 250_1 IN HAND ON,
A5F16E3B-227B-4E61-88CA-F4E53BFA4903,2015-12-11 14:36:02.6600000,1,XV_250_1_006: AFSLUITER PRODUCT TANK 250_1 IN HAND ON,
D344C55D-12D3-41B4-B0DD-3D5839B51025,2015-12-11 20:23:51.5970000,2,XV_250_1_036: AFSLUITER LAADARM TANK 250_1 IN HAND OFF,
F271022E-6F36-4CB5-86DB-80641690BECF,2015-12-11 20:23:57.3980000,2,XV_250_1_007: AFSLUITER PRODUCT TANK 250_1 IN HAND OFF,
E722C249-4F00-4F82-943A-5A0ED6F91FA8,2015-12-11 20:24:00.5740000,2,XV_250_1_002: LAGE ZUIG AFSLUITER TANK 250_1 IN HAND OFF,
54BED34A-EFAC-4A05-A0A7-89D6D0E37009,2015-12-11 20:24:04.6110000,2,XV_250_1_001: HOGE ZUIG AFSLUITER TANK 250_1 IN HAND OFF,
82BE03FA-A797-4F8C-884F-5D729428ED45,2015-12-11 20:24:06.8080000,2,XV_250_1_003: INLAAT AFSLUITER TANK 250_1 IN HAND OFF,
A5F16E3B-227B-4E61-88CA-F4E53BFA4903,2015-12-11 20:24:09.0490000,2,XV_250_1_006: AFSLUITER PRODUCT TANK 250_1 IN HAND OFF,
83024293-F3A0-4D50-A725-136435EC54F7,2015-12-11 20:24:10.9920000,2,XV_250_1_010: AFSLUITER STEIGER 623 IN HAND OFF,
6F0451E2-FC23-44C4-84A9-0379AA84C468,2015-12-11 20:24:13.6780000,2,XV_250_1_045: AFSLUITER STEIGER 623 IN HAND OFF,
