F6598956-C2C6-45CD-BB94-4653004B9FB1,2015-11-23 14:27:49.5950000,1,SP_L119_001A: FUNTIONELE STOP DRUKKNOP BOVEN IN ALARM ON,
F6598956-C2C6-45CD-BB94-4653004B9FB1,2015-11-23 14:34:33.0070000,2,SP_L119_001A: FUNTIONELE STOP DRUKKNOP BOVEN IN ALARM OFF,
F6598956-C2C6-45CD-BB94-4653004B9FB1,2015-11-25 10:28:23.6060000,1,SP_L119_001A: FUNTIONELE STOP DRUKKNOP BOVEN IN ALARM ON,
F6598956-C2C6-45CD-BB94-4653004B9FB1,2015-11-25 10:30:34.6860000,2,SP_L119_001A: FUNTIONELE STOP DRUKKNOP BOVEN IN ALARM OFF,
C253BB82-546D-41DB-9F7A-22213F4AB5EF,2015-11-26 11:20:20.4460000,1,SP_L119_001A: FUNTIONELE STOP DRUKKNOP BOVEN IN ALARM ON,
C253BB82-546D-41DB-9F7A-22213F4AB5EF,2015-11-26 11:32:37.8570000,2,SP_L119_001A: FUNTIONELE STOP DRUKKNOP BOVEN IN ALARM OFF,
C253BB82-546D-41DB-9F7A-22213F4AB5EF,2015-11-28 14:02:30.3750000,1,SP_L119_001A: FUNTIONELE STOP DRUKKNOP BOVEN IN ALARM ON,
C253BB82-546D-41DB-9F7A-22213F4AB5EF,2015-11-28 14:19:40.2650000,2,SP_L119_001A: FUNTIONELE STOP DRUKKNOP BOVEN IN ALARM OFF,
