E6BE31E1-31F8-4590-A2AD-9D0D373D3C72,2015-12-27 14:38:54.1480000,1,XV_250_4_010: AFSLUITER STEIGER 623 IN HAND ON,
E6BE31E1-31F8-4590-A2AD-9D0D373D3C72,2015-12-27 14:39:08.1460000,2,XV_250_4_010: AFSLUITER STEIGER 623 IN HAND OFF,
B8C69392-4051-4B2D-9693-B688C7E96038,2016-01-03 09:05:39.3120000,1,XV_623_110: AFSLUITER DAMPRETOUR NAAR TP20 IN SIMULATIE ON,
B8C69392-4051-4B2D-9693-B688C7E96038,2016-01-03 09:05:59.3160000,2,XV_623_110: AFSLUITER DAMPRETOUR NAAR TP20 IN SIMULATIE OFF,
B8C69392-4051-4B2D-9693-B688C7E96038,2016-01-03 09:06:35.3180000,1,XV_623_110: AFSLUITER DAMPRETOUR NAAR TP20 IN SIMULATIE ON,
5ABFFE84-9B1A-4719-8F4F-FDB3B23BB9B4,2016-01-03 09:09:21.3120000,1,XV_623_106: AFSLUITER DAMPRETOUR TP15 TP20 IN SIMULATIE ON,
877E26B7-0179-4A02-9FEE-F55943379C98,2016-01-03 09:09:27.3070000,1,XV_623_106: AFSLUITER DAMPRETOUR TP15 TP20 IN HAND ON,
877E26B7-0179-4A02-9FEE-F55943379C98,2016-01-03 09:09:35.3050000,2,XV_623_106: AFSLUITER DAMPRETOUR TP15 TP20 IN HAND OFF,
5ABFFE84-9B1A-4719-8F4F-FDB3B23BB9B4,2016-01-03 09:11:33.2950000,2,XV_623_106: AFSLUITER DAMPRETOUR TP15 TP20 IN SIMULATIE OFF,
B8C69392-4051-4B2D-9693-B688C7E96038,2016-01-03 15:19:49.1090000,2,XV_623_110: AFSLUITER DAMPRETOUR NAAR TP20 IN SIMULATIE OFF,
0441C324-0003-4104-AF84-1A29547AB69D,2015-11-18 14:32:18.8760000,1,XV_623_101: AFSLUITER PRODUCT TP20 L20_1 IN HAND ON,
B8744EF8-E9CA-45AD-8610-3BC87BC0B08A,2015-11-18 14:32:24.8770000,1,XV_623_102: AFSLUITER PRODUCT TP20 L15_2 IN HAND ON,
B8744EF8-E9CA-45AD-8610-3BC87BC0B08A,2015-11-18 14:40:00.8820000,2,XV_623_102: AFSLUITER PRODUCT TP20 L15_2 IN HAND OFF,
0441C324-0003-4104-AF84-1A29547AB69D,2015-11-18 14:40:03.8830000,2,XV_623_101: AFSLUITER PRODUCT TP20 L20_1 IN HAND OFF,
6BDF3019-69A3-4A2B-B00A-DDC4BFBB7BE4,2015-11-20 10:16:40.4360000,1,XV_250_5_010: AFSLUITER STEIGER 623 IN ALARM ON,
7347DA3E-5AE1-4C6E-898C-1D9D80539330,2015-11-20 10:16:47.4430000,1,XV_250_4_010: AFSLUITER STEIGER 623 IN ALARM ON,
7347DA3E-5AE1-4C6E-898C-1D9D80539330,2015-11-20 10:46:22.6450000,2,XV_250_4_010: AFSLUITER STEIGER 623 IN ALARM OFF,
6BDF3019-69A3-4A2B-B00A-DDC4BFBB7BE4,2015-11-20 10:46:22.6450000,2,XV_250_5_010: AFSLUITER STEIGER 623 IN ALARM OFF,
7347DA3E-5AE1-4C6E-898C-1D9D80539330,2015-11-20 10:46:59.6470000,1,XV_250_4_010: AFSLUITER STEIGER 623 IN ALARM ON,
6BDF3019-69A3-4A2B-B00A-DDC4BFBB7BE4,2015-11-20 10:46:59.6470000,1,XV_250_5_010: AFSLUITER STEIGER 623 IN ALARM ON,
7347DA3E-5AE1-4C6E-898C-1D9D80539330,2015-11-20 11:03:12.6480000,2,XV_250_4_010: AFSLUITER STEIGER 623 IN ALARM OFF,
6BDF3019-69A3-4A2B-B00A-DDC4BFBB7BE4,2015-11-20 11:03:16.6480000,2,XV_250_5_010: AFSLUITER STEIGER 623 IN ALARM OFF,
9F298581-6179-46F0-AF3B-A14F7BD504EB,2015-11-23 08:35:36.7300000,2,XV_625A_112: AFSLUITER PRODUCT NAAR ST625A BUITEN DIENST OFF,
3882F6FD-54C0-464E-B083-905B1891E6FF,2015-11-23 08:35:51.0990000,1,XV_625A_112: AFSLUITER PRODUCT NAAR ST625A IN HAND ON,
BB2ABEC8-5DD5-486C-B78F-B4CDB873B078,2015-11-23 08:36:59.1660000,1,XV_250_5_010: AFSLUITER STEIGER 623 IN HAND ON,
B8744EF8-E9CA-45AD-8610-3BC87BC0B08A,2015-11-23 08:37:06.8350000,1,XV_623_102: AFSLUITER PRODUCT TP20 L15_2 IN HAND ON,
EF969045-A47E-4560-A568-C9D8438DFDAA,2015-11-23 08:39:35.6320000,2,XV_623_107: AFSLUITER PRODUCT TRANSFER LIJN ST623 / ST625A BUITEN DIENST OFF,
510B4057-C3D8-41A6-9F64-93B6E010AD44,2015-11-23 08:39:37.8110000,1,XV_623_107: AFSLUITER PRODUCT TRANSFER LIJN ST623/ST625A IN HAND ON,
CB407B3D-331C-4359-B7C2-B2CA2B62B580,2015-11-23 08:40:25.9830000,1,XV_623_107: AFSLUITER PRODUCT TRANSFER LIJN 623/625A IN ALARM ON,
510B4057-C3D8-41A6-9F64-93B6E010AD44,2015-11-23 08:41:00.9370000,2,XV_623_107: AFSLUITER PRODUCT TRANSFER LIJN ST623/ST625A IN HAND OFF,
CB407B3D-331C-4359-B7C2-B2CA2B62B580,2015-11-23 08:41:00.9370000,2,XV_623_107: AFSLUITER PRODUCT TRANSFER LIJN 623/625A IN ALARM OFF,
3882F6FD-54C0-464E-B083-905B1891E6FF,2015-11-23 08:42:47.2530000,2,XV_625A_112: AFSLUITER PRODUCT NAAR ST625A IN HAND OFF,
9F298581-6179-46F0-AF3B-A14F7BD504EB,2015-11-23 08:42:55.6030000,1,XV_625A_112: AFSLUITER PRODUCT NAAR ST625A BUITEN DIENST ON,
510B4057-C3D8-41A6-9F64-93B6E010AD44,2015-11-23 09:07:43.7800000,1,XV_623_107: AFSLUITER PRODUCT TRANSFER LIJN ST623/ST625A IN HAND ON,
EF969045-A47E-4560-A568-C9D8438DFDAA,2015-11-23 09:09:00.2550000,1,XV_623_107: AFSLUITER PRODUCT TRANSFER LIJN ST623 / ST625A BUITEN DIENST ON,
510B4057-C3D8-41A6-9F64-93B6E010AD44,2015-11-23 09:09:01.3240000,2,XV_623_107: AFSLUITER PRODUCT TRANSFER LIJN ST623/ST625A IN HAND OFF,
B8744EF8-E9CA-45AD-8610-3BC87BC0B08A,2015-11-23 09:09:13.4100000,2,XV_623_102: AFSLUITER PRODUCT TP20 L15_2 IN HAND OFF,
BB2ABEC8-5DD5-486C-B78F-B4CDB873B078,2015-11-23 09:09:15.5110000,2,XV_250_5_010: AFSLUITER STEIGER 623 IN HAND OFF,
CB407B3D-331C-4359-B7C2-B2CA2B62B580,2015-11-23 16:37:43.4380000,1,XV_623_107: AFSLUITER PRODUCT TRANSFER LIJN 623/625A IN ALARM ON,
CB407B3D-331C-4359-B7C2-B2CA2B62B580,2015-11-23 16:38:03.1150000,2,XV_623_107: AFSLUITER PRODUCT TRANSFER LIJN 623/625A IN ALARM OFF,
CB407B3D-331C-4359-B7C2-B2CA2B62B580,2015-11-23 16:39:28.8090000,1,XV_623_107: AFSLUITER PRODUCT TRANSFER LIJN 623/625A IN ALARM ON,
CB407B3D-331C-4359-B7C2-B2CA2B62B580,2015-11-23 16:39:47.9220000,2,XV_623_107: AFSLUITER PRODUCT TRANSFER LIJN 623/625A IN ALARM OFF,
CB407B3D-331C-4359-B7C2-B2CA2B62B580,2015-11-23 16:41:36.3860000,1,XV_623_107: AFSLUITER PRODUCT TRANSFER LIJN 623/625A IN ALARM ON,
CB407B3D-331C-4359-B7C2-B2CA2B62B580,2015-11-23 16:41:46.9470000,2,XV_623_107: AFSLUITER PRODUCT TRANSFER LIJN 623/625A IN ALARM OFF,
CB407B3D-331C-4359-B7C2-B2CA2B62B580,2015-11-23 16:42:26.6180000,1,XV_623_107: AFSLUITER PRODUCT TRANSFER LIJN 623/625A IN ALARM ON,
CB407B3D-331C-4359-B7C2-B2CA2B62B580,2015-11-23 16:42:40.4650000,2,XV_623_107: AFSLUITER PRODUCT TRANSFER LIJN 623/625A IN ALARM OFF,
CB407B3D-331C-4359-B7C2-B2CA2B62B580,2015-11-23 16:43:28.3370000,1,XV_623_107: AFSLUITER PRODUCT TRANSFER LIJN 623/625A IN ALARM ON,
CB407B3D-331C-4359-B7C2-B2CA2B62B580,2015-11-23 16:43:41.4290000,2,XV_623_107: AFSLUITER PRODUCT TRANSFER LIJN 623/625A IN ALARM OFF,
8655E063-B3FD-41E3-9969-FC725C91F606,2015-11-23 16:43:51.4490000,1,XV_625A_111: AFSLUITER DAMPRETOUR NAAR ST625A IN SIMULATIE ON,
CB407B3D-331C-4359-B7C2-B2CA2B62B580,2015-11-23 16:44:11.1800000,1,XV_623_107: AFSLUITER PRODUCT TRANSFER LIJN 623/625A IN ALARM ON,
CB407B3D-331C-4359-B7C2-B2CA2B62B580,2015-11-23 16:44:18.7350000,2,XV_623_107: AFSLUITER PRODUCT TRANSFER LIJN 623/625A IN ALARM OFF,
EF969045-A47E-4560-A568-C9D8438DFDAA,2015-11-23 16:49:05.5890000,2,XV_623_107: AFSLUITER PRODUCT TRANSFER LIJN ST623 / ST625A BUITEN DIENST OFF,
9F298581-6179-46F0-AF3B-A14F7BD504EB,2015-11-23 16:49:33.6410000,2,XV_625A_112: AFSLUITER PRODUCT NAAR ST625A BUITEN DIENST OFF,
8655E063-B3FD-41E3-9969-FC725C91F606,2015-11-23 16:57:45.1750000,2,XV_625A_111: AFSLUITER DAMPRETOUR NAAR ST625A IN SIMULATIE OFF,
8B5FA678-28CB-4D03-9321-EF373D91C3C6,2015-11-24 06:38:13.5510000,2,XV_623_112: AFSLUITER PRODUCT TRANSFER LIJN 623/625A BUITEN DIENST OFF,
FBD880E7-A875-4D5A-AA9E-E4439E0D523B,2015-11-24 06:38:13.5510000,1,XV_623_112: AFSLUITER PRODUCT TRANSFER LIJN 623/625A IN ALARM ON,
8B5FA678-28CB-4D03-9321-EF373D91C3C6,2015-11-24 06:38:57.2580000,1,XV_623_112: AFSLUITER PRODUCT TRANSFER LIJN 623/625A BUITEN DIENST ON,
FBD880E7-A875-4D5A-AA9E-E4439E0D523B,2015-11-24 06:38:57.2580000,2,XV_623_112: AFSLUITER PRODUCT TRANSFER LIJN 623/625A IN ALARM OFF,
8B5FA678-28CB-4D03-9321-EF373D91C3C6,2015-11-24 06:39:28.4400000,2,XV_623_112: AFSLUITER PRODUCT TRANSFER LIJN 623/625A BUITEN DIENST OFF,
FBD880E7-A875-4D5A-AA9E-E4439E0D523B,2015-11-24 06:39:28.4400000,1,XV_623_112: AFSLUITER PRODUCT TRANSFER LIJN 623/625A IN ALARM ON,
8E1941F2-9679-4A52-A590-0172DB9FB7E7,2015-11-24 06:40:32.7900000,1,XV_623_112: AFSLUITER PRODUCT TRANSFER LIJN 623/625A IN SIMULATIE ON,
FBD880E7-A875-4D5A-AA9E-E4439E0D523B,2015-11-24 06:40:32.7900000,2,XV_623_112: AFSLUITER PRODUCT TRANSFER LIJN 623/625A IN ALARM OFF,
3882F6FD-54C0-464E-B083-905B1891E6FF,2015-11-24 06:42:02.9200000,1,XV_625A_112: AFSLUITER PRODUCT NAAR ST625A IN HAND ON,
0441C324-0003-4104-AF84-1A29547AB69D,2015-11-24 06:42:40.8990000,1,XV_623_101: AFSLUITER PRODUCT TP20 L20_1 IN HAND ON,
B8744EF8-E9CA-45AD-8610-3BC87BC0B08A,2015-11-24 06:42:45.4920000,1,XV_623_102: AFSLUITER PRODUCT TP20 L15_2 IN HAND ON,
0D08FFC8-79EB-402F-A19A-9B13A57F30C9,2015-11-24 06:43:13.1890000,1,XV_623_108: AFSLUITER STEIGER 623 IN HAND ON,
EF969045-A47E-4560-A568-C9D8438DFDAA,2015-11-24 13:27:25.5180000,1,XV_623_107: AFSLUITER PRODUCT TRANSFER LIJN ST623 / ST625A BUITEN DIENST ON,
860618A9-9880-46A1-8792-F2F71B26A828,2015-11-25 08:03:28.7340000,1,XV_623_108: AFSLUITER STEIGER 623 IN SIMULATIE ON,
860618A9-9880-46A1-8792-F2F71B26A828,2015-11-25 08:12:47.5810000,2,XV_623_108: AFSLUITER STEIGER 623 IN SIMULATIE OFF,
19654FB2-75B4-41AA-BED2-0C6EA3144C5B,2015-11-25 08:12:47.5810000,1,XV_623_108: AFSLUITER STEIGER 623 IN ALARM ON,
19654FB2-75B4-41AA-BED2-0C6EA3144C5B,2015-11-25 10:21:31.6810000,2,XV_623_108: AFSLUITER STEIGER 623 IN ALARM OFF,
3882F6FD-54C0-464E-B083-905B1891E6FF,2015-11-26 09:13:55.9990000,2,XV_625A_112: AFSLUITER PRODUCT NAAR ST625A IN HAND OFF,
3882F6FD-54C0-464E-B083-905B1891E6FF,2015-11-26 09:13:57.2070000,1,XV_625A_112: AFSLUITER PRODUCT NAAR ST625A IN HAND ON,
9E2FCC41-7751-4A0B-B038-E388BA8C1418,2015-11-28 17:46:04.1310000,2,XV_623_108: AFSLUITER STEIGER 623 IN HAND OFF,
3DCDC9BA-FA90-4A76-AE05-0178AD2C73A3,2015-11-28 17:46:45.6380000,2,XV_623_102: AFSLUITER PRODUCT TP20 L15_2 IN HAND OFF,
C21B111E-9F1C-4421-81E6-6F93FA5B22FF,2015-11-28 17:46:49.7280000,2,XV_623_101: AFSLUITER PRODUCT TP20 L20_1 IN HAND OFF,
B58CFE3F-5D03-4C7B-849A-80A7BFBE94AF,2015-11-28 17:49:19.9180000,2,XV_625A_112: AFSLUITER PRODUCT NAAR ST625A IN HAND OFF,
C7DB1FE0-5EE4-4249-B875-F9ACE62CA199,2015-11-28 18:10:21.5830000,1,XV_250_4_010: AFSLUITER STEIGER 623 IN ALARM ON,
C7DB1FE0-5EE4-4249-B875-F9ACE62CA199,2015-11-28 18:10:51.7300000,2,XV_250_4_010: AFSLUITER STEIGER 623 IN ALARM OFF,
235D8211-0C1F-4065-8E5A-11AC154DEB8D,2015-11-28 18:10:57.7170000,1,XV_250_4_010: AFSLUITER STEIGER 623 IN SIMULATIE ON,
235D8211-0C1F-4065-8E5A-11AC154DEB8D,2015-11-28 18:11:07.4750000,2,XV_250_4_010: AFSLUITER STEIGER 623 IN SIMULATIE OFF,
C7DB1FE0-5EE4-4249-B875-F9ACE62CA199,2015-11-28 18:11:35.7140000,1,XV_250_4_010: AFSLUITER STEIGER 623 IN ALARM ON,
C7DB1FE0-5EE4-4249-B875-F9ACE62CA199,2015-11-28 18:11:43.7170000,2,XV_250_4_010: AFSLUITER STEIGER 623 IN ALARM OFF,
235D8211-0C1F-4065-8E5A-11AC154DEB8D,2015-11-28 18:12:29.7270000,1,XV_250_4_010: AFSLUITER STEIGER 623 IN SIMULATIE ON,
235D8211-0C1F-4065-8E5A-11AC154DEB8D,2015-11-28 18:13:57.7210000,2,XV_250_4_010: AFSLUITER STEIGER 623 IN SIMULATIE OFF,
C7DB1FE0-5EE4-4249-B875-F9ACE62CA199,2015-11-28 18:13:57.7210000,1,XV_250_4_010: AFSLUITER STEIGER 623 IN ALARM ON,
C7DB1FE0-5EE4-4249-B875-F9ACE62CA199,2015-11-28 18:14:05.7370000,2,XV_250_4_010: AFSLUITER STEIGER 623 IN ALARM OFF,
557CBBE4-A0D8-4113-BE6A-2F4284C79285,2015-11-28 18:16:02.2150000,2,XV_623_112: AFSLUITER PRODUCT TRANSFER LIJN 623/625A IN SIMULATIE OFF,
557CBBE4-A0D8-4113-BE6A-2F4284C79285,2015-11-28 18:16:11.1290000,1,XV_623_112: AFSLUITER PRODUCT TRANSFER LIJN 623/625A IN SIMULATIE ON,
B58CFE3F-5D03-4C7B-849A-80A7BFBE94AF,2015-11-28 18:21:03.6450000,1,XV_625A_112: AFSLUITER PRODUCT NAAR ST625A IN HAND ON,
557CBBE4-A0D8-4113-BE6A-2F4284C79285,2015-11-28 18:24:48.9840000,2,XV_623_112: AFSLUITER PRODUCT TRANSFER LIJN 623/625A IN SIMULATIE OFF,
557CBBE4-A0D8-4113-BE6A-2F4284C79285,2015-11-28 18:24:59.9000000,1,XV_623_112: AFSLUITER PRODUCT TRANSFER LIJN 623/625A IN SIMULATIE ON,
B58CFE3F-5D03-4C7B-849A-80A7BFBE94AF,2015-11-28 18:25:08.6380000,2,XV_625A_112: AFSLUITER PRODUCT NAAR ST625A IN HAND OFF,
E6BE31E1-31F8-4590-A2AD-9D0D373D3C72,2015-11-28 18:34:33.8570000,1,XV_250_4_010: AFSLUITER STEIGER 623 IN HAND ON,
C7DB1FE0-5EE4-4249-B875-F9ACE62CA199,2015-11-28 18:34:57.8330000,1,XV_250_4_010: AFSLUITER STEIGER 623 IN ALARM ON,
E6BE31E1-31F8-4590-A2AD-9D0D373D3C72,2015-11-28 18:35:11.8320000,2,XV_250_4_010: AFSLUITER STEIGER 623 IN HAND OFF,
C7DB1FE0-5EE4-4249-B875-F9ACE62CA199,2015-11-28 18:35:11.8320000,2,XV_250_4_010: AFSLUITER STEIGER 623 IN ALARM OFF,
E6BE31E1-31F8-4590-A2AD-9D0D373D3C72,2015-11-28 18:36:01.8320000,1,XV_250_4_010: AFSLUITER STEIGER 623 IN HAND ON,
C7DB1FE0-5EE4-4249-B875-F9ACE62CA199,2015-11-28 18:36:37.1280000,1,XV_250_4_010: AFSLUITER STEIGER 623 IN ALARM ON,
C7DB1FE0-5EE4-4249-B875-F9ACE62CA199,2015-11-28 18:36:49.8340000,2,XV_250_4_010: AFSLUITER STEIGER 623 IN ALARM OFF,
C7DB1FE0-5EE4-4249-B875-F9ACE62CA199,2015-11-28 18:37:15.8380000,1,XV_250_4_010: AFSLUITER STEIGER 623 IN ALARM ON,
235D8211-0C1F-4065-8E5A-11AC154DEB8D,2015-11-28 18:37:41.8360000,1,XV_250_4_010: AFSLUITER STEIGER 623 IN SIMULATIE ON,
C7DB1FE0-5EE4-4249-B875-F9ACE62CA199,2015-11-28 18:37:41.8360000,2,XV_250_4_010: AFSLUITER STEIGER 623 IN ALARM OFF,
E6BE31E1-31F8-4590-A2AD-9D0D373D3C72,2015-11-28 18:41:31.8480000,2,XV_250_4_010: AFSLUITER STEIGER 623 IN HAND OFF,
235D8211-0C1F-4065-8E5A-11AC154DEB8D,2015-11-28 18:48:01.1160000,2,XV_250_4_010: AFSLUITER STEIGER 623 IN SIMULATIE OFF,
C7DB1FE0-5EE4-4249-B875-F9ACE62CA199,2015-11-28 23:48:02.4880000,1,XV_250_4_010: AFSLUITER STEIGER 623 IN ALARM ON,
C7DB1FE0-5EE4-4249-B875-F9ACE62CA199,2015-11-28 23:48:19.9390000,2,XV_250_4_010: AFSLUITER STEIGER 623 IN ALARM OFF,
E6BE31E1-31F8-4590-A2AD-9D0D373D3C72,2015-11-28 23:48:59.2720000,1,XV_250_4_010: AFSLUITER STEIGER 623 IN HAND ON,
235D8211-0C1F-4065-8E5A-11AC154DEB8D,2015-11-28 23:49:03.4790000,1,XV_250_4_010: AFSLUITER STEIGER 623 IN SIMULATIE ON,
E6BE31E1-31F8-4590-A2AD-9D0D373D3C72,2015-11-28 23:50:28.8740000,2,XV_250_4_010: AFSLUITER STEIGER 623 IN HAND OFF,
E6BE31E1-31F8-4590-A2AD-9D0D373D3C72,2015-11-28 23:51:29.0830000,1,XV_250_4_010: AFSLUITER STEIGER 623 IN HAND ON,
E6BE31E1-31F8-4590-A2AD-9D0D373D3C72,2015-11-29 00:02:08.1320000,2,XV_250_4_010: AFSLUITER STEIGER 623 IN HAND OFF,
235D8211-0C1F-4065-8E5A-11AC154DEB8D,2015-11-29 00:02:23.4150000,2,XV_250_4_010: AFSLUITER STEIGER 623 IN SIMULATIE OFF,
9E2FCC41-7751-4A0B-B038-E388BA8C1418,2015-11-29 00:10:11.0330000,1,XV_623_108: AFSLUITER STEIGER 623 IN HAND ON,
C21B111E-9F1C-4421-81E6-6F93FA5B22FF,2015-11-29 00:10:35.0590000,1,XV_623_101: AFSLUITER PRODUCT TP20 L20_1 IN HAND ON,
9E2FCC41-7751-4A0B-B038-E388BA8C1418,2015-11-29 00:11:25.9010000,2,XV_623_108: AFSLUITER STEIGER 623 IN HAND OFF,
C21B111E-9F1C-4421-81E6-6F93FA5B22FF,2015-11-29 00:11:29.3100000,2,XV_623_101: AFSLUITER PRODUCT TP20 L20_1 IN HAND OFF,
714053D9-8404-43B3-A25F-46FAC359974B,2015-12-01 21:53:03.3920000,1,XV_250_5_010: AFSLUITER STEIGER 623 IN ALARM ON,
C7DB1FE0-5EE4-4249-B875-F9ACE62CA199,2015-12-01 22:08:54.9750000,1,XV_250_4_010: AFSLUITER STEIGER 623 IN ALARM ON,
C7DB1FE0-5EE4-4249-B875-F9ACE62CA199,2015-12-01 22:13:35.8000000,2,XV_250_4_010: AFSLUITER STEIGER 623 IN ALARM OFF,
714053D9-8404-43B3-A25F-46FAC359974B,2015-12-01 22:13:35.8000000,2,XV_250_5_010: AFSLUITER STEIGER 623 IN ALARM OFF,
C7DB1FE0-5EE4-4249-B875-F9ACE62CA199,2015-12-01 22:14:11.7850000,1,XV_250_4_010: AFSLUITER STEIGER 623 IN ALARM ON,
714053D9-8404-43B3-A25F-46FAC359974B,2015-12-01 22:14:11.7850000,1,XV_250_5_010: AFSLUITER STEIGER 623 IN ALARM ON,
C7DB1FE0-5EE4-4249-B875-F9ACE62CA199,2015-12-01 23:08:00.2460000,2,XV_250_4_010: AFSLUITER STEIGER 623 IN ALARM OFF,
714053D9-8404-43B3-A25F-46FAC359974B,2015-12-01 23:08:04.9470000,2,XV_250_5_010: AFSLUITER STEIGER 623 IN ALARM OFF,
714053D9-8404-43B3-A25F-46FAC359974B,2015-12-02 00:21:34.2820000,1,XV_250_5_010: AFSLUITER STEIGER 623 IN ALARM ON,
C7DB1FE0-5EE4-4249-B875-F9ACE62CA199,2015-12-02 00:35:17.6240000,1,XV_250_4_010: AFSLUITER STEIGER 623 IN ALARM ON,
C7DB1FE0-5EE4-4249-B875-F9ACE62CA199,2015-12-02 04:33:05.8480000,2,XV_250_4_010: AFSLUITER STEIGER 623 IN ALARM OFF,
714053D9-8404-43B3-A25F-46FAC359974B,2015-12-02 04:33:05.8480000,2,XV_250_5_010: AFSLUITER STEIGER 623 IN ALARM OFF,
557CBBE4-A0D8-4113-BE6A-2F4284C79285,2015-12-07 07:40:08.7020000,2,XV_623_112: AFSLUITER PRODUCT TRANSFER LIJN 623/625A IN SIMULATIE OFF,
C7DB1FE0-5EE4-4249-B875-F9ACE62CA199,2015-12-09 01:03:09.5610000,1,XV_250_4_010: AFSLUITER STEIGER 623 IN ALARM ON,
C7DB1FE0-5EE4-4249-B875-F9ACE62CA199,2015-12-09 01:03:46.2530000,2,XV_250_4_010: AFSLUITER STEIGER 623 IN ALARM OFF,
C7DB1FE0-5EE4-4249-B875-F9ACE62CA199,2015-12-09 01:04:10.7260000,1,XV_250_4_010: AFSLUITER STEIGER 623 IN ALARM ON,
C7DB1FE0-5EE4-4249-B875-F9ACE62CA199,2015-12-09 01:04:17.2730000,2,XV_250_4_010: AFSLUITER STEIGER 623 IN ALARM OFF,
235D8211-0C1F-4065-8E5A-11AC154DEB8D,2015-12-09 01:04:45.6610000,1,XV_250_4_010: AFSLUITER STEIGER 623 IN SIMULATIE ON,
E6BE31E1-31F8-4590-A2AD-9D0D373D3C72,2015-12-09 01:06:36.3390000,1,XV_250_4_010: AFSLUITER STEIGER 623 IN HAND ON,
235D8211-0C1F-4065-8E5A-11AC154DEB8D,2015-12-09 01:06:52.3620000,2,XV_250_4_010: AFSLUITER STEIGER 623 IN SIMULATIE OFF,
C7DB1FE0-5EE4-4249-B875-F9ACE62CA199,2015-12-09 01:06:52.3620000,1,XV_250_4_010: AFSLUITER STEIGER 623 IN ALARM ON,
C7DB1FE0-5EE4-4249-B875-F9ACE62CA199,2015-12-09 01:18:20.3500000,2,XV_250_4_010: AFSLUITER STEIGER 623 IN ALARM OFF,
C7DB1FE0-5EE4-4249-B875-F9ACE62CA199,2015-12-09 01:18:48.3500000,1,XV_250_4_010: AFSLUITER STEIGER 623 IN ALARM ON,
235D8211-0C1F-4065-8E5A-11AC154DEB8D,2015-12-09 01:19:12.3500000,1,XV_250_4_010: AFSLUITER STEIGER 623 IN SIMULATIE ON,
C7DB1FE0-5EE4-4249-B875-F9ACE62CA199,2015-12-09 01:19:12.3500000,2,XV_250_4_010: AFSLUITER STEIGER 623 IN ALARM OFF,
235D8211-0C1F-4065-8E5A-11AC154DEB8D,2015-12-09 01:22:46.3760000,2,XV_250_4_010: AFSLUITER STEIGER 623 IN SIMULATIE OFF,
E6BE31E1-31F8-4590-A2AD-9D0D373D3C72,2015-12-09 01:22:40.6970000,2,XV_250_4_010: AFSLUITER STEIGER 623 IN HAND OFF,
C7DB1FE0-5EE4-4249-B875-F9ACE62CA199,2015-12-09 01:23:17.8380000,1,XV_250_4_010: AFSLUITER STEIGER 623 IN ALARM ON,
C7DB1FE0-5EE4-4249-B875-F9ACE62CA199,2015-12-09 01:23:26.5860000,2,XV_250_4_010: AFSLUITER STEIGER 623 IN ALARM OFF,
235D8211-0C1F-4065-8E5A-11AC154DEB8D,2015-12-09 01:23:35.3550000,1,XV_250_4_010: AFSLUITER STEIGER 623 IN SIMULATIE ON,
70444EDC-4515-41DD-B835-329F7D2D212F,2015-12-09 01:49:48.5820000,1,XV_250_4_010: AFSLUITER STEIGER 623 COMMENTAAR AAN ON,
70444EDC-4515-41DD-B835-329F7D2D212F,2015-12-09 12:41:40.9480000,2,XV_250_4_010: AFSLUITER STEIGER 623 COMMENTAAR AAN OFF,
235D8211-0C1F-4065-8E5A-11AC154DEB8D,2015-12-09 12:42:00.5900000,2,XV_250_4_010: AFSLUITER STEIGER 623 IN SIMULATIE OFF,
721724E5-419C-4133-9906-EE441973422D,2015-12-12 15:36:21.8070000,1,XV_623_110: AFSLUITER DAMPRETOUR NAAR TP20 IN SIMULATIE ON,
721724E5-419C-4133-9906-EE441973422D,2015-12-12 15:36:45.8280000,2,XV_623_110: AFSLUITER DAMPRETOUR NAAR TP20 IN SIMULATIE OFF,
