52A167F0-34AF-4F8C-B7DA-205023B82E5A,2015-12-24 09:21:58.1300000,1,PT_250_4_005: DRUKMETING PRODUCT TANK 250_4 HOOG ALARM ON,
52A167F0-34AF-4F8C-B7DA-205023B82E5A,2015-12-24 13:17:28.6990000,2,PT_250_4_005: DRUKMETING PRODUCT TANK 250_4 HOOG ALARM OFF,
52A167F0-34AF-4F8C-B7DA-205023B82E5A,2015-12-24 14:23:25.7440000,1,PT_250_4_005: DRUKMETING PRODUCT TANK 250_4 HOOG ALARM ON,
52A167F0-34AF-4F8C-B7DA-205023B82E5A,2015-12-24 14:24:05.3190000,2,PT_250_4_005: DRUKMETING PRODUCT TANK 250_4 HOOG ALARM OFF,
05809B4A-D961-4323-8977-1E3ABF60617B,2015-11-18 12:08:11.8210000,1,PT_250_4_005: DRUKMETING PRODUCT TANK 250_4 HOOG ALARM ON,
CCC25B99-54C9-4E49-AC1D-20C56589DADC,2015-11-18 12:09:14.8260000,1,PT_250_4_005: DRUKMETING PRODUCT TANK 250_4 HOOG HOOG ALARM ON,
CCC25B99-54C9-4E49-AC1D-20C56589DADC,2015-11-18 12:09:38.7010000,2,PT_250_4_005: DRUKMETING PRODUCT TANK 250_4 HOOG HOOG ALARM OFF,
05809B4A-D961-4323-8977-1E3ABF60617B,2015-11-18 12:09:38.7010000,2,PT_250_4_005: DRUKMETING PRODUCT TANK 250_4 HOOG ALARM OFF,
CEB3B6C8-27E3-4A1A-88AC-6C6C6194A785,2015-11-20 10:16:39.5360000,1,TT_250_4_004: TEMPERATUURMETING PRODUCT TANK 250_4 MEETFOUT ON,
CEB3B6C8-27E3-4A1A-88AC-6C6C6194A785,2015-11-20 11:12:00.7500000,2,TT_250_4_004: TEMPERATUURMETING PRODUCT TANK 250_4 MEETFOUT OFF,
3ACB2C15-C3D3-473E-93DD-D3D77D0A8848,2015-12-01 21:53:01.2080000,1,XV_250_4_006: AFSLUITER PRODUCT TANK 250_4 IN ALARM ON,
BF1F6A63-C714-4E71-AF32-BD3FD8E5878F,2015-12-01 21:53:01.7440000,1,TT_250_4_004: TEMPERATUURMETING PRODUCT TANK 250_4 MEETFOUT ON,
3ACB2C15-C3D3-473E-93DD-D3D77D0A8848,2015-12-01 23:07:55.8710000,2,XV_250_4_006: AFSLUITER PRODUCT TANK 250_4 IN ALARM OFF,
BF1F6A63-C714-4E71-AF32-BD3FD8E5878F,2015-12-01 23:07:56.4030000,2,TT_250_4_004: TEMPERATUURMETING PRODUCT TANK 250_4 MEETFOUT OFF,
BF1F6A63-C714-4E71-AF32-BD3FD8E5878F,2015-12-02 00:21:33.5250000,1,TT_250_4_004: TEMPERATUURMETING PRODUCT TANK 250_4 MEETFOUT ON,
BF1F6A63-C714-4E71-AF32-BD3FD8E5878F,2015-12-02 04:30:18.2300000,2,TT_250_4_004: TEMPERATUURMETING PRODUCT TANK 250_4 MEETFOUT OFF,
