C93728FE-B6F7-492C-83A0-3FC8F0BD864B,2015-12-23 06:17:58.0900000,1,XV_300_7_003: INLAAT AFSLUITER TANK 300_7 IN HAND ON,
C93728FE-B6F7-492C-83A0-3FC8F0BD864B,2015-12-23 06:20:40.0850000,2,XV_300_7_003: INLAAT AFSLUITER TANK 300_7 IN HAND OFF,
6A10E60E-3887-42C9-8AEC-633E7E73334E,2015-12-23 06:51:17.0710000,1,XV_300_7_001: HOGE ZUIG AFSLUITER TANK 300_7 BUITEN DIENST ON,
445D0553-DC9B-4733-97D6-D05EC3D0A6D6,2015-12-23 06:51:23.6760000,1,XV_300_7_002: LAGE ZUIG AFSLUITER TANK 300_7 BUITEN DIENST ON,
AAA0DCE9-2F63-4F80-9F4D-22479D226CC5,2015-12-23 06:51:29.8840000,1,XV_300_7_007: AFSLUITER PRODUCT TANK 300_7 BUITEN DIENST ON,
8D8CD516-F26E-4248-A76D-5C4696FD808A,2015-12-23 06:51:35.9760000,1,XV_300_7_003: INLAAT AFSLUITER TANK 300_7 BUITEN DIENST ON,
5BAC3D9D-095C-4092-9DE4-70E4C3E86791,2015-12-23 06:51:39.9760000,1,XV_300_7_006: AFSLUITER PRODUCT TANK 300_7 BUITEN DIENST ON,
8D8CD516-F26E-4248-A76D-5C4696FD808A,2015-12-30 12:58:34.9930000,2,XV_300_7_003: INLAAT AFSLUITER TANK 300_7 BUITEN DIENST OFF,
6A10E60E-3887-42C9-8AEC-633E7E73334E,2015-12-30 12:58:37.6800000,2,XV_300_7_001: HOGE ZUIG AFSLUITER TANK 300_7 BUITEN DIENST OFF,
445D0553-DC9B-4733-97D6-D05EC3D0A6D6,2015-12-30 12:58:41.6800000,2,XV_300_7_002: LAGE ZUIG AFSLUITER TANK 300_7 BUITEN DIENST OFF,
5BAC3D9D-095C-4092-9DE4-70E4C3E86791,2015-12-30 12:58:49.6790000,2,XV_300_7_006: AFSLUITER PRODUCT TANK 300_7 BUITEN DIENST OFF,
AAA0DCE9-2F63-4F80-9F4D-22479D226CC5,2015-12-30 12:58:55.6790000,2,XV_300_7_007: AFSLUITER PRODUCT TANK 300_7 BUITEN DIENST OFF,
C93728FE-B6F7-492C-83A0-3FC8F0BD864B,2015-11-17 10:00:30.0090000,1,XV_300_7_003: INLAAT AFSLUITER TANK 300_7 IN HAND ON,
B7DB086B-A451-4076-99C9-F89ED0888CB5,2015-11-17 10:01:46.5590000,1,XV_300_7_001: HOGE ZUIG AFSLUITER TANK 300_7 IN HAND ON,
C93728FE-B6F7-492C-83A0-3FC8F0BD864B,2015-11-17 10:04:41.0100000,2,XV_300_7_003: INLAAT AFSLUITER TANK 300_7 IN HAND OFF,
B7DB086B-A451-4076-99C9-F89ED0888CB5,2015-11-17 10:04:43.4440000,2,XV_300_7_001: HOGE ZUIG AFSLUITER TANK 300_7 IN HAND OFF,
050F2802-1DF6-46B3-97FB-0FDEE5DF9C12,2015-11-20 10:16:39.6420000,1,TT_300_7_004: TEMPERATUURMETING PRODUCT TANK 300_7 MEETFOUT ON,
050F2802-1DF6-46B3-97FB-0FDEE5DF9C12,2015-11-20 11:03:08.6640000,2,TT_300_7_004: TEMPERATUURMETING PRODUCT TANK 300_7 MEETFOUT OFF,
A5B468C2-E672-4A2D-851F-54CB388B638F,2015-11-22 22:03:37.1160000,2,T300_7_ET1: TEMPERATUUR VLOEISTOF ENTIS TANK 300_7 LAAG ALARM OFF,
A5B468C2-E672-4A2D-851F-54CB388B638F,2015-11-22 08:58:37.0410000,1,T300_7_ET1: TEMPERATUUR VLOEISTOF ENTIS TANK 300_7 LAAG ALARM ON,
94845006-9B69-4EC2-8F35-12263EF742AC,2015-11-22 15:37:01.0490000,1,T300_7_ET1: TEMPERATUUR VLOEISTOF ENTIS TANK 300_7 IN SIMULATIE ON,
CF03372B-1A5B-44D7-ADF8-57BEA767AF42,2015-11-22 15:37:11.0530000,1,T300_7_ET1: TEMPERATUUR VLOEISTOF ENTIS TANK 300_7 LAAG LAAG ALARM ON,
94845006-9B69-4EC2-8F35-12263EF742AC,2015-11-22 15:37:38.0570000,2,T300_7_ET1: TEMPERATUUR VLOEISTOF ENTIS TANK 300_7 IN SIMULATIE OFF,
CF03372B-1A5B-44D7-ADF8-57BEA767AF42,2015-11-22 15:52:27.0530000,2,T300_7_ET1: TEMPERATUUR VLOEISTOF ENTIS TANK 300_7 LAAG LAAG ALARM OFF,
DD4C7EAB-433C-451B-9B89-1588249790F7,2015-11-27 19:12:30.8360000,1,T300_7_ET1: TEMPERATUUR VLOEISTOF ENTIS TANK 300_7 LAAG ALARM ON,
3AD2C8BA-F3D0-4D6E-901B-727C8FE1746C,2015-11-28 21:28:51.8600000,1,T300_7_ET1: TEMPERATUUR VLOEISTOF ENTIS TANK 300_7 LAAG LAAG ALARM ON,
3AD2C8BA-F3D0-4D6E-901B-727C8FE1746C,2015-12-01 06:47:15.0650000,2,T300_7_ET1: TEMPERATUUR VLOEISTOF ENTIS TANK 300_7 LAAG LAAG ALARM OFF,
DD4C7EAB-433C-451B-9B89-1588249790F7,2015-12-01 11:13:44.9020000,2,T300_7_ET1: TEMPERATUUR VLOEISTOF ENTIS TANK 300_7 LAAG ALARM OFF,
560D2E6C-B9E1-482A-BEA9-5FFF6BCDF8D5,2015-12-01 21:53:01.2090000,1,XV_300_7_006: AFSLUITER PRODUCT TANK 300_7 IN ALARM ON,
AE695E15-FE56-4CB0-B2CA-B643F0EE40AA,2015-12-01 21:53:01.7450000,1,TT_300_7_004: TEMPERATUURMETING PRODUCT TANK 300_7 MEETFOUT ON,
560D2E6C-B9E1-482A-BEA9-5FFF6BCDF8D5,2015-12-01 23:07:55.8720000,2,XV_300_7_006: AFSLUITER PRODUCT TANK 300_7 IN ALARM OFF,
AE695E15-FE56-4CB0-B2CA-B643F0EE40AA,2015-12-01 23:07:56.4030000,2,TT_300_7_004: TEMPERATUURMETING PRODUCT TANK 300_7 MEETFOUT OFF,
AE695E15-FE56-4CB0-B2CA-B643F0EE40AA,2015-12-02 00:21:33.5250000,1,TT_300_7_004: TEMPERATUURMETING PRODUCT TANK 300_7 MEETFOUT ON,
AE695E15-FE56-4CB0-B2CA-B643F0EE40AA,2015-12-02 00:44:50.4240000,2,TT_300_7_004: TEMPERATUURMETING PRODUCT TANK 300_7 MEETFOUT OFF,
8D8CD516-F26E-4248-A76D-5C4696FD808A,2015-12-03 12:54:25.4610000,1,XV_300_7_003: INLAAT AFSLUITER TANK 300_7 BUITEN DIENST ON,
57AA0C3E-BD1E-4DE2-960E-9D61E259FDED,2015-12-03 12:54:27.6550000,1,XV_300_7_003: INLAAT AFSLUITER TANK 300_7 COMMENTAAR AAN ON,
6A10E60E-3887-42C9-8AEC-633E7E73334E,2015-12-03 12:56:53.7320000,1,XV_300_7_001: HOGE ZUIG AFSLUITER TANK 300_7 BUITEN DIENST ON,
6080554B-A083-4385-880A-9DBD205631FA,2015-12-03 12:56:51.8000000,1,XV_300_7_001: HOGE ZUIG AFSLUITER TANK 300_7 COMMENTAAR AAN ON,
445D0553-DC9B-4733-97D6-D05EC3D0A6D6,2015-12-03 12:57:16.1280000,1,XV_300_7_002: LAGE ZUIG AFSLUITER TANK 300_7 BUITEN DIENST ON,
9CE366EB-FA00-4E7B-A51B-78C6F64560D3,2015-12-03 12:57:18.1230000,1,XV_300_7_002: LAGE ZUIG AFSLUITER TANK 300_7 COMMENTAAR AAN ON,
5BAC3D9D-095C-4092-9DE4-70E4C3E86791,2015-12-03 12:57:46.1590000,1,XV_300_7_006: AFSLUITER PRODUCT TANK 300_7 BUITEN DIENST ON,
C1A58D79-8A13-4F1E-857F-8E61E413CADC,2015-12-03 12:57:44.2110000,1,XV_300_7_006: AFSLUITER PRODUCT TANK 300_7 COMMENTAAR AAN ON,
C79F6DBE-B297-44FA-B4E6-B47EA4148F23,2015-12-03 12:58:08.2370000,1,XV_300_7_007: AFSLUITER PRODUCT TANK 300_7 COMMENTAAR AAN ON,
AAA0DCE9-2F63-4F80-9F4D-22479D226CC5,2015-12-03 12:58:08.2370000,1,XV_300_7_007: AFSLUITER PRODUCT TANK 300_7 BUITEN DIENST ON,
5BAC3D9D-095C-4092-9DE4-70E4C3E86791,2015-12-04 07:37:51.6470000,2,XV_300_7_006: AFSLUITER PRODUCT TANK 300_7 BUITEN DIENST OFF,
AAA0DCE9-2F63-4F80-9F4D-22479D226CC5,2015-12-04 07:37:58.0490000,2,XV_300_7_007: AFSLUITER PRODUCT TANK 300_7 BUITEN DIENST OFF,
C79F6DBE-B297-44FA-B4E6-B47EA4148F23,2015-12-04 07:38:02.4240000,2,XV_300_7_007: AFSLUITER PRODUCT TANK 300_7 COMMENTAAR AAN OFF,
445D0553-DC9B-4733-97D6-D05EC3D0A6D6,2015-12-04 07:38:06.7890000,2,XV_300_7_002: LAGE ZUIG AFSLUITER TANK 300_7 BUITEN DIENST OFF,
9CE366EB-FA00-4E7B-A51B-78C6F64560D3,2015-12-04 07:38:12.0620000,2,XV_300_7_002: LAGE ZUIG AFSLUITER TANK 300_7 COMMENTAAR AAN OFF,
6080554B-A083-4385-880A-9DBD205631FA,2015-12-04 07:38:18.0690000,2,XV_300_7_001: HOGE ZUIG AFSLUITER TANK 300_7 COMMENTAAR AAN OFF,
6A10E60E-3887-42C9-8AEC-633E7E73334E,2015-12-04 07:38:18.0690000,2,XV_300_7_001: HOGE ZUIG AFSLUITER TANK 300_7 BUITEN DIENST OFF,
57AA0C3E-BD1E-4DE2-960E-9D61E259FDED,2015-12-04 07:38:24.0440000,2,XV_300_7_003: INLAAT AFSLUITER TANK 300_7 COMMENTAAR AAN OFF,
8D8CD516-F26E-4248-A76D-5C4696FD808A,2015-12-04 07:38:22.0660000,2,XV_300_7_003: INLAAT AFSLUITER TANK 300_7 BUITEN DIENST OFF,
C1A58D79-8A13-4F1E-857F-8E61E413CADC,2015-12-04 07:58:29.9480000,2,XV_300_7_006: AFSLUITER PRODUCT TANK 300_7 COMMENTAAR AAN OFF,
633B4662-E168-433C-84E0-64F69EEA06E7,2015-12-04 08:08:06.7880000,1,XV_300_7_007: AFSLUITER PRODUCT TANK 300_7 IN ALARM ON,
633B4662-E168-433C-84E0-64F69EEA06E7,2015-12-04 08:08:16.0800000,2,XV_300_7_007: AFSLUITER PRODUCT TANK 300_7 IN ALARM OFF,
9767DA3C-2D25-4A4C-9CBB-A16D670DD80C,2015-12-04 08:20:42.6850000,1,XV_300_7_001: HOGE ZUIG AFSLUITER TANK 300_7 IN ALARM ON,
9767DA3C-2D25-4A4C-9CBB-A16D670DD80C,2015-12-04 08:20:57.9730000,2,XV_300_7_001: HOGE ZUIG AFSLUITER TANK 300_7 IN ALARM OFF,
CFFAF086-FD6F-4A9D-8F52-28BCE1E5FCF9,2015-12-04 08:21:04.5220000,1,XV_300_7_001: HOGE ZUIG AFSLUITER TANK 300_7 IN SIMULATIE ON,
B7DB086B-A451-4076-99C9-F89ED0888CB5,2015-12-04 08:24:18.9890000,1,XV_300_7_001: HOGE ZUIG AFSLUITER TANK 300_7 IN HAND ON,
B7DB086B-A451-4076-99C9-F89ED0888CB5,2015-12-04 08:25:35.7980000,2,XV_300_7_001: HOGE ZUIG AFSLUITER TANK 300_7 IN HAND OFF,
CFFAF086-FD6F-4A9D-8F52-28BCE1E5FCF9,2015-12-04 09:44:03.6470000,2,XV_300_7_001: HOGE ZUIG AFSLUITER TANK 300_7 IN SIMULATIE OFF,
560D2E6C-B9E1-482A-BEA9-5FFF6BCDF8D5,2015-12-05 06:58:38.4560000,1,XV_300_7_006: AFSLUITER PRODUCT TANK 300_7 IN ALARM ON,
560D2E6C-B9E1-482A-BEA9-5FFF6BCDF8D5,2015-12-05 06:58:50.4550000,2,XV_300_7_006: AFSLUITER PRODUCT TANK 300_7 IN ALARM OFF,
C07C50E6-3E2A-40A9-9ED4-158CFD7AB06A,2015-12-05 06:58:48.9920000,1,XV_300_7_006: AFSLUITER PRODUCT TANK 300_7 IN SIMULATIE ON,
C07C50E6-3E2A-40A9-9ED4-158CFD7AB06A,2015-12-05 09:34:26.0060000,2,XV_300_7_006: AFSLUITER PRODUCT TANK 300_7 IN SIMULATIE OFF,
