68AB28F8-9794-47DA-93A5-5FFE6919EA5F,2015-12-16 19:52:48.1330000,2,PDIT_420_03_003: VERSCHILDRUKMETING OVER FLAME ARRESTOR T420_03 HOOG ALARM OFF,
BC7338D6-5C57-41A3-951B-2EA0DA02F94E,2015-12-13 04:26:31.2750000,1,PIT_420_03_002: DRUKMETING TANK T420_03 LAAG ALARM ON,
BC7338D6-5C57-41A3-951B-2EA0DA02F94E,2015-12-13 06:06:08.5460000,2,PIT_420_03_002: DRUKMETING TANK T420_03 LAAG ALARM OFF,
55D2EB59-BB57-4450-AE25-C9E125B8BA74,2015-12-16 09:49:16.9330000,1,PDIT_420_03_003: VERSCHILDRUKMETING OVER FLAME ARRESTOR T420_03 HOOG ALARM ON,
0F576200-68A1-4755-BEC2-42150FF01770,2015-12-16 09:51:39.5470000,1,PDIT_420_03_003: VERSCHILDRUKMETING OVER FLAME ARRESTOR T420_03 HOOG HOOG ALARM ON,
0F576200-68A1-4755-BEC2-42150FF01770,2015-12-16 14:43:51.8710000,2,PDIT_420_03_003: VERSCHILDRUKMETING OVER FLAME ARRESTOR T420_03 HOOG HOOG ALARM OFF,
55D2EB59-BB57-4450-AE25-C9E125B8BA74,2015-12-16 14:44:11.5390000,2,PDIT_420_03_003: VERSCHILDRUKMETING OVER FLAME ARRESTOR T420_03 HOOG ALARM OFF,
E6D42207-D87A-4E9C-A845-0C214504B026,2015-12-16 15:14:42.8170000,1,PDIT_420_03_003: VERSCHILDRUKMETING OVER FLAME ARRESTOR T420_03 HOOG HOOG ALARM ON,
68AB28F8-9794-47DA-93A5-5FFE6919EA5F,2015-12-16 15:14:42.8170000,1,PDIT_420_03_003: VERSCHILDRUKMETING OVER FLAME ARRESTOR T420_03 HOOG ALARM ON,
E6D42207-D87A-4E9C-A845-0C214504B026,2015-12-16 17:35:16.3250000,2,PDIT_420_03_003: VERSCHILDRUKMETING OVER FLAME ARRESTOR T420_03 HOOG HOOG ALARM OFF,
68AB28F8-9794-47DA-93A5-5FFE6919EA5F,2015-12-16 17:35:16.3250000,2,PDIT_420_03_003: VERSCHILDRUKMETING OVER FLAME ARRESTOR T420_03 HOOG ALARM OFF,
68AB28F8-9794-47DA-93A5-5FFE6919EA5F,2015-12-16 17:51:46.5520000,1,PDIT_420_03_003: VERSCHILDRUKMETING OVER FLAME ARRESTOR T420_03 HOOG ALARM ON,
68AB28F8-9794-47DA-93A5-5FFE6919EA5F,2015-12-16 22:25:48.9390000,1,PDIT_420_03_003: VERSCHILDRUKMETING OVER FLAME ARRESTOR T420_03 HOOG ALARM ON,
68AB28F8-9794-47DA-93A5-5FFE6919EA5F,2015-12-16 22:47:55.4200000,2,PDIT_420_03_003: VERSCHILDRUKMETING OVER FLAME ARRESTOR T420_03 HOOG ALARM OFF,
68AB28F8-9794-47DA-93A5-5FFE6919EA5F,2015-12-16 23:02:37.9270000,1,PDIT_420_03_003: VERSCHILDRUKMETING OVER FLAME ARRESTOR T420_03 HOOG ALARM ON,
E6D42207-D87A-4E9C-A845-0C214504B026,2015-12-16 23:15:12.0670000,1,PDIT_420_03_003: VERSCHILDRUKMETING OVER FLAME ARRESTOR T420_03 HOOG HOOG ALARM ON,
E6D42207-D87A-4E9C-A845-0C214504B026,2015-12-17 01:17:04.8200000,2,PDIT_420_03_003: VERSCHILDRUKMETING OVER FLAME ARRESTOR T420_03 HOOG HOOG ALARM OFF,
68AB28F8-9794-47DA-93A5-5FFE6919EA5F,2015-12-17 01:17:09.1990000,2,PDIT_420_03_003: VERSCHILDRUKMETING OVER FLAME ARRESTOR T420_03 HOOG ALARM OFF,
E6D42207-D87A-4E9C-A845-0C214504B026,2015-12-21 13:27:43.1800000,2,PDIT_420_03_003: VERSCHILDRUKMETING OVER FLAME ARRESTOR T420_03 HOOG HOOG ALARM OFF,
68AB28F8-9794-47DA-93A5-5FFE6919EA5F,2015-12-21 13:27:43.1800000,2,PDIT_420_03_003: VERSCHILDRUKMETING OVER FLAME ARRESTOR T420_03 HOOG ALARM OFF,
E6D42207-D87A-4E9C-A845-0C214504B026,2015-12-22 10:28:25.6480000,1,PDIT_420_03_003: VERSCHILDRUKMETING OVER FLAME ARRESTOR T420_03 HOOG HOOG ALARM ON,
68AB28F8-9794-47DA-93A5-5FFE6919EA5F,2015-12-20 04:19:59.7250000,1,PDIT_420_03_003: VERSCHILDRUKMETING OVER FLAME ARRESTOR T420_03 HOOG ALARM ON,
E6D42207-D87A-4E9C-A845-0C214504B026,2015-12-20 04:20:58.3430000,1,PDIT_420_03_003: VERSCHILDRUKMETING OVER FLAME ARRESTOR T420_03 HOOG HOOG ALARM ON,
E6D42207-D87A-4E9C-A845-0C214504B026,2015-12-20 04:28:44.3410000,2,PDIT_420_03_003: VERSCHILDRUKMETING OVER FLAME ARRESTOR T420_03 HOOG HOOG ALARM OFF,
68AB28F8-9794-47DA-93A5-5FFE6919EA5F,2015-12-20 04:28:48.3420000,2,PDIT_420_03_003: VERSCHILDRUKMETING OVER FLAME ARRESTOR T420_03 HOOG ALARM OFF,
68AB28F8-9794-47DA-93A5-5FFE6919EA5F,2015-12-20 04:58:50.3510000,1,PDIT_420_03_003: VERSCHILDRUKMETING OVER FLAME ARRESTOR T420_03 HOOG ALARM ON,
E6D42207-D87A-4E9C-A845-0C214504B026,2015-12-20 05:06:58.3610000,1,PDIT_420_03_003: VERSCHILDRUKMETING OVER FLAME ARRESTOR T420_03 HOOG HOOG ALARM ON,
E6D42207-D87A-4E9C-A845-0C214504B026,2015-12-20 05:13:09.3630000,2,PDIT_420_03_003: VERSCHILDRUKMETING OVER FLAME ARRESTOR T420_03 HOOG HOOG ALARM OFF,
68AB28F8-9794-47DA-93A5-5FFE6919EA5F,2015-12-20 05:13:15.9180000,2,PDIT_420_03_003: VERSCHILDRUKMETING OVER FLAME ARRESTOR T420_03 HOOG ALARM OFF,
68AB28F8-9794-47DA-93A5-5FFE6919EA5F,2015-12-20 05:53:50.3700000,1,PDIT_420_03_003: VERSCHILDRUKMETING OVER FLAME ARRESTOR T420_03 HOOG ALARM ON,
E6D42207-D87A-4E9C-A845-0C214504B026,2015-12-20 05:54:50.3740000,1,PDIT_420_03_003: VERSCHILDRUKMETING OVER FLAME ARRESTOR T420_03 HOOG HOOG ALARM ON,
E6D42207-D87A-4E9C-A845-0C214504B026,2015-12-20 05:59:21.4180000,2,PDIT_420_03_003: VERSCHILDRUKMETING OVER FLAME ARRESTOR T420_03 HOOG HOOG ALARM OFF,
68AB28F8-9794-47DA-93A5-5FFE6919EA5F,2015-12-20 05:59:23.3800000,2,PDIT_420_03_003: VERSCHILDRUKMETING OVER FLAME ARRESTOR T420_03 HOOG ALARM OFF,
68AB28F8-9794-47DA-93A5-5FFE6919EA5F,2015-12-20 07:23:19.5070000,1,PDIT_420_03_003: VERSCHILDRUKMETING OVER FLAME ARRESTOR T420_03 HOOG ALARM ON,
E6D42207-D87A-4E9C-A845-0C214504B026,2015-12-20 07:25:20.8810000,1,PDIT_420_03_003: VERSCHILDRUKMETING OVER FLAME ARRESTOR T420_03 HOOG HOOG ALARM ON,
E6D42207-D87A-4E9C-A845-0C214504B026,2015-12-20 07:28:52.8140000,2,PDIT_420_03_003: VERSCHILDRUKMETING OVER FLAME ARRESTOR T420_03 HOOG HOOG ALARM OFF,
68AB28F8-9794-47DA-93A5-5FFE6919EA5F,2015-12-20 07:28:53.5060000,2,PDIT_420_03_003: VERSCHILDRUKMETING OVER FLAME ARRESTOR T420_03 HOOG ALARM OFF,
68AB28F8-9794-47DA-93A5-5FFE6919EA5F,2015-12-20 07:42:23.5190000,1,PDIT_420_03_003: VERSCHILDRUKMETING OVER FLAME ARRESTOR T420_03 HOOG ALARM ON,
E6D42207-D87A-4E9C-A845-0C214504B026,2015-12-20 07:42:41.5200000,1,PDIT_420_03_003: VERSCHILDRUKMETING OVER FLAME ARRESTOR T420_03 HOOG HOOG ALARM ON,
E6D42207-D87A-4E9C-A845-0C214504B026,2015-12-20 07:49:55.4660000,2,PDIT_420_03_003: VERSCHILDRUKMETING OVER FLAME ARRESTOR T420_03 HOOG HOOG ALARM OFF,
E6D42207-D87A-4E9C-A845-0C214504B026,2015-12-20 08:03:25.5130000,1,PDIT_420_03_003: VERSCHILDRUKMETING OVER FLAME ARRESTOR T420_03 HOOG HOOG ALARM ON,
E6D42207-D87A-4E9C-A845-0C214504B026,2015-12-20 08:10:37.5180000,2,PDIT_420_03_003: VERSCHILDRUKMETING OVER FLAME ARRESTOR T420_03 HOOG HOOG ALARM OFF,
68AB28F8-9794-47DA-93A5-5FFE6919EA5F,2015-12-20 08:10:38.6560000,2,PDIT_420_03_003: VERSCHILDRUKMETING OVER FLAME ARRESTOR T420_03 HOOG ALARM OFF,
68AB28F8-9794-47DA-93A5-5FFE6919EA5F,2015-12-20 08:26:09.1360000,1,PDIT_420_03_003: VERSCHILDRUKMETING OVER FLAME ARRESTOR T420_03 HOOG ALARM ON,
E6D42207-D87A-4E9C-A845-0C214504B026,2015-12-20 08:26:13.5090000,1,PDIT_420_03_003: VERSCHILDRUKMETING OVER FLAME ARRESTOR T420_03 HOOG HOOG ALARM ON,
E6D42207-D87A-4E9C-A845-0C214504B026,2015-12-20 09:00:28.8310000,2,PDIT_420_03_003: VERSCHILDRUKMETING OVER FLAME ARRESTOR T420_03 HOOG HOOG ALARM OFF,
68AB28F8-9794-47DA-93A5-5FFE6919EA5F,2015-12-20 09:00:31.0040000,2,PDIT_420_03_003: VERSCHILDRUKMETING OVER FLAME ARRESTOR T420_03 HOOG ALARM OFF,
68AB28F8-9794-47DA-93A5-5FFE6919EA5F,2015-12-20 09:12:07.7930000,1,PDIT_420_03_003: VERSCHILDRUKMETING OVER FLAME ARRESTOR T420_03 HOOG ALARM ON,
E6D42207-D87A-4E9C-A845-0C214504B026,2015-12-20 09:12:11.8300000,1,PDIT_420_03_003: VERSCHILDRUKMETING OVER FLAME ARRESTOR T420_03 HOOG HOOG ALARM ON,
E6D42207-D87A-4E9C-A845-0C214504B026,2015-12-21 13:10:54.0440000,2,PDIT_420_03_003: VERSCHILDRUKMETING OVER FLAME ARRESTOR T420_03 HOOG HOOG ALARM OFF,
68AB28F8-9794-47DA-93A5-5FFE6919EA5F,2015-12-21 13:11:00.6030000,2,PDIT_420_03_003: VERSCHILDRUKMETING OVER FLAME ARRESTOR T420_03 HOOG ALARM OFF,
68AB28F8-9794-47DA-93A5-5FFE6919EA5F,2015-12-21 13:11:44.2800000,1,PDIT_420_03_003: VERSCHILDRUKMETING OVER FLAME ARRESTOR T420_03 HOOG ALARM ON,
E6D42207-D87A-4E9C-A845-0C214504B026,2015-12-21 13:11:46.4910000,1,PDIT_420_03_003: VERSCHILDRUKMETING OVER FLAME ARRESTOR T420_03 HOOG HOOG ALARM ON,
E6D42207-D87A-4E9C-A845-0C214504B026,2015-12-21 13:14:58.6820000,2,PDIT_420_03_003: VERSCHILDRUKMETING OVER FLAME ARRESTOR T420_03 HOOG HOOG ALARM OFF,
68AB28F8-9794-47DA-93A5-5FFE6919EA5F,2015-12-21 13:15:00.8710000,2,PDIT_420_03_003: VERSCHILDRUKMETING OVER FLAME ARRESTOR T420_03 HOOG ALARM OFF,
68AB28F8-9794-47DA-93A5-5FFE6919EA5F,2015-12-21 13:26:28.8980000,1,PDIT_420_03_003: VERSCHILDRUKMETING OVER FLAME ARRESTOR T420_03 HOOG ALARM ON,
E6D42207-D87A-4E9C-A845-0C214504B026,2015-12-21 13:26:29.1710000,1,PDIT_420_03_003: VERSCHILDRUKMETING OVER FLAME ARRESTOR T420_03 HOOG HOOG ALARM ON,
68AB28F8-9794-47DA-93A5-5FFE6919EA5F,2015-12-21 13:34:34.5460000,1,PDIT_420_03_003: VERSCHILDRUKMETING OVER FLAME ARRESTOR T420_03 HOOG ALARM ON,
E6D42207-D87A-4E9C-A845-0C214504B026,2015-12-21 15:35:40.8860000,1,PDIT_420_03_003: VERSCHILDRUKMETING OVER FLAME ARRESTOR T420_03 HOOG HOOG ALARM ON,
E6D42207-D87A-4E9C-A845-0C214504B026,2015-12-21 15:46:36.4080000,2,PDIT_420_03_003: VERSCHILDRUKMETING OVER FLAME ARRESTOR T420_03 HOOG HOOG ALARM OFF,
68AB28F8-9794-47DA-93A5-5FFE6919EA5F,2015-12-21 15:50:06.4050000,2,PDIT_420_03_003: VERSCHILDRUKMETING OVER FLAME ARRESTOR T420_03 HOOG ALARM OFF,
68AB28F8-9794-47DA-93A5-5FFE6919EA5F,2015-12-22 05:31:09.3870000,1,PDIT_420_03_003: VERSCHILDRUKMETING OVER FLAME ARRESTOR T420_03 HOOG ALARM ON,
E6D42207-D87A-4E9C-A845-0C214504B026,2015-12-22 05:31:19.3580000,1,PDIT_420_03_003: VERSCHILDRUKMETING OVER FLAME ARRESTOR T420_03 HOOG HOOG ALARM ON,
E6D42207-D87A-4E9C-A845-0C214504B026,2015-12-22 05:37:01.3410000,2,PDIT_420_03_003: VERSCHILDRUKMETING OVER FLAME ARRESTOR T420_03 HOOG HOOG ALARM OFF,
68AB28F8-9794-47DA-93A5-5FFE6919EA5F,2015-12-22 05:37:03.3400000,2,PDIT_420_03_003: VERSCHILDRUKMETING OVER FLAME ARRESTOR T420_03 HOOG ALARM OFF,
F48ABE23-E894-45C6-BD85-A0E1680B1B48,2015-12-22 06:11:55.1590000,1,PDIT_420_03_003: VERSCHILDRUKMETING OVER FLAME ARRESTOR T420_03 COMMENTAAR AAN ON,
68AB28F8-9794-47DA-93A5-5FFE6919EA5F,2015-12-22 09:48:37.7140000,1,PDIT_420_03_003: VERSCHILDRUKMETING OVER FLAME ARRESTOR T420_03 HOOG ALARM ON,
E6D42207-D87A-4E9C-A845-0C214504B026,2015-12-22 09:49:42.6120000,1,PDIT_420_03_003: VERSCHILDRUKMETING OVER FLAME ARRESTOR T420_03 HOOG HOOG ALARM ON,
E6D42207-D87A-4E9C-A845-0C214504B026,2015-12-22 10:03:28.2860000,2,PDIT_420_03_003: VERSCHILDRUKMETING OVER FLAME ARRESTOR T420_03 HOOG HOOG ALARM OFF,
68AB28F8-9794-47DA-93A5-5FFE6919EA5F,2015-12-22 10:05:07.2870000,2,PDIT_420_03_003: VERSCHILDRUKMETING OVER FLAME ARRESTOR T420_03 HOOG ALARM OFF,
68AB28F8-9794-47DA-93A5-5FFE6919EA5F,2015-12-22 10:21:00.0450000,1,PDIT_420_03_003: VERSCHILDRUKMETING OVER FLAME ARRESTOR T420_03 HOOG ALARM ON,
E6D42207-D87A-4E9C-A845-0C214504B026,2015-12-22 14:13:35.9140000,2,PDIT_420_03_003: VERSCHILDRUKMETING OVER FLAME ARRESTOR T420_03 HOOG HOOG ALARM OFF,
68AB28F8-9794-47DA-93A5-5FFE6919EA5F,2015-12-22 14:13:35.9140000,2,PDIT_420_03_003: VERSCHILDRUKMETING OVER FLAME ARRESTOR T420_03 HOOG ALARM OFF,
F48ABE23-E894-45C6-BD85-A0E1680B1B48,2015-12-22 14:28:39.7940000,2,PDIT_420_03_003: VERSCHILDRUKMETING OVER FLAME ARRESTOR T420_03 COMMENTAAR AAN OFF,
BC7338D6-5C57-41A3-951B-2EA0DA02F94E,2015-11-21 18:32:29.8570000,1,PIT_420_03_002: DRUKMETING TANK T420_03 LAAG ALARM ON,
BC7338D6-5C57-41A3-951B-2EA0DA02F94E,2015-11-21 21:17:38.6320000,2,PIT_420_03_002: DRUKMETING TANK T420_03 LAAG ALARM OFF,
BC7338D6-5C57-41A3-951B-2EA0DA02F94E,2015-11-22 22:51:07.8760000,1,PIT_420_03_002: DRUKMETING TANK T420_03 LAAG ALARM ON,
BC7338D6-5C57-41A3-951B-2EA0DA02F94E,2015-11-22 09:59:43.9160000,1,PIT_420_03_002: DRUKMETING TANK T420_03 LAAG ALARM ON,
BC7338D6-5C57-41A3-951B-2EA0DA02F94E,2015-11-22 11:32:45.1140000,2,PIT_420_03_002: DRUKMETING TANK T420_03 LAAG ALARM OFF,
55D2EB59-BB57-4450-AE25-C9E125B8BA74,2015-11-24 06:05:37.6820000,2,PDIT_420_03_003: VERSCHILDRUKMETING OVER FLAME ARRESTOR T420_03 HOOG ALARM OFF,
55D2EB59-BB57-4450-AE25-C9E125B8BA74,2015-11-24 07:22:45.0870000,2,PDIT_420_03_003: VERSCHILDRUKMETING OVER FLAME ARRESTOR T420_03 HOOG ALARM OFF,
BC7338D6-5C57-41A3-951B-2EA0DA02F94E,2015-11-23 03:45:13.2030000,2,PIT_420_03_002: DRUKMETING TANK T420_03 LAAG ALARM OFF,
BC7338D6-5C57-41A3-951B-2EA0DA02F94E,2015-11-23 16:57:19.2690000,1,PIT_420_03_002: DRUKMETING TANK T420_03 LAAG ALARM ON,
BC7338D6-5C57-41A3-951B-2EA0DA02F94E,2015-11-23 17:55:50.4900000,2,PIT_420_03_002: DRUKMETING TANK T420_03 LAAG ALARM OFF,
55D2EB59-BB57-4450-AE25-C9E125B8BA74,2015-11-24 06:04:59.8810000,1,PDIT_420_03_003: VERSCHILDRUKMETING OVER FLAME ARRESTOR T420_03 HOOG ALARM ON,
55D2EB59-BB57-4450-AE25-C9E125B8BA74,2015-11-24 07:22:15.6440000,1,PDIT_420_03_003: VERSCHILDRUKMETING OVER FLAME ARRESTOR T420_03 HOOG ALARM ON,
55D2EB59-BB57-4450-AE25-C9E125B8BA74,2015-11-24 07:26:35.9820000,1,PDIT_420_03_003: VERSCHILDRUKMETING OVER FLAME ARRESTOR T420_03 HOOG ALARM ON,
55D2EB59-BB57-4450-AE25-C9E125B8BA74,2015-11-24 07:27:59.0050000,2,PDIT_420_03_003: VERSCHILDRUKMETING OVER FLAME ARRESTOR T420_03 HOOG ALARM OFF,
55D2EB59-BB57-4450-AE25-C9E125B8BA74,2015-11-24 07:30:47.6380000,1,PDIT_420_03_003: VERSCHILDRUKMETING OVER FLAME ARRESTOR T420_03 HOOG ALARM ON,
0F576200-68A1-4755-BEC2-42150FF01770,2015-11-24 07:31:08.4020000,1,PDIT_420_03_003: VERSCHILDRUKMETING OVER FLAME ARRESTOR T420_03 HOOG HOOG ALARM ON,
0F576200-68A1-4755-BEC2-42150FF01770,2015-11-24 07:33:49.4400000,2,PDIT_420_03_003: VERSCHILDRUKMETING OVER FLAME ARRESTOR T420_03 HOOG HOOG ALARM OFF,
55D2EB59-BB57-4450-AE25-C9E125B8BA74,2015-11-24 07:33:49.4400000,2,PDIT_420_03_003: VERSCHILDRUKMETING OVER FLAME ARRESTOR T420_03 HOOG ALARM OFF,
55D2EB59-BB57-4450-AE25-C9E125B8BA74,2015-11-24 07:34:47.9520000,1,PDIT_420_03_003: VERSCHILDRUKMETING OVER FLAME ARRESTOR T420_03 HOOG ALARM ON,
0F576200-68A1-4755-BEC2-42150FF01770,2015-11-24 07:34:55.5990000,1,PDIT_420_03_003: VERSCHILDRUKMETING OVER FLAME ARRESTOR T420_03 HOOG HOOG ALARM ON,
0F576200-68A1-4755-BEC2-42150FF01770,2015-11-24 07:36:24.5140000,2,PDIT_420_03_003: VERSCHILDRUKMETING OVER FLAME ARRESTOR T420_03 HOOG HOOG ALARM OFF,
0F576200-68A1-4755-BEC2-42150FF01770,2015-11-24 07:40:29.7960000,1,PDIT_420_03_003: VERSCHILDRUKMETING OVER FLAME ARRESTOR T420_03 HOOG HOOG ALARM ON,
0F576200-68A1-4755-BEC2-42150FF01770,2015-11-24 07:55:21.5900000,2,PDIT_420_03_003: VERSCHILDRUKMETING OVER FLAME ARRESTOR T420_03 HOOG HOOG ALARM OFF,
0F576200-68A1-4755-BEC2-42150FF01770,2015-11-24 07:56:00.0800000,1,PDIT_420_03_003: VERSCHILDRUKMETING OVER FLAME ARRESTOR T420_03 HOOG HOOG ALARM ON,
0F576200-68A1-4755-BEC2-42150FF01770,2015-11-24 08:00:54.7310000,2,PDIT_420_03_003: VERSCHILDRUKMETING OVER FLAME ARRESTOR T420_03 HOOG HOOG ALARM OFF,
0F576200-68A1-4755-BEC2-42150FF01770,2015-11-24 08:01:44.7290000,1,PDIT_420_03_003: VERSCHILDRUKMETING OVER FLAME ARRESTOR T420_03 HOOG HOOG ALARM ON,
0F576200-68A1-4755-BEC2-42150FF01770,2015-11-25 03:11:36.7860000,2,PDIT_420_03_003: VERSCHILDRUKMETING OVER FLAME ARRESTOR T420_03 HOOG HOOG ALARM OFF,
55D2EB59-BB57-4450-AE25-C9E125B8BA74,2015-11-25 03:11:38.9290000,2,PDIT_420_03_003: VERSCHILDRUKMETING OVER FLAME ARRESTOR T420_03 HOOG ALARM OFF,
55D2EB59-BB57-4450-AE25-C9E125B8BA74,2015-11-25 03:39:33.9390000,1,PDIT_420_03_003: VERSCHILDRUKMETING OVER FLAME ARRESTOR T420_03 HOOG ALARM ON,
0F576200-68A1-4755-BEC2-42150FF01770,2015-11-25 03:39:36.9340000,1,PDIT_420_03_003: VERSCHILDRUKMETING OVER FLAME ARRESTOR T420_03 HOOG HOOG ALARM ON,
0F576200-68A1-4755-BEC2-42150FF01770,2015-11-25 03:40:54.8060000,2,PDIT_420_03_003: VERSCHILDRUKMETING OVER FLAME ARRESTOR T420_03 HOOG HOOG ALARM OFF,
55D2EB59-BB57-4450-AE25-C9E125B8BA74,2015-11-25 03:40:58.9330000,2,PDIT_420_03_003: VERSCHILDRUKMETING OVER FLAME ARRESTOR T420_03 HOOG ALARM OFF,
55D2EB59-BB57-4450-AE25-C9E125B8BA74,2015-11-25 03:41:03.5770000,1,PDIT_420_03_003: VERSCHILDRUKMETING OVER FLAME ARRESTOR T420_03 HOOG ALARM ON,
0F576200-68A1-4755-BEC2-42150FF01770,2015-11-25 03:41:10.9370000,1,PDIT_420_03_003: VERSCHILDRUKMETING OVER FLAME ARRESTOR T420_03 HOOG HOOG ALARM ON,
0F576200-68A1-4755-BEC2-42150FF01770,2015-11-25 03:41:56.9350000,2,PDIT_420_03_003: VERSCHILDRUKMETING OVER FLAME ARRESTOR T420_03 HOOG HOOG ALARM OFF,
55D2EB59-BB57-4450-AE25-C9E125B8BA74,2015-11-25 03:42:14.5800000,2,PDIT_420_03_003: VERSCHILDRUKMETING OVER FLAME ARRESTOR T420_03 HOOG ALARM OFF,
55D2EB59-BB57-4450-AE25-C9E125B8BA74,2015-11-25 03:42:34.5760000,1,PDIT_420_03_003: VERSCHILDRUKMETING OVER FLAME ARRESTOR T420_03 HOOG ALARM ON,
0F576200-68A1-4755-BEC2-42150FF01770,2015-11-25 03:42:37.5290000,1,PDIT_420_03_003: VERSCHILDRUKMETING OVER FLAME ARRESTOR T420_03 HOOG HOOG ALARM ON,
0F576200-68A1-4755-BEC2-42150FF01770,2015-11-25 03:44:01.6470000,2,PDIT_420_03_003: VERSCHILDRUKMETING OVER FLAME ARRESTOR T420_03 HOOG HOOG ALARM OFF,
55D2EB59-BB57-4450-AE25-C9E125B8BA74,2015-11-25 03:44:15.8160000,2,PDIT_420_03_003: VERSCHILDRUKMETING OVER FLAME ARRESTOR T420_03 HOOG ALARM OFF,
55D2EB59-BB57-4450-AE25-C9E125B8BA74,2015-11-25 03:44:41.9360000,1,PDIT_420_03_003: VERSCHILDRUKMETING OVER FLAME ARRESTOR T420_03 HOOG ALARM ON,
55D2EB59-BB57-4450-AE25-C9E125B8BA74,2015-11-25 03:45:13.6790000,2,PDIT_420_03_003: VERSCHILDRUKMETING OVER FLAME ARRESTOR T420_03 HOOG ALARM OFF,
55D2EB59-BB57-4450-AE25-C9E125B8BA74,2015-11-25 03:45:34.9350000,1,PDIT_420_03_003: VERSCHILDRUKMETING OVER FLAME ARRESTOR T420_03 HOOG ALARM ON,
0F576200-68A1-4755-BEC2-42150FF01770,2015-11-25 03:45:35.5350000,1,PDIT_420_03_003: VERSCHILDRUKMETING OVER FLAME ARRESTOR T420_03 HOOG HOOG ALARM ON,
0F576200-68A1-4755-BEC2-42150FF01770,2015-11-25 03:55:03.6210000,2,PDIT_420_03_003: VERSCHILDRUKMETING OVER FLAME ARRESTOR T420_03 HOOG HOOG ALARM OFF,
0F576200-68A1-4755-BEC2-42150FF01770,2015-11-25 03:55:54.8990000,1,PDIT_420_03_003: VERSCHILDRUKMETING OVER FLAME ARRESTOR T420_03 HOOG HOOG ALARM ON,
0F576200-68A1-4755-BEC2-42150FF01770,2015-11-25 03:57:06.9320000,2,PDIT_420_03_003: VERSCHILDRUKMETING OVER FLAME ARRESTOR T420_03 HOOG HOOG ALARM OFF,
55D2EB59-BB57-4450-AE25-C9E125B8BA74,2015-11-25 03:57:25.6180000,2,PDIT_420_03_003: VERSCHILDRUKMETING OVER FLAME ARRESTOR T420_03 HOOG ALARM OFF,
55D2EB59-BB57-4450-AE25-C9E125B8BA74,2015-11-25 03:57:49.5740000,1,PDIT_420_03_003: VERSCHILDRUKMETING OVER FLAME ARRESTOR T420_03 HOOG ALARM ON,
0F576200-68A1-4755-BEC2-42150FF01770,2015-11-25 03:57:50.6560000,1,PDIT_420_03_003: VERSCHILDRUKMETING OVER FLAME ARRESTOR T420_03 HOOG HOOG ALARM ON,
0F576200-68A1-4755-BEC2-42150FF01770,2015-11-25 09:50:06.7580000,2,PDIT_420_03_003: VERSCHILDRUKMETING OVER FLAME ARRESTOR T420_03 HOOG HOOG ALARM OFF,
55D2EB59-BB57-4450-AE25-C9E125B8BA74,2015-11-25 09:50:13.9890000,2,PDIT_420_03_003: VERSCHILDRUKMETING OVER FLAME ARRESTOR T420_03 HOOG ALARM OFF,
55D2EB59-BB57-4450-AE25-C9E125B8BA74,2015-11-25 11:21:52.9980000,1,PDIT_420_03_003: VERSCHILDRUKMETING OVER FLAME ARRESTOR T420_03 HOOG ALARM ON,
0F576200-68A1-4755-BEC2-42150FF01770,2015-11-25 11:23:04.9940000,1,PDIT_420_03_003: VERSCHILDRUKMETING OVER FLAME ARRESTOR T420_03 HOOG HOOG ALARM ON,
68AB28F8-9794-47DA-93A5-5FFE6919EA5F,2015-11-26 15:35:45.1540000,2,PDIT_420_03_003: VERSCHILDRUKMETING OVER FLAME ARRESTOR T420_03 HOOG ALARM OFF,
0F576200-68A1-4755-BEC2-42150FF01770,2015-11-26 09:54:38.1720000,2,PDIT_420_03_003: VERSCHILDRUKMETING OVER FLAME ARRESTOR T420_03 HOOG HOOG ALARM OFF,
55D2EB59-BB57-4450-AE25-C9E125B8BA74,2015-11-26 09:54:41.2650000,2,PDIT_420_03_003: VERSCHILDRUKMETING OVER FLAME ARRESTOR T420_03 HOOG ALARM OFF,
68AB28F8-9794-47DA-93A5-5FFE6919EA5F,2015-11-26 14:52:30.9880000,1,PDIT_420_03_003: VERSCHILDRUKMETING OVER FLAME ARRESTOR T420_03 HOOG ALARM ON,
68AB28F8-9794-47DA-93A5-5FFE6919EA5F,2015-11-26 14:53:59.0860000,2,PDIT_420_03_003: VERSCHILDRUKMETING OVER FLAME ARRESTOR T420_03 HOOG ALARM OFF,
68AB28F8-9794-47DA-93A5-5FFE6919EA5F,2015-11-26 14:59:05.0760000,1,PDIT_420_03_003: VERSCHILDRUKMETING OVER FLAME ARRESTOR T420_03 HOOG ALARM ON,
68AB28F8-9794-47DA-93A5-5FFE6919EA5F,2015-11-26 15:01:07.0800000,2,PDIT_420_03_003: VERSCHILDRUKMETING OVER FLAME ARRESTOR T420_03 HOOG ALARM OFF,
68AB28F8-9794-47DA-93A5-5FFE6919EA5F,2015-11-26 15:05:29.0850000,1,PDIT_420_03_003: VERSCHILDRUKMETING OVER FLAME ARRESTOR T420_03 HOOG ALARM ON,
68AB28F8-9794-47DA-93A5-5FFE6919EA5F,2015-11-26 15:07:11.0790000,2,PDIT_420_03_003: VERSCHILDRUKMETING OVER FLAME ARRESTOR T420_03 HOOG ALARM OFF,
68AB28F8-9794-47DA-93A5-5FFE6919EA5F,2015-11-26 15:12:39.0840000,1,PDIT_420_03_003: VERSCHILDRUKMETING OVER FLAME ARRESTOR T420_03 HOOG ALARM ON,
68AB28F8-9794-47DA-93A5-5FFE6919EA5F,2015-11-26 16:41:02.1040000,1,PDIT_420_03_003: VERSCHILDRUKMETING OVER FLAME ARRESTOR T420_03 HOOG ALARM ON,
E6D42207-D87A-4E9C-A845-0C214504B026,2015-11-26 16:43:35.0450000,1,PDIT_420_03_003: VERSCHILDRUKMETING OVER FLAME ARRESTOR T420_03 HOOG HOOG ALARM ON,
E6D42207-D87A-4E9C-A845-0C214504B026,2015-11-26 17:00:06.7990000,2,PDIT_420_03_003: VERSCHILDRUKMETING OVER FLAME ARRESTOR T420_03 HOOG HOOG ALARM OFF,
68AB28F8-9794-47DA-93A5-5FFE6919EA5F,2015-11-26 17:02:31.9010000,2,PDIT_420_03_003: VERSCHILDRUKMETING OVER FLAME ARRESTOR T420_03 HOOG ALARM OFF,
68AB28F8-9794-47DA-93A5-5FFE6919EA5F,2015-11-26 17:21:43.9050000,1,PDIT_420_03_003: VERSCHILDRUKMETING OVER FLAME ARRESTOR T420_03 HOOG ALARM ON,
E6D42207-D87A-4E9C-A845-0C214504B026,2015-11-26 17:22:31.9030000,1,PDIT_420_03_003: VERSCHILDRUKMETING OVER FLAME ARRESTOR T420_03 HOOG HOOG ALARM ON,
2588DCAD-137E-41C3-AA77-7F8662ED1DD8,2015-11-27 07:15:45.5390000,1,PIT_420_03_002: DRUKMETING TANK T420_03 HOOG ALARM ON,
2588DCAD-137E-41C3-AA77-7F8662ED1DD8,2015-11-27 07:20:21.1000000,2,PIT_420_03_002: DRUKMETING TANK T420_03 HOOG ALARM OFF,
2588DCAD-137E-41C3-AA77-7F8662ED1DD8,2015-11-27 16:34:31.9350000,1,PIT_420_03_002: DRUKMETING TANK T420_03 HOOG ALARM ON,
2588DCAD-137E-41C3-AA77-7F8662ED1DD8,2015-11-27 16:35:48.3930000,2,PIT_420_03_002: DRUKMETING TANK T420_03 HOOG ALARM OFF,
68AB28F8-9794-47DA-93A5-5FFE6919EA5F,2015-11-30 08:40:21.9810000,1,PDIT_420_03_003: VERSCHILDRUKMETING OVER FLAME ARRESTOR T420_03 HOOG ALARM ON,
E6D42207-D87A-4E9C-A845-0C214504B026,2015-11-30 08:40:39.4520000,1,PDIT_420_03_003: VERSCHILDRUKMETING OVER FLAME ARRESTOR T420_03 HOOG HOOG ALARM ON,
68AB28F8-9794-47DA-93A5-5FFE6919EA5F,2015-11-30 11:02:40.2200000,2,PDIT_420_03_003: VERSCHILDRUKMETING OVER FLAME ARRESTOR T420_03 HOOG ALARM OFF,
68AB28F8-9794-47DA-93A5-5FFE6919EA5F,2015-11-30 16:38:10.4560000,1,PDIT_420_03_003: VERSCHILDRUKMETING OVER FLAME ARRESTOR T420_03 HOOG ALARM ON,
E6D42207-D87A-4E9C-A845-0C214504B026,2015-11-29 05:59:54.9310000,2,PDIT_420_03_003: VERSCHILDRUKMETING OVER FLAME ARRESTOR T420_03 HOOG HOOG ALARM OFF,
E6D42207-D87A-4E9C-A845-0C214504B026,2015-11-29 06:00:43.7390000,1,PDIT_420_03_003: VERSCHILDRUKMETING OVER FLAME ARRESTOR T420_03 HOOG HOOG ALARM ON,
E6D42207-D87A-4E9C-A845-0C214504B026,2015-11-29 12:43:11.3510000,2,PDIT_420_03_003: VERSCHILDRUKMETING OVER FLAME ARRESTOR T420_03 HOOG HOOG ALARM OFF,
68AB28F8-9794-47DA-93A5-5FFE6919EA5F,2015-11-29 12:43:12.6960000,2,PDIT_420_03_003: VERSCHILDRUKMETING OVER FLAME ARRESTOR T420_03 HOOG ALARM OFF,
68AB28F8-9794-47DA-93A5-5FFE6919EA5F,2015-11-30 08:27:26.5690000,1,PDIT_420_03_003: VERSCHILDRUKMETING OVER FLAME ARRESTOR T420_03 HOOG ALARM ON,
E6D42207-D87A-4E9C-A845-0C214504B026,2015-11-30 08:29:59.4670000,1,PDIT_420_03_003: VERSCHILDRUKMETING OVER FLAME ARRESTOR T420_03 HOOG HOOG ALARM ON,
E6D42207-D87A-4E9C-A845-0C214504B026,2015-11-30 08:33:29.1460000,2,PDIT_420_03_003: VERSCHILDRUKMETING OVER FLAME ARRESTOR T420_03 HOOG HOOG ALARM OFF,
68AB28F8-9794-47DA-93A5-5FFE6919EA5F,2015-11-30 08:33:35.6970000,2,PDIT_420_03_003: VERSCHILDRUKMETING OVER FLAME ARRESTOR T420_03 HOOG ALARM OFF,
E6D42207-D87A-4E9C-A845-0C214504B026,2015-11-30 11:02:34.7780000,2,PDIT_420_03_003: VERSCHILDRUKMETING OVER FLAME ARRESTOR T420_03 HOOG HOOG ALARM OFF,
E6D42207-D87A-4E9C-A845-0C214504B026,2015-11-30 11:11:18.7850000,1,PDIT_420_03_003: VERSCHILDRUKMETING OVER FLAME ARRESTOR T420_03 HOOG HOOG ALARM ON,
68AB28F8-9794-47DA-93A5-5FFE6919EA5F,2015-11-30 11:11:18.7850000,1,PDIT_420_03_003: VERSCHILDRUKMETING OVER FLAME ARRESTOR T420_03 HOOG ALARM ON,
E6D42207-D87A-4E9C-A845-0C214504B026,2015-11-30 11:38:52.4950000,2,PDIT_420_03_003: VERSCHILDRUKMETING OVER FLAME ARRESTOR T420_03 HOOG HOOG ALARM OFF,
68AB28F8-9794-47DA-93A5-5FFE6919EA5F,2015-11-30 11:39:03.4120000,2,PDIT_420_03_003: VERSCHILDRUKMETING OVER FLAME ARRESTOR T420_03 HOOG ALARM OFF,
68AB28F8-9794-47DA-93A5-5FFE6919EA5F,2015-11-30 11:51:57.8700000,1,PDIT_420_03_003: VERSCHILDRUKMETING OVER FLAME ARRESTOR T420_03 HOOG ALARM ON,
E6D42207-D87A-4E9C-A845-0C214504B026,2015-11-30 11:51:59.8700000,1,PDIT_420_03_003: VERSCHILDRUKMETING OVER FLAME ARRESTOR T420_03 HOOG HOOG ALARM ON,
E6D42207-D87A-4E9C-A845-0C214504B026,2015-11-30 11:53:05.8960000,2,PDIT_420_03_003: VERSCHILDRUKMETING OVER FLAME ARRESTOR T420_03 HOOG HOOG ALARM OFF,
68AB28F8-9794-47DA-93A5-5FFE6919EA5F,2015-11-30 11:53:11.8610000,2,PDIT_420_03_003: VERSCHILDRUKMETING OVER FLAME ARRESTOR T420_03 HOOG ALARM OFF,
68AB28F8-9794-47DA-93A5-5FFE6919EA5F,2015-11-30 11:53:29.8610000,1,PDIT_420_03_003: VERSCHILDRUKMETING OVER FLAME ARRESTOR T420_03 HOOG ALARM ON,
E6D42207-D87A-4E9C-A845-0C214504B026,2015-11-30 11:53:43.8060000,1,PDIT_420_03_003: VERSCHILDRUKMETING OVER FLAME ARRESTOR T420_03 HOOG HOOG ALARM ON,
E6D42207-D87A-4E9C-A845-0C214504B026,2015-11-30 16:07:30.4470000,2,PDIT_420_03_003: VERSCHILDRUKMETING OVER FLAME ARRESTOR T420_03 HOOG HOOG ALARM OFF,
68AB28F8-9794-47DA-93A5-5FFE6919EA5F,2015-11-30 16:07:31.3880000,2,PDIT_420_03_003: VERSCHILDRUKMETING OVER FLAME ARRESTOR T420_03 HOOG ALARM OFF,
E6D42207-D87A-4E9C-A845-0C214504B026,2015-11-30 16:38:18.4560000,1,PDIT_420_03_003: VERSCHILDRUKMETING OVER FLAME ARRESTOR T420_03 HOOG HOOG ALARM ON,
E6D42207-D87A-4E9C-A845-0C214504B026,2015-11-30 17:13:35.9950000,2,PDIT_420_03_003: VERSCHILDRUKMETING OVER FLAME ARRESTOR T420_03 HOOG HOOG ALARM OFF,
68AB28F8-9794-47DA-93A5-5FFE6919EA5F,2015-11-30 17:13:40.3500000,2,PDIT_420_03_003: VERSCHILDRUKMETING OVER FLAME ARRESTOR T420_03 HOOG ALARM OFF,
68AB28F8-9794-47DA-93A5-5FFE6919EA5F,2015-11-30 17:13:46.9030000,1,PDIT_420_03_003: VERSCHILDRUKMETING OVER FLAME ARRESTOR T420_03 HOOG ALARM ON,
E6D42207-D87A-4E9C-A845-0C214504B026,2015-11-30 17:13:47.3610000,1,PDIT_420_03_003: VERSCHILDRUKMETING OVER FLAME ARRESTOR T420_03 HOOG HOOG ALARM ON,
E6D42207-D87A-4E9C-A845-0C214504B026,2015-11-30 17:14:05.9400000,2,PDIT_420_03_003: VERSCHILDRUKMETING OVER FLAME ARRESTOR T420_03 HOOG HOOG ALARM OFF,
E6D42207-D87A-4E9C-A845-0C214504B026,2015-11-30 17:14:13.1080000,1,PDIT_420_03_003: VERSCHILDRUKMETING OVER FLAME ARRESTOR T420_03 HOOG HOOG ALARM ON,
E6D42207-D87A-4E9C-A845-0C214504B026,2015-11-30 20:35:19.9700000,2,PDIT_420_03_003: VERSCHILDRUKMETING OVER FLAME ARRESTOR T420_03 HOOG HOOG ALARM OFF,
68AB28F8-9794-47DA-93A5-5FFE6919EA5F,2015-11-30 20:35:22.1560000,2,PDIT_420_03_003: VERSCHILDRUKMETING OVER FLAME ARRESTOR T420_03 HOOG ALARM OFF,
68AB28F8-9794-47DA-93A5-5FFE6919EA5F,2015-12-01 03:50:53.5120000,1,PDIT_420_03_003: VERSCHILDRUKMETING OVER FLAME ARRESTOR T420_03 HOOG ALARM ON,
68AB28F8-9794-47DA-93A5-5FFE6919EA5F,2015-12-01 03:55:55.0000000,2,PDIT_420_03_003: VERSCHILDRUKMETING OVER FLAME ARRESTOR T420_03 HOOG ALARM OFF,
68AB28F8-9794-47DA-93A5-5FFE6919EA5F,2015-12-01 04:40:37.6320000,1,PDIT_420_03_003: VERSCHILDRUKMETING OVER FLAME ARRESTOR T420_03 HOOG ALARM ON,
68AB28F8-9794-47DA-93A5-5FFE6919EA5F,2015-12-01 04:42:09.4180000,2,PDIT_420_03_003: VERSCHILDRUKMETING OVER FLAME ARRESTOR T420_03 HOOG ALARM OFF,
68AB28F8-9794-47DA-93A5-5FFE6919EA5F,2015-12-01 05:01:53.4560000,1,PDIT_420_03_003: VERSCHILDRUKMETING OVER FLAME ARRESTOR T420_03 HOOG ALARM ON,
E6D42207-D87A-4E9C-A845-0C214504B026,2015-12-01 05:01:57.8140000,1,PDIT_420_03_003: VERSCHILDRUKMETING OVER FLAME ARRESTOR T420_03 HOOG HOOG ALARM ON,
E6D42207-D87A-4E9C-A845-0C214504B026,2015-12-01 11:47:58.2570000,2,PDIT_420_03_003: VERSCHILDRUKMETING OVER FLAME ARRESTOR T420_03 HOOG HOOG ALARM OFF,
68AB28F8-9794-47DA-93A5-5FFE6919EA5F,2015-12-01 11:48:00.4380000,2,PDIT_420_03_003: VERSCHILDRUKMETING OVER FLAME ARRESTOR T420_03 HOOG ALARM OFF,
E6D42207-D87A-4E9C-A845-0C214504B026,2015-12-04 03:48:32.4310000,2,PDIT_420_03_003: VERSCHILDRUKMETING OVER FLAME ARRESTOR T420_03 HOOG HOOG ALARM OFF,
68AB28F8-9794-47DA-93A5-5FFE6919EA5F,2015-12-04 02:29:30.6220000,1,PDIT_420_03_003: VERSCHILDRUKMETING OVER FLAME ARRESTOR T420_03 HOOG ALARM ON,
E6D42207-D87A-4E9C-A845-0C214504B026,2015-12-04 02:30:01.1960000,1,PDIT_420_03_003: VERSCHILDRUKMETING OVER FLAME ARRESTOR T420_03 HOOG HOOG ALARM ON,
E6D42207-D87A-4E9C-A845-0C214504B026,2015-12-04 02:30:16.5200000,2,PDIT_420_03_003: VERSCHILDRUKMETING OVER FLAME ARRESTOR T420_03 HOOG HOOG ALARM OFF,
E6D42207-D87A-4E9C-A845-0C214504B026,2015-12-04 02:59:36.8550000,1,PDIT_420_03_003: VERSCHILDRUKMETING OVER FLAME ARRESTOR T420_03 HOOG HOOG ALARM ON,
E6D42207-D87A-4E9C-A845-0C214504B026,2015-12-04 03:04:18.6120000,2,PDIT_420_03_003: VERSCHILDRUKMETING OVER FLAME ARRESTOR T420_03 HOOG HOOG ALARM OFF,
68AB28F8-9794-47DA-93A5-5FFE6919EA5F,2015-12-04 03:12:35.7910000,2,PDIT_420_03_003: VERSCHILDRUKMETING OVER FLAME ARRESTOR T420_03 HOOG ALARM OFF,
68AB28F8-9794-47DA-93A5-5FFE6919EA5F,2015-12-04 03:38:20.2110000,1,PDIT_420_03_003: VERSCHILDRUKMETING OVER FLAME ARRESTOR T420_03 HOOG ALARM ON,
E6D42207-D87A-4E9C-A845-0C214504B026,2015-12-04 03:38:46.9690000,1,PDIT_420_03_003: VERSCHILDRUKMETING OVER FLAME ARRESTOR T420_03 HOOG HOOG ALARM ON,
68AB28F8-9794-47DA-93A5-5FFE6919EA5F,2015-12-04 03:53:04.2310000,2,PDIT_420_03_003: VERSCHILDRUKMETING OVER FLAME ARRESTOR T420_03 HOOG ALARM OFF,
68AB28F8-9794-47DA-93A5-5FFE6919EA5F,2015-12-04 04:17:02.7730000,1,PDIT_420_03_003: VERSCHILDRUKMETING OVER FLAME ARRESTOR T420_03 HOOG ALARM ON,
E6D42207-D87A-4E9C-A845-0C214504B026,2015-12-04 04:18:20.2490000,1,PDIT_420_03_003: VERSCHILDRUKMETING OVER FLAME ARRESTOR T420_03 HOOG HOOG ALARM ON,
E6D42207-D87A-4E9C-A845-0C214504B026,2015-12-04 05:37:57.3280000,2,PDIT_420_03_003: VERSCHILDRUKMETING OVER FLAME ARRESTOR T420_03 HOOG HOOG ALARM OFF,
68AB28F8-9794-47DA-93A5-5FFE6919EA5F,2015-12-04 05:39:33.9250000,2,PDIT_420_03_003: VERSCHILDRUKMETING OVER FLAME ARRESTOR T420_03 HOOG ALARM OFF,
68AB28F8-9794-47DA-93A5-5FFE6919EA5F,2015-12-05 19:50:47.5980000,1,PDIT_420_03_003: VERSCHILDRUKMETING OVER FLAME ARRESTOR T420_03 HOOG ALARM ON,
E6D42207-D87A-4E9C-A845-0C214504B026,2015-12-05 19:53:50.5020000,1,PDIT_420_03_003: VERSCHILDRUKMETING OVER FLAME ARRESTOR T420_03 HOOG HOOG ALARM ON,
E6D42207-D87A-4E9C-A845-0C214504B026,2015-12-06 07:22:32.9670000,2,PDIT_420_03_003: VERSCHILDRUKMETING OVER FLAME ARRESTOR T420_03 HOOG HOOG ALARM OFF,
68AB28F8-9794-47DA-93A5-5FFE6919EA5F,2015-12-06 07:22:35.1610000,2,PDIT_420_03_003: VERSCHILDRUKMETING OVER FLAME ARRESTOR T420_03 HOOG ALARM OFF,
68AB28F8-9794-47DA-93A5-5FFE6919EA5F,2015-12-06 09:00:02.5250000,1,PDIT_420_03_003: VERSCHILDRUKMETING OVER FLAME ARRESTOR T420_03 HOOG ALARM ON,
E6D42207-D87A-4E9C-A845-0C214504B026,2015-12-06 09:01:59.7640000,1,PDIT_420_03_003: VERSCHILDRUKMETING OVER FLAME ARRESTOR T420_03 HOOG HOOG ALARM ON,
E6D42207-D87A-4E9C-A845-0C214504B026,2015-12-06 15:27:56.7860000,2,PDIT_420_03_003: VERSCHILDRUKMETING OVER FLAME ARRESTOR T420_03 HOOG HOOG ALARM OFF,
68AB28F8-9794-47DA-93A5-5FFE6919EA5F,2015-12-06 15:27:56.7860000,2,PDIT_420_03_003: VERSCHILDRUKMETING OVER FLAME ARRESTOR T420_03 HOOG ALARM OFF,
