E58FDA52-A3CF-45A8-8F26-4A2686364201,2015-12-16 09:00:13.9240000,1,XV_420_02_003: INLAAT AFSLUITER TANK 420_02 IN HAND ON,
E58FDA52-A3CF-45A8-8F26-4A2686364201,2015-12-16 09:00:35.9070000,2,XV_420_02_003: INLAAT AFSLUITER TANK 420_02 IN HAND OFF,
9ECDE4ED-34A8-4EE8-AF31-595A3FFCD02F,2015-12-22 14:02:33.8740000,1,T420_2_EL1: LEVEL ENTIS TANK 420_2 LAAG ALARM ON,
698C113B-CE85-464A-8B6C-3CF512697DB1,2015-12-22 14:30:56.4730000,1,T420_2_EL1: LEVEL ENTIS TANK 420_2 LAAG LAAG ALARM ON,
698C113B-CE85-464A-8B6C-3CF512697DB1,2015-12-22 14:31:22.6830000,2,T420_2_EL1: LEVEL ENTIS TANK 420_2 LAAG LAAG ALARM OFF,
DBA057F4-993A-40E8-A7D2-E8C9A19EA494,2015-12-24 02:32:54.2360000,1,T420_2_ET1: TEMPERATUUR VLOETSTOF ENTIS TANK 420_2 LAAG ALARM ON,
DBA057F4-993A-40E8-A7D2-E8C9A19EA494,2015-12-24 08:05:50.5900000,2,T420_2_ET1: TEMPERATUUR VLOETSTOF ENTIS TANK 420_2 LAAG ALARM OFF,
7DBC0C9C-BFAA-4F76-BD20-D47CB0357ED5,2015-12-24 10:41:38.1530000,1,T420_2_ET1: TEMPERATUUR VLOETSTOF ENTIS TANK 420_2 IN SIMULATIE ON,
7DBC0C9C-BFAA-4F76-BD20-D47CB0357ED5,2015-12-24 11:05:54.6280000,2,T420_2_ET1: TEMPERATUUR VLOETSTOF ENTIS TANK 420_2 IN SIMULATIE OFF,
698C113B-CE85-464A-8B6C-3CF512697DB1,2015-12-29 19:58:51.2120000,1,T420_2_EL1: LEVEL ENTIS TANK 420_2 LAAG LAAG ALARM ON,
DBA057F4-993A-40E8-A7D2-E8C9A19EA494,2015-12-30 03:50:08.9910000,1,T420_2_ET1: TEMPERATUUR VLOETSTOF ENTIS TANK 420_2 LAAG ALARM ON,
3CF10999-076B-48E6-A3EB-14D460C612F7,2015-12-30 03:53:56.2340000,1,T420_2_EL1: LEVEL ENTIS TANK 420_2 IN SIMULATIE ON,
698C113B-CE85-464A-8B6C-3CF512697DB1,2015-12-30 03:54:00.6140000,2,T420_2_EL1: LEVEL ENTIS TANK 420_2 LAAG LAAG ALARM OFF,
3CF10999-076B-48E6-A3EB-14D460C612F7,2015-12-30 04:01:43.6820000,2,T420_2_EL1: LEVEL ENTIS TANK 420_2 IN SIMULATIE OFF,
698C113B-CE85-464A-8B6C-3CF512697DB1,2015-12-30 04:10:10.5050000,1,T420_2_EL1: LEVEL ENTIS TANK 420_2 LAAG LAAG ALARM ON,
DBA057F4-993A-40E8-A7D2-E8C9A19EA494,2015-12-30 07:46:54.4180000,2,T420_2_ET1: TEMPERATUUR VLOETSTOF ENTIS TANK 420_2 LAAG ALARM OFF,
DBA057F4-993A-40E8-A7D2-E8C9A19EA494,2015-12-31 06:40:47.9520000,1,T420_2_ET1: TEMPERATUUR VLOETSTOF ENTIS TANK 420_2 LAAG ALARM ON,
DBA057F4-993A-40E8-A7D2-E8C9A19EA494,2015-12-31 07:19:46.3190000,2,T420_2_ET1: TEMPERATUUR VLOETSTOF ENTIS TANK 420_2 LAAG ALARM OFF,
94AFF7F8-873B-4BA2-B4E6-35880DB2966A,2015-11-27 07:17:36.6230000,1,T420_2_EP1: DRUK ENTIS TANK 420_2 HOOG ALARM ON,
7CC7B6B9-47F1-49DD-A68E-5D58C5EC5BBC,2015-11-27 07:18:25.5120000,1,XV_420_02_003: INLAAT AFSLUITER TANK 420_02 IN HAND ON,
94AFF7F8-873B-4BA2-B4E6-35880DB2966A,2015-11-27 07:18:42.5010000,2,T420_2_EP1: DRUK ENTIS TANK 420_2 HOOG ALARM OFF,
7CC7B6B9-47F1-49DD-A68E-5D58C5EC5BBC,2015-11-27 07:19:54.2190000,2,XV_420_02_003: INLAAT AFSLUITER TANK 420_02 IN HAND OFF,
7CC7B6B9-47F1-49DD-A68E-5D58C5EC5BBC,2015-11-27 07:25:43.7770000,1,XV_420_02_003: INLAAT AFSLUITER TANK 420_02 IN HAND ON,
EC52A954-D8F4-4DC2-A275-D2BFDBE83E56,2015-11-27 07:36:45.7190000,1,T420_2_EM1: MASSA ENTIS TANK 420_2 MEETFOUT ON,
5DE16340-E9AD-40AC-8817-53B1E0AE5DA6,2015-11-27 07:36:45.7190000,1,T420_2_ET1: TEMPERATUUR VLOETSTOF ENTIS TANK 420_2 MEETFOUT ON,
B8BDD27A-76A4-45C1-B516-E9E018A6DC3B,2015-11-27 07:36:45.7190000,1,T420_2_ET2: TEMPERATUUR GAS ENTIS TANK 420_2 MEETFOUT ON,
EC52A954-D8F4-4DC2-A275-D2BFDBE83E56,2015-11-27 07:37:01.7170000,2,T420_2_EM1: MASSA ENTIS TANK 420_2 MEETFOUT OFF,
5DE16340-E9AD-40AC-8817-53B1E0AE5DA6,2015-11-27 07:37:01.7170000,2,T420_2_ET1: TEMPERATUUR VLOETSTOF ENTIS TANK 420_2 MEETFOUT OFF,
B8BDD27A-76A4-45C1-B516-E9E018A6DC3B,2015-11-27 07:37:01.7170000,2,T420_2_ET2: TEMPERATUUR GAS ENTIS TANK 420_2 MEETFOUT OFF,
7CC7B6B9-47F1-49DD-A68E-5D58C5EC5BBC,2015-11-30 07:26:05.0940000,2,XV_420_02_003: INLAAT AFSLUITER TANK 420_02 IN HAND OFF,
