0166DB95-F941-49F8-946B-03493635F046,2015-12-13 04:08:53.8670000,1,T420_3_EP1: DRUK ENTIS TANK 420_3 LAAG ALARM ON,
0166DB95-F941-49F8-946B-03493635F046,2015-12-13 04:09:18.9810000,2,T420_3_EP1: DRUK ENTIS TANK 420_3 LAAG ALARM OFF,
0166DB95-F941-49F8-946B-03493635F046,2015-12-13 04:09:26.4190000,1,T420_3_EP1: DRUK ENTIS TANK 420_3 LAAG ALARM ON,
0166DB95-F941-49F8-946B-03493635F046,2015-12-13 04:09:47.0020000,2,T420_3_EP1: DRUK ENTIS TANK 420_3 LAAG ALARM OFF,
0166DB95-F941-49F8-946B-03493635F046,2015-12-13 04:09:54.8060000,1,T420_3_EP1: DRUK ENTIS TANK 420_3 LAAG ALARM ON,
0166DB95-F941-49F8-946B-03493635F046,2015-12-13 04:10:23.2000000,2,T420_3_EP1: DRUK ENTIS TANK 420_3 LAAG ALARM OFF,
0166DB95-F941-49F8-946B-03493635F046,2015-12-13 04:10:27.7830000,1,T420_3_EP1: DRUK ENTIS TANK 420_3 LAAG ALARM ON,
0166DB95-F941-49F8-946B-03493635F046,2015-12-13 06:04:48.7960000,2,T420_3_EP1: DRUK ENTIS TANK 420_3 LAAG ALARM OFF,
9DA05A34-AECC-4807-A042-2B141108E6D5,2015-12-18 21:39:10.6220000,1,T420_3_EP1: DRUK ENTIS TANK 420_3 LAAG ALARM ON,
9DA05A34-AECC-4807-A042-2B141108E6D5,2015-12-18 21:39:54.2830000,2,T420_3_EP1: DRUK ENTIS TANK 420_3 LAAG ALARM OFF,
4D1B345F-F8B0-415E-98E9-A66559A45B38,2015-12-19 01:19:50.3530000,1,T420_3_EL1: LEVEL ENTIS TANK 420_3 HOOG ALARM ON,
9DA05A34-AECC-4807-A042-2B141108E6D5,2016-01-01 03:20:24.3820000,1,T420_3_EP1: DRUK ENTIS TANK 420_3 LAAG ALARM ON,
9DA05A34-AECC-4807-A042-2B141108E6D5,2016-01-01 03:21:52.2050000,2,T420_3_EP1: DRUK ENTIS TANK 420_3 LAAG ALARM OFF,
9DA05A34-AECC-4807-A042-2B141108E6D5,2016-01-01 03:22:00.5010000,1,T420_3_EP1: DRUK ENTIS TANK 420_3 LAAG ALARM ON,
9DA05A34-AECC-4807-A042-2B141108E6D5,2016-01-01 03:28:33.7660000,2,T420_3_EP1: DRUK ENTIS TANK 420_3 LAAG ALARM OFF,
9CF346CC-7D17-442F-843F-FA120B62F6BB,2015-11-18 10:00:08.8070000,1,XV_420_03_007: AFSLUITER PRODUCT NAAR T420_03 IN HAND ON,
29F5D96F-73CC-4E12-AEA7-24A0BAF6094F,2015-11-18 10:00:41.8000000,1,XV_420_03_001: HOGE ZUIG AFSLUITER TANK 420_03 IN HAND ON,
9CF346CC-7D17-442F-843F-FA120B62F6BB,2015-11-18 10:12:31.8000000,2,XV_420_03_007: AFSLUITER PRODUCT NAAR T420_03 IN HAND OFF,
29F5D96F-73CC-4E12-AEA7-24A0BAF6094F,2015-11-18 10:12:39.8350000,2,XV_420_03_001: HOGE ZUIG AFSLUITER TANK 420_03 IN HAND OFF,
9CF346CC-7D17-442F-843F-FA120B62F6BB,2015-11-18 11:20:49.7100000,1,XV_420_03_007: AFSLUITER PRODUCT NAAR T420_03 IN HAND ON,
9CF346CC-7D17-442F-843F-FA120B62F6BB,2015-11-18 11:24:39.8260000,2,XV_420_03_007: AFSLUITER PRODUCT NAAR T420_03 IN HAND OFF,
9CF346CC-7D17-442F-843F-FA120B62F6BB,2015-11-18 14:32:49.8050000,1,XV_420_03_007: AFSLUITER PRODUCT NAAR T420_03 IN HAND ON,
9CF346CC-7D17-442F-843F-FA120B62F6BB,2015-11-18 14:58:23.8890000,2,XV_420_03_007: AFSLUITER PRODUCT NAAR T420_03 IN HAND OFF,
29F5D96F-73CC-4E12-AEA7-24A0BAF6094F,2015-11-20 15:06:49.1230000,1,XV_420_03_001: HOGE ZUIG AFSLUITER TANK 420_03 IN HAND ON,
29F5D96F-73CC-4E12-AEA7-24A0BAF6094F,2015-11-20 15:07:23.0200000,2,XV_420_03_001: HOGE ZUIG AFSLUITER TANK 420_03 IN HAND OFF,
0166DB95-F941-49F8-946B-03493635F046,2015-11-21 18:25:31.4400000,1,T420_3_EP1: DRUK ENTIS TANK 420_3 LAAG ALARM ON,
0166DB95-F941-49F8-946B-03493635F046,2015-11-21 18:25:51.1030000,2,T420_3_EP1: DRUK ENTIS TANK 420_3 LAAG ALARM OFF,
0166DB95-F941-49F8-946B-03493635F046,2015-11-21 18:26:09.2980000,1,T420_3_EP1: DRUK ENTIS TANK 420_3 LAAG ALARM ON,
0166DB95-F941-49F8-946B-03493635F046,2015-11-21 18:26:50.9390000,2,T420_3_EP1: DRUK ENTIS TANK 420_3 LAAG ALARM OFF,
0166DB95-F941-49F8-946B-03493635F046,2015-11-21 18:27:05.3880000,1,T420_3_EP1: DRUK ENTIS TANK 420_3 LAAG ALARM ON,
0166DB95-F941-49F8-946B-03493635F046,2015-11-21 21:17:37.0440000,2,T420_3_EP1: DRUK ENTIS TANK 420_3 LAAG ALARM OFF,
0166DB95-F941-49F8-946B-03493635F046,2015-11-22 22:44:04.1550000,1,T420_3_EP1: DRUK ENTIS TANK 420_3 LAAG ALARM ON,
0166DB95-F941-49F8-946B-03493635F046,2015-11-22 09:45:25.6220000,1,T420_3_EP1: DRUK ENTIS TANK 420_3 LAAG ALARM ON,
0166DB95-F941-49F8-946B-03493635F046,2015-11-22 09:46:04.2740000,2,T420_3_EP1: DRUK ENTIS TANK 420_3 LAAG ALARM OFF,
0166DB95-F941-49F8-946B-03493635F046,2015-11-22 09:46:54.0800000,1,T420_3_EP1: DRUK ENTIS TANK 420_3 LAAG ALARM ON,
0166DB95-F941-49F8-946B-03493635F046,2015-11-22 11:27:40.7900000,2,T420_3_EP1: DRUK ENTIS TANK 420_3 LAAG ALARM OFF,
0166DB95-F941-49F8-946B-03493635F046,2015-11-23 03:51:02.1550000,2,T420_3_EP1: DRUK ENTIS TANK 420_3 LAAG ALARM OFF,
0166DB95-F941-49F8-946B-03493635F046,2015-11-23 16:48:41.4990000,1,T420_3_EP1: DRUK ENTIS TANK 420_3 LAAG ALARM ON,
0166DB95-F941-49F8-946B-03493635F046,2015-11-23 16:49:45.8620000,2,T420_3_EP1: DRUK ENTIS TANK 420_3 LAAG ALARM OFF,
0166DB95-F941-49F8-946B-03493635F046,2015-11-23 16:49:50.6520000,1,T420_3_EP1: DRUK ENTIS TANK 420_3 LAAG ALARM ON,
0166DB95-F941-49F8-946B-03493635F046,2015-11-23 17:55:28.6580000,2,T420_3_EP1: DRUK ENTIS TANK 420_3 LAAG ALARM OFF,
29EEA6B4-26FE-4244-A95A-B3D16909CE1E,2015-11-23 21:30:57.3820000,2,T420_3_EL1: LEVEL ENTIS TANK 420_3 LAAG ALARM OFF,
F935EB76-9339-47B8-8B9A-03FDF69BC3F3,2015-11-24 06:42:20.5040000,1,XV_420_03_003: INLAAT AFSLUITER TANK 420_03 IN HAND ON,
05F9CA79-A1E6-4ED2-A94A-DAAB7ECAA78A,2015-11-27 07:15:58.6510000,1,T420_3_EP1: DRUK ENTIS TANK 420_3 HOOG ALARM ON,
05F9CA79-A1E6-4ED2-A94A-DAAB7ECAA78A,2015-11-27 07:20:35.2050000,2,T420_3_EP1: DRUK ENTIS TANK 420_3 HOOG ALARM OFF,
7F48A22F-0E2F-4142-B9AA-4E18EE0C4F07,2015-11-27 10:48:44.3550000,2,XV_420_03_003: INLAAT AFSLUITER TANK 420_03 IN HAND OFF,
7F48A22F-0E2F-4142-B9AA-4E18EE0C4F07,2015-11-27 11:56:23.6920000,1,XV_420_03_003: INLAAT AFSLUITER TANK 420_03 IN HAND ON,
05F9CA79-A1E6-4ED2-A94A-DAAB7ECAA78A,2015-11-27 16:34:49.3770000,1,T420_3_EP1: DRUK ENTIS TANK 420_3 HOOG ALARM ON,
05F9CA79-A1E6-4ED2-A94A-DAAB7ECAA78A,2015-11-27 16:35:57.1430000,2,T420_3_EP1: DRUK ENTIS TANK 420_3 HOOG ALARM OFF,
7F48A22F-0E2F-4142-B9AA-4E18EE0C4F07,2015-11-30 08:28:07.5470000,2,XV_420_03_003: INLAAT AFSLUITER TANK 420_03 IN HAND OFF,
9DA05A34-AECC-4807-A042-2B141108E6D5,2015-12-04 05:55:56.9980000,1,T420_3_EP1: DRUK ENTIS TANK 420_3 LAAG ALARM ON,
9DA05A34-AECC-4807-A042-2B141108E6D5,2015-12-04 06:00:36.6190000,2,T420_3_EP1: DRUK ENTIS TANK 420_3 LAAG ALARM OFF,
9DA05A34-AECC-4807-A042-2B141108E6D5,2015-12-04 06:00:38.8000000,1,T420_3_EP1: DRUK ENTIS TANK 420_3 LAAG ALARM ON,
9DA05A34-AECC-4807-A042-2B141108E6D5,2015-12-04 06:00:49.7380000,2,T420_3_EP1: DRUK ENTIS TANK 420_3 LAAG ALARM OFF,
9DA05A34-AECC-4807-A042-2B141108E6D5,2015-12-04 07:05:56.2340000,1,T420_3_EP1: DRUK ENTIS TANK 420_3 LAAG ALARM ON,
9DA05A34-AECC-4807-A042-2B141108E6D5,2015-12-04 07:06:16.2330000,2,T420_3_EP1: DRUK ENTIS TANK 420_3 LAAG ALARM OFF,
