function,date,time,description,ack
1,26/10/15,09:00:00,XV101-S: MEETFOUT,ON
0,26/10/15,09:00:01,ORDER DATA,ON
1,26/10/15,09:00:01,XV103-S: MEETFOUT,ON
1,26/10/15,09:00:01,T1-S: MEETFOUT,ON
1,26/10/15,09:00:01,XV304-S: MEETFOUT,ON
1,26/10/15,09:00:03,XV103-S: MEETFOUT,OFF
1,26/10/15,09:00:03,T1-S: MEETFOUT,OFF
1,26/10/15,09:00:03,XV304-S: MEETFOUT,OFF
1,26/10/15,09:00:06,XV101-S: MEETFOUT,OFF
