digraph {
n0 -> n2[label=4.00 color="black"];n0 -> n5[label=1.00 color="black"];n2 -> n3[label=4.00 color="black"];n3 -> n1[label=4.00 color="black"];n4 -> n1[label=1.00 color="black"];n5 -> n4[label=1.00 color="black"];n0 [ label=<> shape="rectangle"];
n1 [ label=<> shape="rectangle"];
n2 [ label=<SP_L117_001A:_F<br/>UNTIONELE_STOP_<br/>DRUKKNOP_BOVEN_<br/>IN_ALARM_ON> shape="rectangle"];
n3 [ label=<SP_L117_001A:_F<br/>UNTIONELE_STOP_<br/>DRUKKNOP_BOVEN_<br/>IN_ALARM_OFF> shape="rectangle"];
n4 [ label=<FCV_L117_002:_R<br/>EGELKLEP_PRODUC<br/>T_NAAR_LP11_L11<br/>7_COMMENTAAR_AA<br/>N_OFF> shape="rectangle"];
n5 [ label=<XV_L117_003:_AF<br/>SLUITER_N2_NAAR<br/>_LP11_L117_COMM<br/>ENTAAR_AAN_OFF> shape="rectangle"];
}

