digraph {
n0 -> n3[label=2.00 color="black"];n2 -> n1[label=2.00 color="black"];n3 -> n2[label=2.00 color="black"];n0 [ label=<> shape="rectangle"];
n1 [ label=<> shape="rectangle"];
n2 [ label=<FT_250_5_AL_INI<br/>T:_INITIALISATI<br/>E_ALARM_IN_ALAR<br/>M_OFF> shape="rectangle"];
n3 [ label=<FT_250_5_AL_INI<br/>T:_INITIALISATI<br/>E_ALARM_IN_ALAR<br/>M_ON> shape="rectangle"];
}

