digraph {
n0 -> n2[label=2.00 color="black"];n0 -> n4[label=1.00 color="black"];n0 -> n5[label=1.00 color="black"];n0 -> n6[label=2.00 color="black"];n0 -> n8[label=1.00 color="black"];n0 -> n9[label=3.00 color="black"];n2 -> n1[label=3.00 color="black"];n3 -> n7[label=1.00 color="black"];n4 -> n6[label=1.00 color="black"];n5 -> n1[label=3.00 color="black"];n6 -> n1[label=3.00 color="black"];n7 -> n5[label=1.00 color="black"];n8 -> n2[label=1.00 color="black"];n9 -> n1[label=1.00 color="black"];n9 -> n3[label=1.00 color="black"];n9 -> n5[label=1.00 color="black"];n0 [ label=<> shape="rectangle"];
n1 [ label=<> shape="rectangle"];
n2 [ label=<TT_250_4_004:_T<br/>EMPERATUURMETIN<br/>G_PRODUCT_TANK_<br/>250_4_MEETFOUT_<br/>ON> shape="rectangle"];
n3 [ label=<PT_250_4_005:_D<br/>RUKMETING_PRODU<br/>CT_TANK_250_4_H<br/>OOG_HOOG_ALARM_<br/>ON> shape="rectangle"];
n4 [ label=<XV_250_4_006:_A<br/>FSLUITER_PRODUC<br/>T_TANK_250_4_IN<br/>_ALARM_OFF> shape="rectangle"];
n5 [ label=<PT_250_4_005:_D<br/>RUKMETING_PRODU<br/>CT_TANK_250_4_H<br/>OOG_ALARM_OFF> shape="rectangle"];
n6 [ label=<TT_250_4_004:_T<br/>EMPERATUURMETIN<br/>G_PRODUCT_TANK_<br/>250_4_MEETFOUT_<br/>OFF> shape="rectangle"];
n7 [ label=<PT_250_4_005:_D<br/>RUKMETING_PRODU<br/>CT_TANK_250_4_H<br/>OOG_HOOG_ALARM_<br/>OFF> shape="rectangle"];
n8 [ label=<XV_250_4_006:_A<br/>FSLUITER_PRODUC<br/>T_TANK_250_4_IN<br/>_ALARM_ON> shape="rectangle"];
n9 [ label=<PT_250_4_005:_D<br/>RUKMETING_PRODU<br/>CT_TANK_250_4_H<br/>OOG_ALARM_ON> shape="rectangle"];
}

