digraph {
n0 -> n2[label=1.00 color="black"];n0 -> n4[label=1.00 color="black"];n0 -> n5[label=3.00 color="black"];n0 -> n8[label=1.00 color="black"];n0 -> n10[label=1.00 color="black"];n0 -> n15[label=3.00 color="black"];n0 -> n17[label=1.00 color="black"];n0 -> n20[label=1.00 color="black"];n2 -> n1[label=2.00 color="black"];n3 -> n16[label=1.00 color="black"];n4 -> n1[label=2.00 color="black"];n5 -> n1[label=3.00 color="black"];n6 -> n24[label=1.00 color="black"];n7 -> n11[label=1.00 color="black"];n8 -> n14[label=1.00 color="black"];n9 -> n12[label=1.00 color="black"];n10 -> n21[label=1.00 color="black"];n11 -> n18[label=1.00 color="black"];n12 -> n23[label=1.00 color="black"];n13 -> n1[label=1.00 color="black"];n14 -> n1[label=1.00 color="black"];n15 -> n1[label=2.00 color="black"];n15 -> n7[label=1.00 color="black"];n16 -> n19[label=1.00 color="black"];n17 -> n4[label=1.00 color="black"];n18 -> n2[label=1.00 color="black"];n19 -> n1[label=1.00 color="black"];n20 -> n6[label=1.00 color="black"];n21 -> n13[label=1.00 color="black"];n22 -> n9[label=1.00 color="black"];n23 -> n25[label=1.00 color="black"];n24 -> n22[label=1.00 color="black"];n25 -> n3[label=1.00 color="black"];n0 [ label=<> shape="rectangle"];
n1 [ label=<> shape="rectangle"];
n2 [ label=<T420_2_EL1:_LEV<br/>EL_ENTIS_TANK_4<br/>20_2_LAAG_LAAG_<br/>ALARM_ON> shape="rectangle"];
n3 [ label=<T420_2_ET1:_TEM<br/>PERATUUR_VLOETS<br/>TOF_ENTIS_TANK_<br/>420_2_MEETFOUT_<br/>OFF> shape="rectangle"];
n4 [ label=<XV_420_02_003:_<br/>INLAAT_AFSLUITE<br/>R_TANK_420_02_I<br/>N_HAND_OFF> shape="rectangle"];
n5 [ label=<T420_2_ET1:_TEM<br/>PERATUUR_VLOETS<br/>TOF_ENTIS_TANK_<br/>420_2_LAAG_ALAR<br/>M_OFF> shape="rectangle"];
n6 [ label=<XV_420_02_003:_<br/>INLAAT_AFSLUITE<br/>R_TANK_420_02_I<br/>N_HAND_ON> shape="rectangle"];
n7 [ label=<T420_2_EL1:_LEV<br/>EL_ENTIS_TANK_4<br/>20_2_IN_SIMULAT<br/>IE_ON> shape="rectangle"];
n8 [ label=<T420_2_ET1:_TEM<br/>PERATUUR_VLOETS<br/>TOF_ENTIS_TANK_<br/>420_2_IN_SIMULA<br/>TIE_ON> shape="rectangle"];
n9 [ label=<XV_420_02_003:_<br/>INLAAT_AFSLUITE<br/>R_TANK_420_02_I<br/>N_HAND_ON> shape="rectangle"];
n10 [ label=<T420_2_EL1:_LEV<br/>EL_ENTIS_TANK_4<br/>20_2_LAAG_ALARM<br/>_ON> shape="rectangle"];
n11 [ label=<T420_2_EL1:_LEV<br/>EL_ENTIS_TANK_4<br/>20_2_LAAG_LAAG_<br/>ALARM_OFF> shape="rectangle"];
n12 [ label=<T420_2_ET2:_TEM<br/>PERATUUR_GAS_EN<br/>TIS_TANK_420_2_<br/>MEETFOUT_ON> shape="rectangle"];
n13 [ label=<T420_2_EL1:_LEV<br/>EL_ENTIS_TANK_4<br/>20_2_LAAG_LAAG_<br/>ALARM_OFF> shape="rectangle"];
n14 [ label=<T420_2_ET1:_TEM<br/>PERATUUR_VLOETS<br/>TOF_ENTIS_TANK_<br/>420_2_IN_SIMULA<br/>TIE_OFF> shape="rectangle"];
n15 [ label=<T420_2_ET1:_TEM<br/>PERATUUR_VLOETS<br/>TOF_ENTIS_TANK_<br/>420_2_LAAG_ALAR<br/>M_ON> shape="rectangle"];
n16 [ label=<T420_2_EM1:_MAS<br/>SA_ENTIS_TANK_4<br/>20_2_MEETFOUT_O<br/>FF> shape="rectangle"];
n17 [ label=<XV_420_02_003:_<br/>INLAAT_AFSLUITE<br/>R_TANK_420_02_I<br/>N_HAND_ON> shape="rectangle"];
n18 [ label=<T420_2_EL1:_LEV<br/>EL_ENTIS_TANK_4<br/>20_2_IN_SIMULAT<br/>IE_OFF> shape="rectangle"];
n19 [ label=<T420_2_ET2:_TEM<br/>PERATUUR_GAS_EN<br/>TIS_TANK_420_2_<br/>MEETFOUT_OFF> shape="rectangle"];
n20 [ label=<T420_2_EP1:_DRU<br/>K_ENTIS_TANK_42<br/>0_2_HOOG_ALARM_<br/>ON> shape="rectangle"];
n21 [ label=<T420_2_EL1:_LEV<br/>EL_ENTIS_TANK_4<br/>20_2_LAAG_LAAG_<br/>ALARM_ON> shape="rectangle"];
n22 [ label=<XV_420_02_003:_<br/>INLAAT_AFSLUITE<br/>R_TANK_420_02_I<br/>N_HAND_OFF> shape="rectangle"];
n23 [ label=<T420_2_ET1:_TEM<br/>PERATUUR_VLOETS<br/>TOF_ENTIS_TANK_<br/>420_2_MEETFOUT_<br/>ON> shape="rectangle"];
n24 [ label=<T420_2_EP1:_DRU<br/>K_ENTIS_TANK_42<br/>0_2_HOOG_ALARM_<br/>OFF> shape="rectangle"];
n25 [ label=<T420_2_EM1:_MAS<br/>SA_ENTIS_TANK_4<br/>20_2_MEETFOUT_O<br/>N> shape="rectangle"];
}

