
PIT_420_02_002:<br/>_DRUKMETING_TAN<br/>K_T420_02_HOOG_<br/>ALARM_ON  # 24 1
PIT_420_02_002:<br/>_DRUKMETING_TAN<br/>K_T420_02_HOOG_<br/>ALARM_OFF  # 25 1

PDIT_420_02_003<br/>:_VERSCHILDRUKM<br/>ETING_OVER_FLAM<br/>E_ARRESTOR_T420<br/>_02_HOOG_ALARM_<br/>ON  # 26 2
PDIT_420_02_003<br/>:_VERSCHILDRUKM<br/>ETING_OVER_FLAM<br/>E_ARRESTOR_T420<br/>_02_HOOG_HOOG_A<br/>LARM_ON  # 27 2
PDIT_420_02_003<br/>:_VERSCHILDRUKM<br/>ETING_OVER_FLAM<br/>E_ARRESTOR_T420<br/>_02_HOOG_HOOG_A<br/>LARM_OFF  # 28 2
PDIT_420_02_003<br/>:_VERSCHILDRUKM<br/>ETING_OVER_FLAM<br/>E_ARRESTOR_T420<br/>_02_HOOG_ALARM_<br/>OFF  # 29 2
PDIT_420_02_003<br/>:_VERSCHILDRUKM<br/>ETING_OVER_FLAM<br/>E_ARRESTOR_T420<br/>_02_HOOG_ALARM_<br/>ON  # 30 2
PDIT_420_02_003<br/>:_VERSCHILDRUKM<br/>ETING_OVER_FLAM<br/>E_ARRESTOR_T420<br/>_02_HOOG_HOOG_A<br/>LARM_ON  # 31 2
PDIT_420_02_003<br/>:_VERSCHILDRUKM<br/>ETING_OVER_FLAM<br/>E_ARRESTOR_T420<br/>_02_HOOG_HOOG_A<br/>LARM_OFF  # 32 2
PDIT_420_02_003<br/>:_VERSCHILDRUKM<br/>ETING_OVER_FLAM<br/>E_ARRESTOR_T420<br/>_02_HOOG_ALARM_<br/>OFF  # 33 2

PDIT_420_02_003<br/>:_VERSCHILDRUKM<br/>ETING_OVER_FLAM<br/>E_ARRESTOR_T420<br/>_02_COMMENTAAR_<br/>AAN_ON  # 0 3
PDIT_420_02_003<br/>:_VERSCHILDRUKM<br/>ETING_OVER_FLAM<br/>E_ARRESTOR_T420<br/>_02_COMMENTAAR_<br/>AAN_OFF  # 1 3
PDIT_420_02_003<br/>:_VERSCHILDRUKM<br/>ETING_OVER_FLAM<br/>E_ARRESTOR_T420<br/>_02_COMMENTAAR_<br/>AAN_ON  # 2 3

PDIT_420_02_003<br/>:_VERSCHILDRUKM<br/>ETING_OVER_FLAM<br/>E_ARRESTOR_T420<br/>_02_HOOG_ALARM_<br/>ON  # 3 4
PDIT_420_02_003<br/>:_VERSCHILDRUKM<br/>ETING_OVER_FLAM<br/>E_ARRESTOR_T420<br/>_02_HOOG_HOOG_A<br/>LARM_ON  # 4 4
PDIT_420_02_003<br/>:_VERSCHILDRUKM<br/>ETING_OVER_FLAM<br/>E_ARRESTOR_T420<br/>_02_HOOG_HOOG_A<br/>LARM_OFF  # 5 4
PDIT_420_02_003<br/>:_VERSCHILDRUKM<br/>ETING_OVER_FLAM<br/>E_ARRESTOR_T420<br/>_02_HOOG_ALARM_<br/>OFF  # 6 4
PDIT_420_02_003<br/>:_VERSCHILDRUKM<br/>ETING_OVER_FLAM<br/>E_ARRESTOR_T420<br/>_02_HOOG_ALARM_<br/>ON  # 7 4
PDIT_420_02_003<br/>:_VERSCHILDRUKM<br/>ETING_OVER_FLAM<br/>E_ARRESTOR_T420<br/>_02_HOOG_HOOG_A<br/>LARM_ON  # 8 4

PDIT_420_02_003<br/>:_VERSCHILDRUKM<br/>ETING_OVER_FLAM<br/>E_ARRESTOR_T420<br/>_02_HOOG_HOOG_A<br/>LARM_OFF  # 9 5
PDIT_420_02_003<br/>:_VERSCHILDRUKM<br/>ETING_OVER_FLAM<br/>E_ARRESTOR_T420<br/>_02_HOOG_HOOG_A<br/>LARM_ON  # 10 5
PDIT_420_02_003<br/>:_VERSCHILDRUKM<br/>ETING_OVER_FLAM<br/>E_ARRESTOR_T420<br/>_02_HOOG_HOOG_A<br/>LARM_OFF  # 11 5
PDIT_420_02_003<br/>:_VERSCHILDRUKM<br/>ETING_OVER_FLAM<br/>E_ARRESTOR_T420<br/>_02_HOOG_ALARM_<br/>OFF  # 12 5
PDIT_420_02_003<br/>:_VERSCHILDRUKM<br/>ETING_OVER_FLAM<br/>E_ARRESTOR_T420<br/>_02_HOOG_ALARM_<br/>ON  # 13 5
PDIT_420_02_003<br/>:_VERSCHILDRUKM<br/>ETING_OVER_FLAM<br/>E_ARRESTOR_T420<br/>_02_HOOG_ALARM_<br/>OFF  # 14 5
PDIT_420_02_003<br/>:_VERSCHILDRUKM<br/>ETING_OVER_FLAM<br/>E_ARRESTOR_T420<br/>_02_HOOG_ALARM_<br/>ON  # 15 5
PDIT_420_02_003<br/>:_VERSCHILDRUKM<br/>ETING_OVER_FLAM<br/>E_ARRESTOR_T420<br/>_02_HOOG_HOOG_A<br/>LARM_ON  # 16 5

PDIT_420_02_003<br/>:_VERSCHILDRUKM<br/>ETING_OVER_FLAM<br/>E_ARRESTOR_T420<br/>_02_HOOG_ALARM_<br/>OFF  # 18 6
PDIT_420_02_003<br/>:_VERSCHILDRUKM<br/>ETING_OVER_FLAM<br/>E_ARRESTOR_T420<br/>_02_HOOG_HOOG_A<br/>LARM_OFF  # 17 6
PDIT_420_02_003<br/>:_VERSCHILDRUKM<br/>ETING_OVER_FLAM<br/>E_ARRESTOR_T420<br/>_02_HOOG_ALARM_<br/>ON  # 20 6
PDIT_420_02_003<br/>:_VERSCHILDRUKM<br/>ETING_OVER_FLAM<br/>E_ARRESTOR_T420<br/>_02_HOOG_HOOG_A<br/>LARM_ON  # 19 6
PDIT_420_02_003<br/>:_VERSCHILDRUKM<br/>ETING_OVER_FLAM<br/>E_ARRESTOR_T420<br/>_02_HOOG_HOOG_A<br/>LARM_OFF  # 21 6
PDIT_420_02_003<br/>:_VERSCHILDRUKM<br/>ETING_OVER_FLAM<br/>E_ARRESTOR_T420<br/>_02_HOOG_ALARM_<br/>OFF  # 22 6

PDIT_420_02_003<br/>:_VERSCHILDRUKM<br/>ETING_OVER_FLAM<br/>E_ARRESTOR_T420<br/>_02_COMMENTAAR_<br/>AAN_OFF  # 23 7
