
PDIT_420_01_003<br/>:_VERSCHILDRUKM<br/>ETING_OVER_FLAM<br/>E_ARRESTOR_T420<br/>_01_HOOG_ALARM_<br/>ON  # 24 1
PDIT_420_01_003<br/>:_VERSCHILDRUKM<br/>ETING_OVER_FLAM<br/>E_ARRESTOR_T420<br/>_01_HOOG_HOOG_A<br/>LARM_ON  # 22 1
PDIT_420_01_003<br/>:_VERSCHILDRUKM<br/>ETING_OVER_FLAM<br/>E_ARRESTOR_T420<br/>_01_HOOG_HOOG_A<br/>LARM_OFF  # 25 1
PDIT_420_01_003<br/>:_VERSCHILDRUKM<br/>ETING_OVER_FLAM<br/>E_ARRESTOR_T420<br/>_01_HOOG_ALARM_<br/>OFF  # 26 1

PDIT_420_01_003<br/>:_VERSCHILDRUKM<br/>ETING_OVER_FLAM<br/>E_ARRESTOR_T420<br/>_01_HOOG_ALARM_<br/>ON  # 27 2
PDIT_420_01_003<br/>:_VERSCHILDRUKM<br/>ETING_OVER_FLAM<br/>E_ARRESTOR_T420<br/>_01_HOOG_HOOG_A<br/>LARM_ON  # 28 2
PDIT_420_01_003<br/>:_VERSCHILDRUKM<br/>ETING_OVER_FLAM<br/>E_ARRESTOR_T420<br/>_01_HOOG_HOOG_A<br/>LARM_OFF  # 29 2
PDIT_420_01_003<br/>:_VERSCHILDRUKM<br/>ETING_OVER_FLAM<br/>E_ARRESTOR_T420<br/>_01_HOOG_ALARM_<br/>OFF  # 30 2
PDIT_420_01_003<br/>:_VERSCHILDRUKM<br/>ETING_OVER_FLAM<br/>E_ARRESTOR_T420<br/>_01_HOOG_ALARM_<br/>ON  # 23 2

PDIT_420_01_003<br/>:_VERSCHILDRUKM<br/>ETING_OVER_FLAM<br/>E_ARRESTOR_T420<br/>_01_HOOG_ALARM_<br/>OFF  # 31 3

PDIT_420_01_003<br/>:_VERSCHILDRUKM<br/>ETING_OVER_FLAM<br/>E_ARRESTOR_T420<br/>_01_HOOG_ALARM_<br/>ON  # 0 4
PDIT_420_01_003<br/>:_VERSCHILDRUKM<br/>ETING_OVER_FLAM<br/>E_ARRESTOR_T420<br/>_01_HOOG_HOOG_A<br/>LARM_ON  # 1 4
PDIT_420_01_003<br/>:_VERSCHILDRUKM<br/>ETING_OVER_FLAM<br/>E_ARRESTOR_T420<br/>_01_HOOG_HOOG_A<br/>LARM_OFF  # 2 4
PDIT_420_01_003<br/>:_VERSCHILDRUKM<br/>ETING_OVER_FLAM<br/>E_ARRESTOR_T420<br/>_01_HOOG_ALARM_<br/>OFF  # 3 4

PIT_420_01_002:<br/>_DRUKMETING_TAN<br/>K_T420_01_LAAG_<br/>ALARM_ON  # 4 5

PIT_420_01_002:<br/>_DRUKMETING_TAN<br/>K_T420_01_LAAG_<br/>ALARM_OFF  # 5 6

PDIT_420_01_003<br/>:_VERSCHILDRUKM<br/>ETING_OVER_FLAM<br/>E_ARRESTOR_T420<br/>_01_HOOG_ALARM_<br/>ON  # 6 7
PDIT_420_01_003<br/>:_VERSCHILDRUKM<br/>ETING_OVER_FLAM<br/>E_ARRESTOR_T420<br/>_01_HOOG_ALARM_<br/>OFF  # 7 7

PDIT_420_01_003<br/>:_VERSCHILDRUKM<br/>ETING_OVER_FLAM<br/>E_ARRESTOR_T420<br/>_01_HOOG_ALARM_<br/>ON  # 8 8
PDIT_420_01_003<br/>:_VERSCHILDRUKM<br/>ETING_OVER_FLAM<br/>E_ARRESTOR_T420<br/>_01_HOOG_ALARM_<br/>OFF  # 9 8

PDIT_420_01_003<br/>:_VERSCHILDRUKM<br/>ETING_OVER_FLAM<br/>E_ARRESTOR_T420<br/>_01_HOOG_ALARM_<br/>ON  # 11 9
PDIT_420_01_003<br/>:_VERSCHILDRUKM<br/>ETING_OVER_FLAM<br/>E_ARRESTOR_T420<br/>_01_HOOG_HOOG_A<br/>LARM_ON  # 12 9
PDIT_420_01_003<br/>:_VERSCHILDRUKM<br/>ETING_OVER_FLAM<br/>E_ARRESTOR_T420<br/>_01_HOOG_HOOG_A<br/>LARM_OFF  # 13 9
PDIT_420_01_003<br/>:_VERSCHILDRUKM<br/>ETING_OVER_FLAM<br/>E_ARRESTOR_T420<br/>_01_HOOG_ALARM_<br/>OFF  # 14 9

PDIT_420_01_003<br/>:_VERSCHILDRUKM<br/>ETING_OVER_FLAM<br/>E_ARRESTOR_T420<br/>_01_HOOG_ALARM_<br/>ON  # 15 10
PDIT_420_01_003<br/>:_VERSCHILDRUKM<br/>ETING_OVER_FLAM<br/>E_ARRESTOR_T420<br/>_01_HOOG_HOOG_A<br/>LARM_ON  # 10 10
PDIT_420_01_003<br/>:_VERSCHILDRUKM<br/>ETING_OVER_FLAM<br/>E_ARRESTOR_T420<br/>_01_HOOG_HOOG_A<br/>LARM_OFF  # 16 10
PDIT_420_01_003<br/>:_VERSCHILDRUKM<br/>ETING_OVER_FLAM<br/>E_ARRESTOR_T420<br/>_01_HOOG_ALARM_<br/>OFF  # 17 10

PDIT_420_01_003<br/>:_VERSCHILDRUKM<br/>ETING_OVER_FLAM<br/>E_ARRESTOR_T420<br/>_01_HOOG_ALARM_<br/>ON  # 18 11
PDIT_420_01_003<br/>:_VERSCHILDRUKM<br/>ETING_OVER_FLAM<br/>E_ARRESTOR_T420<br/>_01_HOOG_HOOG_A<br/>LARM_ON  # 19 11

PDIT_420_01_003<br/>:_VERSCHILDRUKM<br/>ETING_OVER_FLAM<br/>E_ARRESTOR_T420<br/>_01_HOOG_HOOG_A<br/>LARM_OFF  # 20 12
PDIT_420_01_003<br/>:_VERSCHILDRUKM<br/>ETING_OVER_FLAM<br/>E_ARRESTOR_T420<br/>_01_HOOG_ALARM_<br/>OFF  # 21 12
