Date,Time,Message text,Status,Acknowledgment Status
16/09/15,13:32:35,Order data 1,ON,
16/09/15,13:42:22,Order data 2,ON,
16/09/15,13:42:24,Order data 3,ON,
16/09/15,13:42:30,Order data 3,OFF,
16/09/15,13:42:32,Order data 2,OFF,
16/09/15,13:44:06,Variatie alarm,ON,
16/09/15,13:44:28,Order data 4,ON,
16/09/15,13:44:32,Order data 4,OFF,
16/09/15,13:44:43,Variatie alarm,OFF,
16/09/15,14:04:44,Order data 9,ON,
16/09/15,14:07:01,Wccrt 1,ON,
16/09/15,14:07:33,Wccrt 2,ON,
16/09/15,13:45:14,Variatie alarm,ACK,
16/09/15,13:45:26,Order data 5,ON,
16/09/15,13:45:32,Order data 5,OFF,
16/09/15,13:46:00,Deltaloader 1,ON,
16/09/15,13:46:02,Deltaloader 1,ON,
16/09/15,13:46:19,Deltaloader 2,ON,
16/09/15,13:46:30,Deltaloader 2,ON,
16/09/15,13:48:44,Order data 6,ON,
16/09/15,13:48:52,Order data 6,OFF,
16/09/15,13:49:54,Order data 7,ON,
16/09/15,13:50:30,Order data 7,OFF,
16/09/15,14:04:44,Order data 9,ON,
16/09/15,14:07:01,Wccrt 1,ON,
16/09/15,14:07:33,Wccrt 2,ON,
16/09/15,13:50:42,Deltaloader 1,ON,
16/09/15,13:50:44,Deltaloader 1,ON,
16/09/15,13:51:01,Deltaloader 2,ON,
16/09/15,13:51:13,Deltaloader 2,ON,
16/09/15,13:58:42,Drukmeting hoog,ON,
16/09/15,13:59:23,Drukmeting hoog,ACK,
16/09/15,14:02:18,Drukmeting hooghoog,ON,
16/09/15,14:02:57,Drukmeting hooghoog,ACK,
16/09/15,14:03:42,Order data 8,ON,
16/09/15,14:03:46,Order data 8,OFF,
16/09/15,14:04:34,Order data 9,ON,
16/09/15,14:04:44,Order data 9,ON,
16/09/15,14:07:01,Wccrt 1,ON,
16/09/15,14:07:33,Wccrt 2,ON,
16/09/15,14:04:44,Order data 9,ON,
16/09/15,14:07:43,Wccrt 1,ON,
16/09/15,14:08:12,Sync 1,ON,
16/09/15,14:08:14,Wccrt 2,ON,
16/09/15,14:08:16,Wccrt,ACK,
16/09/15,14:08:17,Wccrt,ACK,
16/09/15,14:09:22,Order data 10,ON,
16/09/15,14:10:00,Order data 10,OFF,
16/09/15,14:13:25,Luchtdrukmeting laag,OFF,
16/09/15,14:13:25,Niveaumeting hoog,OFF,
16/09/15,14:13:25,Niveaumeting hoog hoog,OFF,
16/09/15,14:13:25,Hoog niveau switch,OFF,
16/09/15,14:13:25,Proces 1 gestopt,OFF,
16/09/15,14:13:25,draadbreuk verschildrukmeting,OFF,
16/09/15,14:13:25,Terugmeldingsfout 1,OFF,
16/09/15,14:15:03,Terugmelding deur 1,ON,
16/09/15,14:04:44,Order data 9,ON,
16/09/15,14:07:01,Wccrt 1,ON,
